tutorial/stratus_examples/lab_loop_unrolling/bdw_work/sims/UNROLL_ALL_V/verilog.vcd
$date
    Nov 17, 2020  22:53:59
$end
$version
    TOOL:	ncsim(64)	15.20-s016
$end
$timescale
    1 ps
$end

$scope module top $end

$scope module dut0 $end
$var reg       1 !    clk  $end
$var reg       1 "    rst  $end
$var wire      1 #    din_busy  $end
$var reg       1 $    din_vld  $end
$var reg       8 %    din_data [7:0] $end
$var reg       1 &    dout_busy  $end
$var wire      1 '    dout_vld  $end
$var wire     11 (    dout_data [10:0] $end

$scope module dut0 $end
$var wire      1 )    clk  $end
$var wire      1 *    rst  $end
$var wire      1 +    din_vld  $end
$var wire      8 ,    din_data [7:0] $end
$var wire      1 -    dout_busy  $end
$var wire      1 #    din_busy  $end
$var wire      1 '    dout_vld  $end
$var reg      11 .    dout_data [10:0] $end
$var reg       1 /    dout_m_req_m_prev_trig_req  $end
$var reg       1 0    dout_m_unacked_req  $end
$var wire      1 1    dut_Xor_1Ux1U_1U_4_9_out1  $end
$var wire      1 2    dut_Or_1Ux1U_1U_4_10_out1  $end
$var reg       1 3    dut_N_Muxb_1_2_0_4_1_out1  $end
$var wire      1 4    dut_And_1Ux1U_1U_4_5_out1  $end
$var wire      1 5    dut_Not_1U_1U_4_4_out1  $end
$var reg       1 6    din_m_unvalidated_req  $end
$var wire      1 7    dut_Or_1Ux1U_1U_4_2_out1  $end
$var wire      1 8    dut_And_1Ux1U_1U_4_3_out1  $end
$var reg       6 9    global_state_next [5:0] $end
$var reg      11 :    dut_Add_11Ux8U_11U_4_14_in2 [10:0] $end
$var reg       1 ;    gs_ctrl4  $end
$var reg       1 <    gs_ctrl3  $end
$var reg       1 =    gs_ctrl2  $end
$var reg       2 >    gs_ctrl1 [1:0] $end
$var reg       3 ?    gs_ctrl0 [2:0] $end
$var wire      1 @    dut_Not_1U_1U_4_6_out1  $end
$var wire      1 A    dut_And_1Ux1U_1U_4_11_out1  $end
$var wire      1 B    dut_Not_1U_1U_4_12_out1  $end
$var reg       1 C    dout_m_req_m_trig_req  $end
$var reg       1 D    din_m_busy_req_0  $end
$var wire     11 E    dut_Add_11Ux8U_11U_4_14_out1 [10:0] $end
$var wire      9 F    dut_Add_8Ux8U_9U_4_13_out1 [8:0] $end
$var reg       6 G    global_state [5:0] $end
$var reg       1 H    stall0  $end
$var reg       8 I    dut_RAM_8X8_1_my_array_1_DIN [7:0] $end
$var reg       1 J    dut_RAM_8X8_1_my_array_1_CE  $end
$var reg       1 K    dut_RAM_8X8_1_my_array_1_RW  $end
$var reg       3 L    dut_RAM_8X8_1_my_array_1_in1 [2:0] $end
$var wire      8 M    dut_RAM_8X8_1_my_array_1_out1 [7:0] $end

$scope module dut_RAM_8X8_1_my_array_1 $end
$var wire      8 N    DIN [7:0] $end
$var wire      1 O    CE  $end
$var wire      1 P    RW  $end
$var wire      3 Q    in1 [2:0] $end
$var wire      1 )    clk  $end
$var reg       8 R    out1 [7:0] $end
$upscope $end

$upscope $end

$upscope $end

$upscope $end

$enddefinitions $end
$dumpvars
1!
0"
1#
0$
b0 %
1&
0'
bx (
1)
0*
0+
b0 ,
1-
bx .
0/
00
01
02
13
04
05
16
17
18
b1 9
bx :
0;
0<
0=
b0 >
b0 ?
1@
0A
1B
0C
1D
bx E
bx F
b0 G
0H
b0 I
0J
0K
b0 L
b0 M
b0 N
0O
0P
b0 Q
b0 R
$end
#2500
0!
0)
#5000
1!
1)
#7500
0!
0)
#10000
1!
1)
1"
1*
#12500
0!
0)
#15000
1!
1)
1<
0D
b1 G
1=
1K
03
1H
b10 9
0K
08
15
0#
b1010 %
1$
0&
0-
1+
b1010 ,
14
0@
13
b1010 I
0H
1J
1K
1P
1O
b1010 N
#17500
0!
0)
#20000
1!
1)
1D
b10 G
b1 ?
b1 >
b1010 .
b11 9
b1 L
b1010 :
b1010 E
b1 Q
b1010 F
18
b1010 (
05
1#
04
1@
b1001 %
b1001 ,
#22500
0!
0)
#25000
1!
1)
b11 G
b10 ?
b100 9
b10 L
b10 Q
#27500
0!
0)
#30000
1!
1)
b100 G
b11 ?
b101 9
b11 L
b11 Q
#32500
0!
0)
#35000
1!
1)
b101 G
b100 ?
b110 9
b100 L
b100 Q
#37500
0!
0)
#40000
1!
1)
b110 G
b101 ?
b111 9
b101 L
b101 Q
#42500
0!
0)
#45000
1!
1)
b111 G
b110 ?
b1000 9
b110 L
b110 Q
#47500
0!
0)
#50000
1!
1)
b1000 G
b111 ?
b1001 9
b111 L
b111 Q
#52500
0!
0)
#55000
1!
1)
0<
b1001 G
b0 ?
b0 >
0=
0K
b1010 9
b0 L
b1001 I
0J
0O
b1001 N
b0 Q
0P
#57500
0!
0)
#60000
1!
1)
1C
b1010 G
b1011 9
0B
11
12
1'
#62500
0!
0)
#65000
1!
1)
1/
0D
b1011 G
b1 ?
1=
1H
b1100 9
b1 L
b1 Q
08
01
15
0#
14
0@
0H
1J
1O
02
0'
#67500
0!
0)
#70000
1!
1)
1<
1D
b1100 G
b0 ?
b10 >
b1001 .
b1010 R
1K
b1101 9
b0 L
b0 I
b1001 :
b1001 E
b0 N
b0 Q
1P
b1001 F
18
b1010 M
b1001 (
05
1#
04
1@
b1010 I
b1010 N
b10011 F
b10011 E
b1000 %
b1000 ,
#72500
0!
0)
#75000
1!
1)
0<
b1101 G
b10 ?
b0 >
0K
b1110 9
b10 L
b1000 I
b1000 N
b10 Q
0P
#77500
0!
0)
#80000
1!
1)
1<
b1110 G
b1 ?
b10 >
1K
b1111 9
b1 L
b1010 I
b1010 N
b1 Q
1P
#82500
0!
0)
#85000
1!
1)
0<
b1111 G
b11 ?
b0 >
0K
b10000 9
b11 L
b1000 I
b1000 N
b11 Q
0P
#87500
0!
0)
#90000
1!
1)
1<
b10000 G
b10 ?
b10 >
1K
b10001 9
b10 L
b1010 I
b1010 N
b10 Q
1P
#92500
0!
0)
#95000
1!
1)
0<
b10001 G
b100 ?
b0 >
0K
b10010 9
b100 L
b1000 I
b1000 N
b100 Q
0P
#97500
0!
0)
#100000
1!
1)
1<
b10010 G
b11 ?
b10 >
1K
b10011 9
b11 L
b1010 I
b1010 N
b11 Q
1P
#102500
0!
0)
#105000
1!
1)
0<
b10011 G
b101 ?
b0 >
0K
b10100 9
b101 L
b1000 I
b1000 N
b101 Q
0P
#107500
0!
0)
#110000
1!
1)
1<
b10100 G
b100 ?
b10 >
1K
b10101 9
b100 L
b1010 I
b1010 N
b100 Q
1P
#112500
0!
0)
#115000
1!
1)
0<
b10101 G
b110 ?
b0 >
0K
b10110 9
b110 L
b1000 I
b1000 N
b110 Q
0P
#117500
0!
0)
#120000
1!
1)
1<
b10110 G
b101 ?
b10 >
1K
b10111 9
b101 L
b1010 I
b1010 N
b101 Q
1P
#122500
0!
0)
#125000
1!
1)
0<
b10111 G
b111 ?
b0 >
0K
b11000 9
b111 L
b1000 I
b1000 N
b111 Q
0P
#127500
0!
0)
#130000
1!
1)
1<
b11000 G
b110 ?
b10 >
1K
b11001 9
b110 L
b1010 I
b1010 N
b110 Q
1P
#132500
0!
0)
#135000
1!
1)
b11001 G
b111 ?
b1 >
b11010 9
b111 L
b1001 I
b1001 N
b111 Q
#137500
0!
0)
#140000
1!
1)
0<
b11010 G
b1 ?
b0 >
0K
b11011 9
b1 L
b1000 I
b1000 N
b1 Q
0P
#142500
0!
0)
#145000
1!
1)
b11011 G
b0 ?
b11100 9
b0 L
b0 Q
#147500
0!
0)
#150000
1!
1)
b11100 G
b10 ?
b1010 .
b11101 9
b10 L
b1010 :
b10100 E
b10 Q
b10100 F
b1010 (
#152500
0!
0)
#155000
1!
1)
b11101 G
b11 ?
b10100 .
b11110 9
b11 L
b10100 :
b11110 E
b11 Q
b11110 F
b10100 (
#157500
0!
0)
#160000
1!
1)
b11110 G
b100 ?
b11110 .
b11111 9
b100 L
b11110 :
b101000 E
b100 Q
b101000 F
b11110 (
#162500
0!
0)
#165000
1!
1)
1;
b11111 G
b101 ?
b101000 .
b101000 :
b100000 9
b101 L
b101 Q
b110010 E
b110010 F
b101000 (
#167500
0!
0)
#170000
1!
1)
0;
b100000 G
b110 ?
b110010 .
b110010 :
b100001 9
b110 L
b110 Q
b111100 E
b111100 F
b110010 (
#172500
0!
0)
#175000
1!
1)
b100001 G
b111 ?
b111100 .
b100010 9
b111 L
b111100 :
b1000110 E
b111 Q
b1000110 F
b111100 (
#177500
0!
0)
#180000
1!
1)
b100010 G
b0 ?
0=
b1000110 .
b1001 R
b100011 9
b0 L
0J
b1000110 :
b1010000 E
0O
b0 Q
b1010000 F
b1001 M
b1000110 (
b1001111 F
b1001111 E
#182500
0!
0)
#185000
1!
1)
0C
b100011 G
b1001 .
b0 R
b1011 9
b1001 :
b10010 E
b10010 F
1B
11
b0 M
b1001 (
b1001 F
b1001 E
12
1'
#187500
0!
0)
#190000
1!
1)
0/
0D
b1011 G
b1 ?
1=
1H
b1100 9
b1 L
b1 Q
08
01
15
0#
14
0@
0H
1J
1O
02
0'
#192500
0!
0)
#195000
1!
1)
1<
1D
b1100 G
b0 ?
b10 >
b1000 .
b1010 R
1K
b1101 9
b0 L
b0 I
b1000 :
b1000 E
b0 N
b0 Q
1P
b1000 F
18
b1010 M
b1000 (
05
1#
04
1@
b1010 I
b1010 N
b10010 F
b10010 E
b111 %
b111 ,
#197500
0!
0)
#200000
1!
1)
0<
b1101 G
b10 ?
b0 >
0K
b1110 9
b10 L
b111 I
b111 N
b10 Q
0P
#202500
0!
0)
#205000
1!
1)
1<
b1110 G
b1 ?
b10 >
1K
b1111 9
b1 L
b1010 I
b1010 N
b1 Q
1P
#207500
0!
0)
#210000
1!
1)
0<
b1111 G
b11 ?
b0 >
0K
b10000 9
b11 L
b111 I
b111 N
b11 Q
0P
#212500
0!
0)
#215000
1!
1)
1<
b10000 G
b10 ?
b10 >
1K
b10001 9
b10 L
b1010 I
b1010 N
b10 Q
1P
#217500
0!
0)
#220000
1!
1)
0<
b10001 G
b100 ?
b0 >
0K
b10010 9
b100 L
b111 I
b111 N
b100 Q
0P
#222500
0!
0)
#225000
1!
1)
1<
b10010 G
b11 ?
b10 >
1K
b10011 9
b11 L
b1010 I
b1010 N
b11 Q
1P
#227500
0!
0)
#230000
1!
1)
0<
b10011 G
b101 ?
b0 >
0K
b10100 9
b101 L
b111 I
b111 N
b101 Q
0P
#232500
0!
0)
#235000
1!
1)
1<
b10100 G
b100 ?
b10 >
1K
b10101 9
b100 L
b1010 I
b1010 N
b100 Q
1P
#237500
0!
0)
#240000
1!
1)
0<
b10101 G
b110 ?
b0 >
0K
b10110 9
b110 L
b111 I
b111 N
b110 Q
0P
#242500
0!
0)
#245000
1!
1)
1<
b10110 G
b101 ?
b10 >
1K
b10111 9
b101 L
b1010 I
b1010 N
b101 Q
1P
#247500
0!
0)
#250000
1!
1)
0<
b10111 G
b111 ?
b0 >
0K
b11000 9
b111 L
b111 I
b111 N
b111 Q
0P
#252500
0!
0)
#255000
1!
1)
1<
b11000 G
b110 ?
b10 >
b1001 R
1K
b11001 9
b110 L
b1010 I
b1010 N
b110 Q
1P
b1001 M
b1001 I
b1001 N
b10001 F
b10001 E
#257500
0!
0)
#260000
1!
1)
b11001 G
b111 ?
b1 >
b11010 9
b111 L
b1000 I
b1000 N
b111 Q
#262500
0!
0)
#265000
1!
1)
0<
b11010 G
b1 ?
b0 >
0K
b11011 9
b1 L
b111 I
b111 N
b1 Q
0P
#267500
0!
0)
#270000
1!
1)
b11011 G
b0 ?
b1010 R
b11100 9
b0 L
b0 Q
b1010 M
b10010 F
b10010 E
#272500
0!
0)
#275000
1!
1)
b11100 G
b10 ?
b1010 .
b11101 9
b10 L
b1010 :
b10100 E
b10 Q
b10100 F
b1010 (
#277500
0!
0)
#280000
1!
1)
b11101 G
b11 ?
b10100 .
b11110 9
b11 L
b10100 :
b11110 E
b11 Q
b11110 F
b10100 (
#282500
0!
0)
#285000
1!
1)
b11110 G
b100 ?
b11110 .
b11111 9
b100 L
b11110 :
b101000 E
b100 Q
b101000 F
b11110 (
#287500
0!
0)
#290000
1!
1)
1;
b11111 G
b101 ?
b101000 .
b101000 :
b100000 9
b101 L
b101 Q
b110010 E
b110010 F
b101000 (
#292500
0!
0)
#295000
1!
1)
0;
b100000 G
b110 ?
b110010 .
b110010 :
b100001 9
b110 L
b110 Q
b111100 E
b111100 F
b110010 (
#297500
0!
0)
#300000
1!
1)
b100001 G
b111 ?
b111100 .
b1001 R
b100010 9
b111 L
b111100 :
b1000110 E
b111 Q
b1000110 F
b1001 M
b111100 (
b1000101 F
b1000101 E
#302500
0!
0)
#305000
1!
1)
b100010 G
b0 ?
0=
b1000101 .
b1000 R
b100011 9
b0 L
0J
b1000101 :
b1001110 E
0O
b0 Q
b1001110 F
b1000 M
b1000101 (
b1001101 F
b1001101 E
#307500
0!
0)
#310000
1!
1)
1C
b100011 G
b1001 .
b0 R
b1011 9
b1001 :
b10001 E
b10001 F
0B
11
b0 M
b1001 (
b1001 F
b1001 E
12
1'
#312500
0!
0)
#315000
1!
1)
1/
0D
b1011 G
b1 ?
1=
1H
b1100 9
b1 L
b1 Q
08
01
15
0#
14
0@
0H
1J
1O
02
0'
#317500
0!
0)
#320000
1!
1)
1<
1D
b1100 G
b0 ?
b10 >
b111 .
b1010 R
1K
b1101 9
b0 L
b0 I
b111 :
b111 E
b0 N
b0 Q
1P
b111 F
18
b1010 M
b111 (
05
1#
04
1@
b1010 I
b1010 N
b10001 F
b10001 E
b110 %
b110 ,
#322500
0!
0)
#325000
1!
1)
0<
b1101 G
b10 ?
b0 >
0K
b1110 9
b10 L
b110 I
b110 N
b10 Q
0P
#327500
0!
0)
#330000
1!
1)
1<
b1110 G
b1 ?
b10 >
1K
b1111 9
b1 L
b1010 I
b1010 N
b1 Q
1P
#332500
0!
0)
#335000
1!
1)
0<
b1111 G
b11 ?
b0 >
0K
b10000 9
b11 L
b110 I
b110 N
b11 Q
0P
#337500
0!
0)
#340000
1!
1)
1<
b10000 G
b10 ?
b10 >
1K
b10001 9
b10 L
b1010 I
b1010 N
b10 Q
1P
#342500
0!
0)
#345000
1!
1)
0<
b10001 G
b100 ?
b0 >
0K
b10010 9
b100 L
b110 I
b110 N
b100 Q
0P
#347500
0!
0)
#350000
1!
1)
1<
b10010 G
b11 ?
b10 >
1K
b10011 9
b11 L
b1010 I
b1010 N
b11 Q
1P
#352500
0!
0)
#355000
1!
1)
0<
b10011 G
b101 ?
b0 >
0K
b10100 9
b101 L
b110 I
b110 N
b101 Q
0P
#357500
0!
0)
#360000
1!
1)
1<
b10100 G
b100 ?
b10 >
1K
b10101 9
b100 L
b1010 I
b1010 N
b100 Q
1P
#362500
0!
0)
#365000
1!
1)
0<
b10101 G
b110 ?
b0 >
0K
b10110 9
b110 L
b110 I
b110 N
b110 Q
0P
#367500
0!
0)
#370000
1!
1)
1<
b10110 G
b101 ?
b10 >
b1001 R
1K
b10111 9
b101 L
b1010 I
b1010 N
b101 Q
1P
b1001 M
b1001 I
b1001 N
b10000 F
b10000 E
#372500
0!
0)
#375000
1!
1)
0<
b10111 G
b111 ?
b0 >
0K
b11000 9
b111 L
b110 I
b110 N
b111 Q
0P
#377500
0!
0)
#380000
1!
1)
1<
b11000 G
b110 ?
b10 >
b1000 R
1K
b11001 9
b110 L
b1001 I
b1001 N
b110 Q
1P
b1000 M
b1000 I
b1000 N
b1111 F
b1111 E
#382500
0!
0)
#385000
1!
1)
b11001 G
b111 ?
b1 >
b11010 9
b111 L
b111 I
b111 N
b111 Q
#387500
0!
0)
#390000
1!
1)
0<
b11010 G
b1 ?
b0 >
0K
b11011 9
b1 L
b110 I
b110 N
b1 Q
0P
#392500
0!
0)
#395000
1!
1)
b11011 G
b0 ?
b1010 R
b11100 9
b0 L
b0 Q
b1010 M
b10001 F
b10001 E
#397500
0!
0)
#400000
1!
1)
b11100 G
b10 ?
b1010 .
b11101 9
b10 L
b1010 :
b10100 E
b10 Q
b10100 F
b1010 (
#402500
0!
0)
#405000
1!
1)
b11101 G
b11 ?
b10100 .
b11110 9
b11 L
b10100 :
b11110 E
b11 Q
b11110 F
b10100 (
#407500
0!
0)
#410000
1!
1)
b11110 G
b100 ?
b11110 .
b11111 9
b100 L
b11110 :
b101000 E
b100 Q
b101000 F
b11110 (
#412500
0!
0)
#415000
1!
1)
1;
b11111 G
b101 ?
b101000 .
b101000 :
b100000 9
b101 L
b101 Q
b110010 E
b110010 F
b101000 (
#417500
0!
0)
#420000
1!
1)
0;
b100000 G
b110 ?
b110010 .
b1001 R
b110010 :
b100001 9
b110 L
b110 Q
b111100 E
b111100 F
b1001 M
b110010 (
b111011 F
b111011 E
#422500
0!
0)
#425000
1!
1)
b100001 G
b111 ?
b111011 .
b1000 R
b100010 9
b111 L
b111011 :
b1000100 E
b111 Q
b1000100 F
b1000 M
b111011 (
b1000011 F
b1000011 E
#427500
0!
0)
#430000
1!
1)
b100010 G
b0 ?
0=
b1000011 .
b111 R
b100011 9
b0 L
0J
b1000011 :
b1001011 E
0O
b0 Q
b1001011 F
b111 M
b1000011 (
b1001010 F
b1001010 E
#432500
0!
0)
#435000
1!
1)
0C
b100011 G
b1001 .
b0 R
b1011 9
b1001 :
b10000 E
b10000 F
1B
11
b0 M
b1001 (
b1001 F
b1001 E
12
1'
#437500
0!
0)
#440000
1!
1)
0/
0D
b1011 G
b1 ?
1=
1H
b1100 9
b1 L
b1 Q
08
01
15
0#
14
0@
0H
1J
1O
02
0'
#442500
0!
0)
#445000
1!
1)
1<
1D
b1100 G
b0 ?
b10 >
b110 .
b1010 R
1K
b1101 9
b0 L
b0 I
b110 :
b110 E
b0 N
b0 Q
1P
b110 F
18
b1010 M
b110 (
05
1#
04
1@
b1010 I
b1010 N
b10000 F
b10000 E
b101 %
b101 ,
#447500
0!
0)
#450000
1!
1)
0<
b1101 G
b10 ?
b0 >
0K
b1110 9
b10 L
b101 I
b101 N
b10 Q
0P
#452500
0!
0)
#455000
1!
1)
1<
b1110 G
b1 ?
b10 >
1K
b1111 9
b1 L
b1010 I
b1010 N
b1 Q
1P
#457500
0!
0)
#460000
1!
1)
0<
b1111 G
b11 ?
b0 >
0K
b10000 9
b11 L
b101 I
b101 N
b11 Q
0P
#462500
0!
0)
#465000
1!
1)
1<
b10000 G
b10 ?
b10 >
1K
b10001 9
b10 L
b1010 I
b1010 N
b10 Q
1P
#467500
0!
0)
#470000
1!
1)
0<
b10001 G
b100 ?
b0 >
0K
b10010 9
b100 L
b101 I
b101 N
b100 Q
0P
#472500
0!
0)
#475000
1!
1)
1<
b10010 G
b11 ?
b10 >
1K
b10011 9
b11 L
b1010 I
b1010 N
b11 Q
1P
#477500
0!
0)
#480000
1!
1)
0<
b10011 G
b101 ?
b0 >
0K
b10100 9
b101 L
b101 I
b101 N
b101 Q
0P
#482500
0!
0)
#485000
1!
1)
1<
b10100 G
b100 ?
b10 >
b1001 R
1K
b10101 9
b100 L
b1010 I
b1010 N
b100 Q
1P
b1001 M
b1001 I
b1001 N
b1111 F
b1111 E
#487500
0!
0)
#490000
1!
1)
0<
b10101 G
b110 ?
b0 >
0K
b10110 9
b110 L
b101 I
b101 N
b110 Q
0P
#492500
0!
0)
#495000
1!
1)
1<
b10110 G
b101 ?
b10 >
b1000 R
1K
b10111 9
b101 L
b1001 I
b1001 N
b101 Q
1P
b1000 M
b1000 I
b1000 N
b1110 F
b1110 E
#497500
0!
0)
#500000
1!
1)
0<
b10111 G
b111 ?
b0 >
0K
b11000 9
b111 L
b101 I
b101 N
b111 Q
0P
#502500
0!
0)
#505000
1!
1)
1<
b11000 G
b110 ?
b10 >
b111 R
1K
b11001 9
b110 L
b1000 I
b1000 N
b110 Q
1P
b111 M
b111 I
b111 N
b1101 F
b1101 E
#507500
0!
0)
#510000
1!
1)
b11001 G
b111 ?
b1 >
b11010 9
b111 L
b110 I
b110 N
b111 Q
#512500
0!
0)
#515000
1!
1)
0<
b11010 G
b1 ?
b0 >
0K
b11011 9
b1 L
b101 I
b101 N
b1 Q
0P
#517500
0!
0)
#520000
1!
1)
b11011 G
b0 ?
b1010 R
b11100 9
b0 L
b0 Q
b1010 M
b10000 F
b10000 E
#522500
0!
0)
#525000
1!
1)
b11100 G
b10 ?
b1010 .
b11101 9
b10 L
b1010 :
b10100 E
b10 Q
b10100 F
b1010 (
#527500
0!
0)
#530000
1!
1)
b11101 G
b11 ?
b10100 .
b11110 9
b11 L
b10100 :
b11110 E
b11 Q
b11110 F
b10100 (
#532500
0!
0)
#535000
1!
1)
b11110 G
b100 ?
b11110 .
b11111 9
b100 L
b11110 :
b101000 E
b100 Q
b101000 F
b11110 (
#537500
0!
0)
#540000
1!
1)
1;
b11111 G
b101 ?
b101000 .
b1001 R
b101000 :
b100000 9
b101 L
b101 Q
b110010 E
b110010 F
b1001 M
b101000 (
b110001 F
b110001 E
#542500
0!
0)
#545000
1!
1)
0;
b100000 G
b110 ?
b110001 .
b1000 R
b110001 :
b100001 9
b110 L
b110 Q
b111010 E
b111010 F
b1000 M
b110001 (
b111001 F
b111001 E
#547500
0!
0)
#550000
1!
1)
b100001 G
b111 ?
b111001 .
b111 R
b100010 9
b111 L
b111001 :
b1000001 E
b111 Q
b1000001 F
b111 M
b111001 (
b1000000 F
b1000000 E
#552500
0!
0)
#555000
1!
1)
b100010 G
b0 ?
0=
b1000000 .
b110 R
b100011 9
b0 L
0J
b1000000 :
b1000111 E
0O
b0 Q
b1000111 F
b110 M
b1000000 (
b1000110 F
b1000110 E
#557500
0!
0)
#560000
1!
1)
1C
b100011 G
b1000 .
b0 R
b1011 9
b1000 :
b1110 E
b1110 F
0B
11
b0 M
b1000 (
b1000 F
b1000 E
12
1'
#562500
0!
0)
#565000
1!
1)
1/
0D
b1011 G
b1 ?
1=
1H
b1100 9
b1 L
b1 Q
08
01
15
0#
14
0@
0H
1J
1O
02
0'
#567500
0!
0)
#570000
1!
1)
1<
1D
b1100 G
b0 ?
b10 >
b101 .
b1010 R
1K
b1101 9
b0 L
b0 I
b101 :
b101 E
b0 N
b0 Q
1P
b101 F
18
b1010 M
b101 (
05
1#
04
1@
b1010 I
b1010 N
b1111 F
b1111 E
b100 %
b100 ,
#572500
0!
0)
#575000
1!
1)
0<
b1101 G
b10 ?
b0 >
0K
b1110 9
b10 L
b100 I
b100 N
b10 Q
0P
#577500
0!
0)
#580000
1!
1)
1<
b1110 G
b1 ?
b10 >
1K
b1111 9
b1 L
b1010 I
b1010 N
b1 Q
1P
#582500
0!
0)
#585000
1!
1)
0<
b1111 G
b11 ?
b0 >
0K
b10000 9
b11 L
b100 I
b100 N
b11 Q
0P
#587500
0!
0)
#590000
1!
1)
1<
b10000 G
b10 ?
b10 >
1K
b10001 9
b10 L
b1010 I
b1010 N
b10 Q
1P
#592500
0!
0)
#595000
1!
1)
0<
b10001 G
b100 ?
b0 >
0K
b10010 9
b100 L
b100 I
b100 N
b100 Q
0P
#597500
0!
0)
#600000
1!
1)
1<
b10010 G
b11 ?
b10 >
b1001 R
1K
b10011 9
b11 L
b1010 I
b1010 N
b11 Q
1P
b1001 M
b1001 I
b1001 N
b1110 F
b1110 E
#602500
0!
0)
#605000
1!
1)
0<
b10011 G
b101 ?
b0 >
0K
b10100 9
b101 L
b100 I
b100 N
b101 Q
0P
#607500
0!
0)
#610000
1!
1)
1<
b10100 G
b100 ?
b10 >
b1000 R
1K
b10101 9
b100 L
b1001 I
b1001 N
b100 Q
1P
b1000 M
b1000 I
b1000 N
b1101 F
b1101 E
#612500
0!
0)
#615000
1!
1)
0<
b10101 G
b110 ?
b0 >
0K
b10110 9
b110 L
b100 I
b100 N
b110 Q
0P
#617500
0!
0)
#620000
1!
1)
1<
b10110 G
b101 ?
b10 >
b111 R
1K
b10111 9
b101 L
b1000 I
b1000 N
b101 Q
1P
b111 M
b111 I
b111 N
b1100 F
b1100 E
#622500
0!
0)
#625000
1!
1)
0<
b10111 G
b111 ?
b0 >
0K
b11000 9
b111 L
b100 I
b100 N
b111 Q
0P
#627500
0!
0)
#630000
1!
1)
1<
b11000 G
b110 ?
b10 >
b110 R
1K
b11001 9
b110 L
b111 I
b111 N
b110 Q
1P
b110 M
b110 I
b110 N
b1011 F
b1011 E
#632500
0!
0)
#635000
1!
1)
b11001 G
b111 ?
b1 >
b11010 9
b111 L
b101 I
b101 N
b111 Q
#637500
0!
0)
#640000
1!
1)
0<
b11010 G
b1 ?
b0 >
0K
b11011 9
b1 L
b100 I
b100 N
b1 Q
0P
#642500
0!
0)
#645000
1!
1)
b11011 G
b0 ?
b1010 R
b11100 9
b0 L
b0 Q
b1010 M
b1111 F
b1111 E
#647500
0!
0)
#650000
1!
1)
b11100 G
b10 ?
b1010 .
b11101 9
b10 L
b1010 :
b10100 E
b10 Q
b10100 F
b1010 (
#652500
0!
0)
#655000
1!
1)
b11101 G
b11 ?
b10100 .
b11110 9
b11 L
b10100 :
b11110 E
b11 Q
b11110 F
b10100 (
#657500
0!
0)
#660000
1!
1)
b11110 G
b100 ?
b11110 .
b1001 R
b11111 9
b100 L
b11110 :
b101000 E
b100 Q
b101000 F
b1001 M
b11110 (
b100111 F
b100111 E
#662500
0!
0)
#665000
1!
1)
1;
b11111 G
b101 ?
b100111 .
b1000 R
b100111 :
b100000 9
b101 L
b101 Q
b110000 E
b110000 F
b1000 M
b100111 (
b101111 F
b101111 E
#667500
0!
0)
#670000
1!
1)
0;
b100000 G
b110 ?
b101111 .
b111 R
b101111 :
b100001 9
b110 L
b110 Q
b110111 E
b110111 F
b111 M
b101111 (
b110110 F
b110110 E
#672500
0!
0)
#675000
1!
1)
b100001 G
b111 ?
b110110 .
b110 R
b100010 9
b111 L
b110110 :
b111101 E
b111 Q
b111101 F
b110 M
b110110 (
b111100 F
b111100 E
#677500
0!
0)
#680000
1!
1)
b100010 G
b0 ?
0=
b111100 .
b101 R
b100011 9
b0 L
0J
b111100 :
b1000010 E
0O
b0 Q
b1000010 F
b101 M
b111100 (
b1000001 F
b1000001 E
#682500
0!
0)
#685000
1!
1)
0C
b100011 G
b1000 .
b0 R
b1011 9
b1000 :
b1101 E
b1101 F
1B
11
b0 M
b1000 (
b1000 F
b1000 E
12
1'
#687500
0!
0)
#690000
1!
1)
0/
0D
b1011 G
b1 ?
1=
1H
b1100 9
b1 L
b1 Q
08
01
15
0#
14
0@
0H
1J
1O
02
0'
#692500
0!
0)
#695000
1!
1)
1<
1D
b1100 G
b0 ?
b10 >
b100 .
b1010 R
1K
b1101 9
b0 L
b0 I
b100 :
b100 E
b0 N
b0 Q
1P
b100 F
18
b1010 M
b100 (
05
1#
04
1@
b1010 I
b1010 N
b1110 F
b1110 E
b11 %
b11 ,
#697500
0!
0)
#700000
1!
1)
0<
b1101 G
b10 ?
b0 >
0K
b1110 9
b10 L
b11 I
b11 N
b10 Q
0P
#702500
0!
0)
#705000
1!
1)
1<
b1110 G
b1 ?
b10 >
1K
b1111 9
b1 L
b1010 I
b1010 N
b1 Q
1P
#707500
0!
0)
#710000
1!
1)
0<
b1111 G
b11 ?
b0 >
0K
b10000 9
b11 L
b11 I
b11 N
b11 Q
0P
#712500
0!
0)
#715000
1!
1)
1<
b10000 G
b10 ?
b10 >
b1001 R
1K
b10001 9
b10 L
b1010 I
b1010 N
b10 Q
1P
b1001 M
b1001 I
b1001 N
b1101 F
b1101 E
#717500
0!
0)
#720000
1!
1)
0<
b10001 G
b100 ?
b0 >
0K
b10010 9
b100 L
b11 I
b11 N
b100 Q
0P
#722500
0!
0)
#725000
1!
1)
1<
b10010 G
b11 ?
b10 >
b1000 R
1K
b10011 9
b11 L
b1001 I
b1001 N
b11 Q
1P
b1000 M
b1000 I
b1000 N
b1100 F
b1100 E
#727500
0!
0)
#730000
1!
1)
0<
b10011 G
b101 ?
b0 >
0K
b10100 9
b101 L
b11 I
b11 N
b101 Q
0P
#732500
0!
0)
#735000
1!
1)
1<
b10100 G
b100 ?
b10 >
b111 R
1K
b10101 9
b100 L
b1000 I
b1000 N
b100 Q
1P
b111 M
b111 I
b111 N
b1011 F
b1011 E
#737500
0!
0)
#740000
1!
1)
0<
b10101 G
b110 ?
b0 >
0K
b10110 9
b110 L
b11 I
b11 N
b110 Q
0P
#742500
0!
0)
#745000
1!
1)
1<
b10110 G
b101 ?
b10 >
b110 R
1K
b10111 9
b101 L
b111 I
b111 N
b101 Q
1P
b110 M
b110 I
b110 N
b1010 F
b1010 E
#747500
0!
0)
#750000
1!
1)
0<
b10111 G
b111 ?
b0 >
0K
b11000 9
b111 L
b11 I
b11 N
b111 Q
0P
#752500
0!
0)
#755000
1!
1)
1<
b11000 G
b110 ?
b10 >
b101 R
1K
b11001 9
b110 L
b110 I
b110 N
b110 Q
1P
b101 M
b101 I
b101 N
b1001 F
b1001 E
#757500
0!
0)
#760000
1!
1)
b11001 G
b111 ?
b1 >
b11010 9
b111 L
b100 I
b100 N
b111 Q
#762500
0!
0)
#765000
1!
1)
0<
b11010 G
b1 ?
b0 >
0K
b11011 9
b1 L
b11 I
b11 N
b1 Q
0P
#767500
0!
0)
#770000
1!
1)
b11011 G
b0 ?
b1010 R
b11100 9
b0 L
b0 Q
b1010 M
b1110 F
b1110 E
#772500
0!
0)
#775000
1!
1)
b11100 G
b10 ?
b1010 .
b11101 9
b10 L
b1010 :
b10100 E
b10 Q
b10100 F
b1010 (
#777500
0!
0)
#780000
1!
1)
b11101 G
b11 ?
b10100 .
b1001 R
b11110 9
b11 L
b10100 :
b11110 E
b11 Q
b11110 F
b1001 M
b10100 (
b11101 F
b11101 E
#782500
0!
0)
