tutorial/stratus_examples/lab_first_trivial_design/bdw_work/sims/BASIC_V/verilog.vcd
$date
    Nov 16, 2020  23:45:32
$end
$version
    TOOL:	ncsim(64)	15.20-s016
$end
$timescale
    1 ps
$end

$scope module top $end

$scope module dut0 $end
$var reg       1 !    clk  $end
$var reg       1 "    rst  $end
$var wire      1 #    din_busy  $end
$var reg       1 $    din_vld  $end
$var reg       8 %    din_data [7:0] $end
$var reg       1 &    dout_busy  $end
$var wire      1 '    dout_vld  $end
$var wire     11 (    dout_data [10:0] $end

$scope module dut0 $end
$var wire      1 )    clk  $end
$var wire      1 *    rst  $end
$var wire      1 +    din_vld  $end
$var wire      8 ,    din_data [7:0] $end
$var wire      1 -    dout_busy  $end
$var wire      1 #    din_busy  $end
$var wire      1 '    dout_vld  $end
$var reg      11 .    dout_data [10:0] $end
$var reg       1 /    dout_m_req_m_prev_trig_req  $end
$var reg       1 0    dout_m_unacked_req  $end
$var wire      1 1    dut_Xor_1Ux1U_1U_4_9_out1  $end
$var wire      1 2    dut_Or_1Ux1U_1U_4_10_out1  $end
$var reg       1 3    dut_N_Muxb_1_2_0_4_1_out1  $end
$var wire      1 4    dut_And_1Ux1U_1U_4_5_out1  $end
$var wire      1 5    dut_Not_1U_1U_4_4_out1  $end
$var reg       1 6    din_m_unvalidated_req  $end
$var wire      1 7    dut_Or_1Ux1U_1U_4_2_out1  $end
$var wire      1 8    dut_And_1Ux1U_1U_4_3_out1  $end
$var reg       2 9    global_state_next [1:0] $end
$var wire      1 :    dut_Not_1U_1U_4_6_out1  $end
$var wire      1 ;    dut_And_1Ux1U_1U_4_11_out1  $end
$var wire      1 <    dut_Not_1U_1U_4_12_out1  $end
$var reg       1 =    dout_m_req_m_trig_req  $end
$var reg       2 >    global_state [1:0] $end
$var reg       1 ?    din_m_busy_req_0  $end
$var wire     11 @    dut_Mul_8Ux3U_11U_4_13_out1 [10:0] $end
$var reg       1 A    stall0  $end
$upscope $end

$upscope $end

$upscope $end

$enddefinitions $end
$dumpvars
1!
0"
1#
0$
b0 %
1&
0'
b0 (
1)
0*
0+
b0 ,
1-
b0 .
0/
00
01
02
13
04
05
16
17
18
b1 9
1:
0;
1<
0=
b0 >
1?
b0 @
0A
$end
#2500
0!
0)
#5000
1!
1)
0&
0-
#7500
0!
0)
#10000
1!
1)
1"
1*
#12500
0!
0)
#15000
1!
1)
0?
b1 >
03
1A
b10 9
08
15
0#
1$
1+
14
0:
13
0A
#17500
0!
0)
#20000
1!
1)
1?
1=
b10 >
b1 9
0<
11
18
05
1#
04
1:
12
1'
b1 %
b1 ,
b111 @
#22500
0!
0)
#25000
1!
1)
1/
0?
b1 >
b111 .
1A
b10 9
08
01
b111 (
15
0#
14
0:
0A
02
0'
#27500
0!
0)
#30000
1!
1)
1?
0=
b10 >
b1 9
1<
11
18
05
1#
04
1:
12
1'
b10 %
b10 ,
b1110 @
#32500
0!
0)
#35000
1!
1)
0/
0?
b1 >
b1110 .
1A
b10 9
08
01
b1110 (
15
0#
14
0:
0A
02
0'
#37500
0!
0)
#40000
1!
1)
1?
1=
b10 >
b1 9
0<
11
18
05
1#
04
1:
12
1'
b11 %
b11 ,
b10101 @
#42500
0!
0)
#45000
1!
1)
1/
0?
b1 >
b10101 .
1A
b10 9
08
01
b10101 (
15
0#
14
0:
0A
02
0'
#47500
0!
0)
#50000
1!
1)
1?
0=
b10 >
b1 9
1<
11
18
05
1#
04
1:
12
1'
b100 %
b100 ,
b11100 @
#52500
0!
0)
#55000
1!
1)
0/
0?
b1 >
b11100 .
1A
b10 9
08
01
b11100 (
15
0#
14
0:
0A
02
0'
#57500
0!
0)
#60000
1!
1)
1?
1=
b10 >
b1 9
0<
11
18
05
1#
04
1:
12
1'
b101 %
b101 ,
b100011 @
#62500
0!
0)
#65000
1!
1)
1/
0?
b1 >
b100011 .
1A
b10 9
08
01
b100011 (
15
0#
14
0:
0A
02
0'
#67500
0!
0)
#70000
1!
1)
1?
0=
b10 >
b1 9
1<
11
18
05
1#
04
1:
12
1'
b110 %
b110 ,
b101010 @
#72500
0!
0)
#75000
1!
1)
0/
0?
b1 >
b101010 .
1A
b10 9
08
01
b101010 (
15
0#
14
0:
0A
02
0'
#77500
0!
0)
#80000
1!
1)
1?
1=
b10 >
b1 9
0<
11
18
05
1#
04
1:
12
1'
b111 %
b111 ,
b110001 @
#82500
0!
0)
#85000
1!
1)
1/
0?
b1 >
b110001 .
1A
b10 9
08
01
b110001 (
15
0#
14
0:
0A
02
0'
#87500
0!
0)
#90000
1!
1)
1?
0=
b10 >
b1 9
1<
11
18
05
1#
04
1:
12
1'
b1000 %
b1000 ,
b111000 @
#92500
0!
0)
#95000
1!
1)
0/
0?
b1 >
b111000 .
1A
b10 9
08
01
b111000 (
15
0#
14
0:
0A
02
0'
#97500
0!
0)
#100000
1!
1)
1?
1=
b10 >
b1 9
0<
11
18
05
1#
04
1:
12
1'
b1001 %
b1001 ,
b111111 @
#102500
0!
0)
#105000
1!
1)
1/
0?
b1 >
b111111 .
1A
b10 9
08
01
b111111 (
15
0#
14
0:
0A
02
0'
#107500
0!
0)
#110000
1!
1)
1?
0=
b10 >
b1 9
1<
11
18
05
1#
04
1:
12
1'
b11111111 %
b11111111 ,
b11011111001 @
#112500
0!
0)
#115000
1!
1)
0/
0?
b1 >
b11011111001 .
1A
b10 9
08
01
b11011111001 (
15
0#
14
0:
0A
02
0'
#117500
0!
0)
#120000
1!
1)
1?
1=
b10 >
b1 9
0<
11
18
05
1#
04
1:
12
1'
0$
0+
#122500
0!
0)
#125000
1!
1)
1/
0?
b1 >
03
1A
b10 9
08
01
15
0#
02
0'
1&
1-
