tutorial/stratus_examples/lab_dpopt/bdw_work/sims/DPO_AUTO_EXPR_V/verilog.vcd
$date
    Nov 18, 2020  11:36:24
$end
$version
    TOOL:	ncsim(64)	15.20-s016
$end
$timescale
    1 ps
$end

$scope module top $end

$scope module dut0 $end
$var reg       1 !    clk  $end
$var reg       1 "    rst  $end
$var wire      1 #    din_busy  $end
$var reg       1 $    din_vld  $end
$var reg       8 %    din_data_a [7:0] $end
$var reg       8 &    din_data_b [7:0] $end
$var reg       8 '    din_data_c [7:0] $end
$var reg       8 (    din_data_d [7:0] $end
$var reg       8 )    din_data_e [7:0] $end
$var reg       8 *    din_data_f [7:0] $end
$var reg       8 +    din_data_g [7:0] $end
$var reg       8 ,    din_data_h [7:0] $end
$var reg       1 -    dout_busy  $end
$var wire      1 .    dout_vld  $end
$var wire     32 /    dout_data [31:0] $end

$scope module dut0 $end
$var wire      1 0    clk  $end
$var wire      1 1    rst  $end
$var wire      1 2    din_vld  $end
$var wire      8 3    din_data_a [7:0] $end
$var wire      8 4    din_data_b [7:0] $end
$var wire      8 5    din_data_c [7:0] $end
$var wire      8 6    din_data_d [7:0] $end
$var wire      8 7    din_data_e [7:0] $end
$var wire      8 8    din_data_f [7:0] $end
$var wire      8 9    din_data_g [7:0] $end
$var wire      8 :    din_data_h [7:0] $end
$var wire      1 ;    dout_busy  $end
$var wire      1 #    din_busy  $end
$var wire      1 .    dout_vld  $end
$var reg      32 <    dout_data [31:0] $end
$var reg       1 =    dout_m_req_m_prev_trig_req  $end
$var reg       1 >    dout_m_unacked_req  $end
$var wire      1 ?    dut_Xor_1Ux1U_1U_4_9_out1  $end
$var wire      1 @    dut_Or_1Ux1U_1U_4_10_out1  $end
$var reg       1 A    dut_N_Muxb_1_2_0_4_1_out1  $end
$var wire      1 B    dut_And_1Ux1U_1U_4_5_out1  $end
$var wire      1 C    dut_Not_1U_1U_4_4_out1  $end
$var reg       1 D    din_m_unvalidated_req  $end
$var wire      1 E    dut_Or_1Ux1U_1U_4_2_out1  $end
$var wire      1 F    dut_And_1Ux1U_1U_4_3_out1  $end
$var reg       3 G    global_state_next [2:0] $end
$var wire     32 H    dut_Add_32Ux32U_32U_1_19_out1 [31:0] $end
$var reg      32 I    dut_Mul_32Ux32U_32U_4_15_in1 [31:0] $end
$var reg       1 J    gs_ctrl0  $end
$var wire     20 K    dut_Mul2Add3u8u8u8Add3u8u8u8_1_14_out1 [19:0] $end
$var wire      9 L    dut_Add_8Ux8U_9U_4_13_out1 [8:0] $end
$var wire     16 M    dut_Mul_8Ux8U_16U_4_16_out1 [15:0] $end
$var reg      16 N    s_reg_20 [15:0] $end
$var wire     32 O    dut_Add2Mul2u29Add2u8u8Mul2u32Add2u8u8_1_21_out1 [31:0] $end
$var wire     29 P    dut_Mul_20Ux9U_29U_1_23_out1 [28:0] $end
$var reg      32 Q    s_reg_19 [31:0] $end
$var wire     17 R    dut_Add2Mul2u8u8Mul2u8u8_4_17_out1 [16:0] $end
$var reg      17 S    s_reg_18 [16:0] $end
$var reg       8 T    s_reg_17 [7:0] $end
$var reg       8 U    s_reg_16 [7:0] $end
$var reg       8 V    s_reg_15 [7:0] $end
$var reg       8 W    s_reg_14 [7:0] $end
$var wire      1 X    dut_Not_1U_1U_4_6_out1  $end
$var wire      1 Y    dut_And_1Ux1U_1U_4_11_out1  $end
$var wire      1 Z    dut_Not_1U_1U_4_12_out1  $end
$var reg       1 [    dout_m_req_m_trig_req  $end
$var reg       1 \    din_m_busy_req_0  $end
$var wire     32 ]    dut_Add_32Ux16U_32U_4_20_out1 [31:0] $end
$var wire     32 ^    dut_Mul_32Ux32U_32U_4_15_out1 [31:0] $end
$var reg       3 _    global_state [2:0] $end
$var reg       1 `    stall0  $end
$upscope $end

$upscope $end

$upscope $end

$enddefinitions $end
$dumpvars
1!
0"
1#
0$
b0 %
b0 &
b0 '
b0 (
b0 )
b0 *
b0 +
b0 ,
1-
0.
bx /
10
01
02
b0 3
b0 4
b0 5
b0 6
b0 7
b0 8
b0 9
b0 :
1;
bx <
0=
0>
0?
0@
1A
0B
0C
1D
1E
1F
b1 G
bx H
b0xxxxxxxxxxxxxxxxx I
0J
b0 K
b0 L
b0 M
bx N
bx O
b0 P
bx Q
bx R
bx S
bx T
bx U
bx V
bx W
1X
0Y
1Z
0[
1\
bx ]
bx ^
b0 _
0`
$end
#1375
0!
00
#2750
1!
10
0-
0;
#4125
0!
00
#5500
1!
10
1"
11
#6875
0!
00
#8250
1!
10
b1 _
0\
1`
b10 G
0A
0F
1C
0#
1$
12
1B
0X
1A
0`
#9625
0!
00
#11000
1!
10
b10 _
b0 Q
b0 N
b0 T
b0 S
b0 W
b0 V
b0 U
1\
b11 G
b0 I
b0 ^
1F
b0 R
0C
1#
0B
1X
b1 %
b1 &
b1 '
b1 (
b1 )
b1 *
b1 +
b1 ,
b1 :
b1 9
b1 8
b1 7
b1 6
b1 5
b1 4
b1 3
b1001 K
b1 M
b10 L
b10010 P
#12375
0!
00
#13750
1!
10
b11 _
b0 <
b100 G
b0 H
b0 /
b0 ]
b0 O
#15125
0!
00
#16500
1!
10
b100 _
1J
b101 G
#17875
0!
00
#19250
1!
10
b101 _
0J
1[
b1 G
0Z
1?
1@
1.
#20625
0!
00
#22000
1!
10
1=
b1 _
0\
1`
b10 G
0F
0?
1C
0#
1B
0X
0`
0@
0.
#23375
0!
00
#24750
1!
10
b10 _
b10010 Q
b1 N
b1 T
b1 S
b1 W
b1 V
b1 U
1\
b11 G
b1 I
b10010 ^
1F
b1 H
b10 R
b1 ]
b100100 O
0C
1#
0B
1X
b10 ]
b100110 O
b10 %
b10 &
b10 '
b10 (
b10 )
b10 *
b10 +
b10 ,
b10 :
b10 9
b10 8
b10 7
b10 6
b10 5
b10 4
b10 3
b100100 K
b100 M
b100 L
b10010000 P
#26125
0!
00
#27500
1!
10
b11 _
b10 S
b10010 <
b100 G
b10 I
b100100 ^
b10100 H
b10010 /
b10101 ]
b1001100 O
#28875
0!
00
#30250
1!
10
b100 _
1J
b1001100 Q
b10101 <
b101 G
b10101 I
b10111 H
b11000000 O
b11000111100 ^
b10101 /
b11000 ]
b11000110 O
#31625
0!
00
#33000
1!
10
b101 _
0J
b11000111100 <
0[
b1 G
b10 I
b10011000 ^
1Z
1?
b11000111110 H
b11000111100 /
b11000111111 ]
b110100010100 O
1@
1.
#34375
0!
00
#35750
1!
10
0=
b1 _
0\
1`
b10 G
0F
0?
1C
0#
1B
0X
0`
0@
0.
#37125
0!
00
#38500
1!
10
b10 _
b10010000 Q
b100 N
b10 T
b10 W
b10 V
b10 U
1\
b11 G
1F
b1000 R
b11001000010 ]
b1101100111000 O
b100100000 ^
0C
1#
0B
1X
b11 %
b11 &
b11 '
b11 (
b11 )
b11 *
b11 +
b11 ,
b11 :
b11 9
b11 8
b11 7
b11 6
b11 5
b11 4
b11 3
b1010001 K
b1001 M
b110 L
b111100110 P
#39875
0!
00
#41250
1!
10
b11 _
b1000 S
b100100000 <
b100 G
b1000 I
b10010000000 ^
b100101000 H
b100100000 /
b100101100 ]
b11011100000 O
#42625
0!
00
#44000
1!
10
b100 _
1J
b11011100000 Q
b100101100 <
b101 G
b100101100 I
b100110100 H
b10000000100000 O
b10000000111010000000 ^
b100101100 /
b100111000 ]
b10000001010000 O
#45375
0!
00
#46750
1!
10
b101 _
0J
b10000000111010000000 <
1[
b1 G
b1000 I
b11011100000000 ^
0Z
1?
b10000000111010001000 H
b10000000111010000000 /
b10000000111010001100 ]
b1000000101010110100000 O
1@
1.
#48125
0!
00
#49500
1!
10
1=
b1 _
0\
1`
b10 G
0F
0?
1C
0#
1B
0X
0`
0@
0.
#50875
0!
00
#52250
1!
10
b10 _
b111100110 Q
b1001 N
b11 T
b11 S
b11 W
b11 V
b11 U
1\
b11 G
b11 I
1F
b10000000111010000011 H
b10010 R
b10000000111010010001 ]
b1100000110001010010100 O
b10110110010 ^
0C
1#
0B
1X
b10000000111010001100 ]
b1100000110001001110110 O
b100 %
b100 &
b100 '
b100 (
b100 )
b100 *
b100 +
b100 ,
b100 :
b100 9
b100 8
b100 7
b100 6
b100 5
b100 4
b100 3
b10010000 K
b10000 M
b1000 L
b10010000000 P
#53625
0!
00
#55000
1!
10
b11 _
b10010 S
b10110110010 <
b100 G
b10010 I
b10001000101100 ^
b10111000100 H
b10110110010 /
b10111001101 ]
b10110111111100 O
#56375
0!
00
#57750
1!
10
b100 _
1J
b10110111111100 Q
b10111001101 <
b101 G
b10111001101 I
b10111011111 H
b10011011010000000 O
b1000010101011111011001100 ^
b10111001101 /
b10111101000 ]
b10011011100100010 O
#59125
0!
00
#60500
1!
10
b101 _
0J
b1000010101011111011001100 <
0[
b1 G
b10010 I
b110011101110111000 ^
1Z
1?
b1000010101011111011011110 H
b1000010101011111011001100 /
b1000010101011111011100111 ]
b110010000011000110100011100 O
1@
1.
#61875
0!
00
#63250
1!
10
0=
b1 _
0\
1`
b10 G
0F
0?
1C
0#
1B
0X
0`
0@
0.
#64625
0!
00
#66000
1!
10
b10 _
b10010000000 Q
b10000 N
b100 T
b100 S
b100 W
b100 V
b100 U
1\
b11 G
b100 I
1F
b1000010101011111011010000 H
b100000 R
b1000010101011111011101110 ]
b1000010101100001101011110000 O
b1001000000000 ^
0C
1#
0B
1X
b1000010101011111011100000 ]
b1000010101100001101010000000 O
b101 %
b101 &
b101 '
b101 (
b101 )
b101 *
b101 +
b101 ,
b101 :
b101 9
b101 8
b101 7
b101 6
b101 5
b101 4
b101 3
b11100001 K
b11001 M
b1010 L
b100011001010 P
#67375
0!
00
#68750
1!
10
b11 _
b100000 S
b1001000000000 <
b100 G
b100000 I
b1001000000000000 ^
b1001000100000 H
b1001000000000 /
b1001000110000 ]
b1011010100000000 O
#70125
0!
00
#71500
1!
10
b100 _
1J
b1011010100000000 Q
b1001000110000 <
b101 G
b1001000110000 I
b1001001010000 H
b1100011100100000000 O
b1100110110111111000000000000 ^
b1001000110000 /
b1001001100000 ]
b1100011101010000000 O
#72875
0!
00
#74250
1!
10
b101 _
0J
b1100110110111111000000000000 <
1[
b1 G
b100000 I
b101101010000000000000 ^
0Z
1?
b1100110110111111000000100000 H
b1100110110111111000000000000 /
b1100110110111111000000110000 ]
b1100110111001010010100100000000 O
1@
1.
#75625
0!
00
#77000
1!
10
1=
b1 _
0\
1`
b10 G
0F
0?
1C
0#
1B
0X
0`
0@
0.
#78375
0!
00
#79750
1!
10
b10 _
b100011001010 Q
b11001 N
b101 T
b101 S
b101 W
b101 V
b101 U
1\
b11 G
b101 I
1F
b1100110110111111000000000101 H
b110010 R
b1100110110111111000000111001 ]
b10000000100101111011100100100100 O
b10101111110010 ^
0C
1#
0B
1X
b1100110110111111000000011110 ]
b10000000100101111011100000010110 O
b110 %
b110 &
b110 '
b110 (
b110 )
b110 *
b110 +
b110 ,
b110 :
b110 9
b110 8
b110 7
b110 6
b110 5
b110 4
b110 3
b101000100 K
b100100 M
b1100 L
b111100110000 P
#81125
0!
00
#82500
1!
10
b11 _
b110010 S
b10101111110010 <
b100 G
b110010 I
b11011011101110100 ^
b10110000100100 H
b10101111110010 /
b10110000111101 ]
b100001000101001100 O
#83875
0!
00
#85250
1!
10
b100 _
1J
b100001000101001100 Q
b10110000111101 <
b101 G
b10110000111101 I
b10110001101111 H
b101100110011001100000 O
b1011011011101110010111100011100 ^
b10110000111101 /
b10110010001000 ]
b101100110100101001110 O
#86625
0!
00
#88000
1!
10
b101 _
0J
b1011011011101110010111100011100 <
0[
b1 G
b110010 I
b11001110110000011011000 ^
1Z
1?
b1011011011101110010111101001110 H
b1011011011101110010111100011100 /
b1011011011101110010111101100111 ]
b10010010101111001000011000000100 O
1@
1.
#89375
0!
00
#90750
1!
10
0=
b1 _
0\
1`
b10 G
0F
0?
1C
0#
1B
0X
0`
0@
0.
#92125
0!
00
#93500
1!
10
b10 _
b111100110000 Q
b100100 N
b110 T
b110 S
b110 W
b110 V
b110 U
1\
b11 G
b110 I
1F
b1011011011101110010111100100010 H
b1001000 R
b1011011011101110010111101110010 ]
b1001001100101101110110111101000 O
b101101100100000 ^
0C
1#
0B
1X
b1011011011101110010111101000110 ]
b1001001100101101110101111011000 O
b111 %
b111 &
b111 '
b111 (
b111 )
b111 *
b111 +
b111 ,
b111 :
b111 9
b111 8
b111 7
b111 6
b111 5
b111 4
b111 3
b110111001 K
b110001 M
b1110 L
b1100000011110 P
#94875
0!
00
#96250
1!
10
b11 _
b1001000 S
b101101100100000 <
b100 G
b1001000 I
b1000100010110000000 ^
b101101101101000 H
b101101100100000 /
b101101110001100 ]
b1001111111100100000 O
#97625
0!
00
#99000
1!
10
b100 _
1J
b1001111111100100000 Q
b101101110001100 <
b101 G
b101101110001100 I
b101101111010100 H
b10000000011111001100000 O
b11001001011010111110010110000000 ^
b101101110001100 /
b101101111111000 ]
b10000000100001101110000 O
#100375
0!
00
#101750
1!
10
b101 _
0J
b11001001011010111110010110000000 <
1[
b1 G
b1001000 I
b1011001111100000100000000 ^
0Z
1?
b11001001011010111110010111001000 H
b11001001011010111110010110000000 /
b11001001011010111110010111101100 ]
b1110001010010101011101011100000 O
1@
1.
#103125
0!
00
#104500
1!
10
1=
b1 _
0\
1`
b10 G
0F
0?
1C
0#
1B
0X
0`
0@
0.
#105875
0!
00
#107250
1!
10
b10 _
b1100000011110 Q
b110001 N
b111 T
b111 S
b111 W
b111 V
b111 U
1\
b11 G
b111 I
1F
b11001001011010111110010110000111 H
b1100010 R
b11001001011010111110010111111001 ]
b11111001111110001010010100 O
b1010100011010010 ^
0C
1#
0B
1X
b11001001011010111110010110111000 ]
b11111001111101111100000110 O
b1000 %
b1000 &
b1000 '
b1000 (
b1000 )
b1000 *
b1000 +
b1000 ,
b1000 :
b1000 9
b1000 8
b1000 7
b1000 6
b1000 5
b1000 4
b1000 3
b1001000000 K
b1000000 M
b10000 L
b10010000000000 P
#108625
0!
00
#110000
1!
10
b11 _
b1100010 S
b1010100011010010 <
b100 G
b1100010 I
b10010011101101111100 ^
b1010100100110100 H
b1010100011010010 /
b1010100101100101 ]
b10101001001001111100 O
#111375
0!
00
#112750
1!
10
b100 _
1J
b10101001001001111100 Q
b1010100101100101 <
b101 G
b1010100101100101 I
b1010100111000111 H
b100111010100001110100000 O
b11111110110111111010011011101100 ^
b1010100101100101 /
b1010100111111000 ]
b100111010100101110101010 O
#114125
0!
00
#115500
1!
10
b101 _
0J
b11111110110111111010011011101100 <
0[
b1 G
b1100010 I
b100000011000001001101111000 ^
1Z
1?
b11111110110111111010011101001110 H
b11111110110111111010011011101100 /
b11111110110111111010011101111111 ]
b11110000110011110010100100001100 O
1@
1.
#116875
0!
00
#118250
1!
10
0=
b1 _
0\
1`
b10 G
0F
0?
1C
0#
1B
0X
0`
0@
0.
#119625
0!
00
#121000
1!
10
b10 _
b10010000000000 Q
b1000000 N
b1000 T
b1000 S
b1000 W
b1000 V
b1000 U
1\
b11 G
b1000 I
1F
b11111110110111111010011011110100 H
b10000000 R
b11111110110111111010011110001110 ]
b11101101111111001011010011100000 O
b10010000000000000 ^
0C
1#
0B
1X
b11111110110111111010011100110100 ]
b11101101111111001010111101000000 O
b1001 %
b1001 &
b1001 '
b1001 (
b1001 )
b1001 *
b1001 +
b1001 ,
b1001 :
b1001 9
b1001 8
b1001 7
b1001 6
b1001 5
b1001 4
b1001 3
b1011011001 K
b1010001 M
b10010 L
b11001101000010 P
#122375
0!
00
#123750
1!
10
b11 _
b10000000 S
b10010000000000000 <
b100 G
b10000000 I
b100100000000000000000 ^
b10010000010000000 H
b10010000000000000 /
b10010000011000000 ]
b101000100100000000000 O
#125125
0!
00
#126500
1!
10
b100 _
1J
b101000100100000000000 Q
b10010000011000000 <
b101 G
b10010000011000000 I
b10010000101000000 H
b1010101101000100000000000 O
b11100000001101100000000000000000 ^
b10010000011000000 /
b10010000110000000 ]
b1010101101001010000000000 O
#127875
0!
00
#129250
1!
10
b101 _
0J
b11100000001101100000000000000000 <
1[
b1 G
b10000000 I
b1010001001000000000000000000 ^
0Z
1?
b11100000001101100000000010000000 H
b11100000001101100000000000000000 /
b11100000001101100000000011000000 ]
b100101001001000100000000000 O
1@
1.
#130625
0!
00
#132000
1!
10
1=
b1 _
0\
1`
b10 G
0F
0?
1C
0#
1B
0X
0`
0@
0.
#133375
0!
00
#134750
1!
10
b10 _
b11001101000010 Q
b1010001 N
b1001 T
b1001 S
b1001 W
b1001 V
b1001 U
1\
b11 G
b1001 I
1F
b11100000001101100000000000001001 H
b10100010 R
b11100000001101100000000011010001 ]
b11000011110011111010001110100100 O
b11100110101010010 ^
0C
1#
0B
1X
b11100000001101100000000001011010 ]
b11000011110011111001101101000110 O
b1010 %
b1010 &
b1010 '
b1010 (
b1010 )
b1010 *
b1010 +
b1010 ,
b1010 :
b1010 9
b1010 8
b1010 7
b1010 6
b1010 5
b1010 4
b1010 3
b1110000100 K
b1100100 M
b10100 L
b100011001010000 P
#136125
0!
00
#137500
1!
10
b11 _
b10100010 S
b11100110101010010 <
b100 G
b10100010 I
b1000000110111111000100 ^
b11100110111110100 H
b11100110101010010 /
b11100111001000101 ]
b1001000001010111001100 O
#138875
0!
00
#140250
1!
10
b100 _
1J
b1001000001010111001100 Q
b11100111001000101 <
b101 G
b11100111001000101 I
b11100111011100111 H
b10101010100000001110000000 O
b101001000100000000011111111100 ^
b11100111001000101 /
b11100111100111000 ]
b10101010100001010010010110 O
#141625
0!
00
#143000
1!
10
b101 _
0J
b101001000100000000011111111100 <
0[
b1 G
b10100010 I
b10110110101011100101100011000 ^
1Z
1?
b101001000100000000100010011110 H
b101001000100000000011111111100 /
b101001000100000000100011101111 ]
b11100101101010100010001101110100 O
1@
1.
#144375
0!
00
#145750
1!
10
0=
b1 _
0\
1`
b10 G
0F
0?
1C
0#
1B
0X
0`
0@
0.
#147125
0!
00
#148500
1!
10
b10 _
b100011001010000 Q
b1100100 N
b1010 T
b1010 S
b1010 W
b1010 V
b1010 U
1\
b11 G
b1010 I
1F
b101001000100000000100000000110 H
b11001000 R
b101001000100000000100100000010 ]
b110101010001100010101010011000 O
b101011111100100000 ^
0C
1#
0B
1X
b101001000100000000100001101010 ]
b110101010001100001111010111000 O
b1011 %
b1011 &
b1011 '
b1011 (
b1011 )
b1011 *
b1011 +
b1011 ,
b1011 :
b1011 9
b1011 8
b1011 7
b1011 6
b1011 5
b1011 4
b1011 3
b10001000001 K
b1111001 M
b10110 L
b101110110010110 P
#149875
0!
00
#151250
1!
10
b11 _
b11001000 S
b101011111100100000 <
b100 G
b11001000 I
b1101101110111010000000 ^
b101011111111101000 H
b101011111100100000 /
b101100000001001100 ]
b1111000111110001100000 O
#152625
0!
00
#154000
1!
10
b100 _
1J
b1111000111110001100000 Q
b101100000001001100 <
b101 G
b101100000001001100 I
b101100000100010100 H
b100111100001011010110100000 O
b1100111111111001110110010000000 ^
b101100000001001100 /
b101100000101111000 ]
b100111100001100110100010000 O
#155375
0!
00
#156750
1!
10
b101 _
0J
b1100111111111001110110010000000 <
1[
b1 G
b11001000 I
b101111010000010010101100000000 ^
0Z
1?
b1100111111111001110110101001000 H
b1100111111111001110110010000000 /
b1100111111111001110110110101100 ]
b100100011111000100000100100000 O
1@
1.
#158125
0!
00
#159500
1!
10
1=
b1 _
0\
1`
b10 G
0F
0?
1C
0#
1B
0X
0`
0@
0.
#160875
0!
00
#162250
1!
10
b10 _
b101110110010110 Q
b1111001 N
b1011 T
b1011 S
b1011 W
b1011 V
b1011 U
1\
b11 G
b1011 I
1F
b1100111111111001110110010001011 H
b11110010 R
b1100111111111001110110111000001 ]
b11101111110001000110111100010100 O
b1000000010101110010 ^
0C
1#
0B
1X
b1100111111111001110110100000100 ]
b11101111110001000101111011010110 O
b1100 %
b1100 &
b1100 '
b1100 (
b1100 )
b1100 *
b1100 +
b1100 ,
b1100 :
b1100 9
b1100 8
b1100 7
b1100 6
b1100 5
b1100 4
b1100 3
b10100010000 K
b10010000 M
b11000 L
b111100110000000 P
#163625
0!
00
#165000
1!
10
b11 _
b11110010 S
b1000000010101110010 <
b100 G
b11110010 I
b10110000111011111001100 ^
b1000000011001100100 H
b1000000010101110010 /
b1000000011011011101 ]
b11000001001011101111100 O
#166375
0!
00
#167750
1!
10
b100 _
1J
b11000001001011101111100 Q
b1000000011011011101 <
b101 G
b1000000011011011101 I
b1000000011111001111 H
b1000101001011001000101000000 O
b11110100110111111010111000001100 ^
b1000000011011011101 /
b1000000100001001000 ]
b1000101001011011000001110010 O
#169125
0!
00
#170500
1!
10
b101 _
0J
b11110100110111111010111000001100 <
0[
b1 G
b11110010 I
b1011011010011110011001100111000 ^
1Z
1?
b11110100110111111010111011111110 H
b11110100110111111010111000001100 /
b11110100110111111010111101110111 ]
b10011100001100000111001111100 O
1@
1.
#171875
0!
00
#173250
1!
10
0=
b1 _
0\
1`
b10 G
0F
0?
1C
0#
1B
0X
0`
0@
0.
#174625
0!
00
#176000
1!
10
b10 _
b111100110000000 Q
b10010000 N
b1100 T
b1100 S
b1100 W
b1100 V
b1100 U
1\
b11 G
b1100 I
1F
b11110100110111111010111000011000 H
b100100000 R
b11110100110111111010111110001110 ]
b11110101000000111100101111010000 O
b1011011001000000000 ^
0C
1#
0B
1X
b11110100110111111010111010101000 ]
b11110101000000111011011001000000 O
b1101 %
b1101 &
b1101 '
b1101 (
b1101 )
b1101 *
b1101 +
b1101 ,
b1101 :
b1101 9
b1101 8
b1101 7
b1101 6
b1101 5
b1101 4
b1101 3
b10111110001 K
b10101001 M
b11010 L
b1001101001111010 P
#177375
0!
00
#178750
1!
10
b11 _
b100100000 S
b1011011001000000000 <
b100 G
b100100000 I
b100010001011000000000000 ^
b1011011001100100000 H
b1011011001000000000 /
b1011011001110110000 ]
b100101000010111100000000 O
#180125
0!
00
#181500
1!
10
b100 _
1J
b100101000010111100000000 Q
b1011011001110110000 <
b101 G
b1011011001110110000 I
b1011011010011010000 H
b1110011011010011001100000000 O
b11101101101111010101000000000000 ^
b1011011001110110000 /
b1011011010101100000 ]
b1110011011010101101110000000 O
#182875
0!
00
#184250
1!
10
b101 _
0J
b11101101101111010101000000000000 <
1[
b1 G
b100100000 I
b10100110101101001110000000000000 ^
0Z
1?
b11101101101111010101000100100000 H
b11101101101111010101000000000000 /
b11101101101111010101000110110000 ]
b1010111101001000000001100000000 O
1@
1.
#185625
0!
00
#187000
1!
10
1=
b1 _
0\
1`
b10 G
0F
0?
1C
0#
1B
0X
0`
0@
0.
#188375
0!
00
#189750
1!
10
b10 _
b1001101001111010 Q
b10101001 N
b1101 T
b1101 S
b1101 W
b1101 V
b1101 U
1\
b11 G
b1101 I
1F
b11101101101111010101000000001101 H
b101010010 R
b11101101101111010101000111001001 ]
b100101010010011110110110100100 O
b1111101100000110010 ^
0C
1#
0B
1X
b11101101101111010101000010110110 ]
b100101010010011101000110110110 O
b1110 %
b1110 &
b1110 '
b1110 (
b1110 )
b1110 *
b1110 +
b1110 ,
b1110 :
b1110 9
b1110 8
b1110 7
b1110 6
b1110 5
b1110 4
b1110 3
b11011100100 K
b11000100 M
b11100 L
b1100000011110000 P
#191125
0!
00
#192500
1!
10
b11 _
b101010010 S
b1111101100000110010 <
b100 G
b101010010 I
b110010111111010100010100 ^
b1111101100110000100 H
b1111101100000110010 /
b1111101101000101101 ]
b110110111100011111001100 O
#193875
0!
00
#195250
1!
10
b100 _
1J
b110110111100011111001100 Q
b1111101101000101101 <
b101 G
b1111101101000101101 I
b1111101101101111111 H
b10111000111100110001000100000 O
b11000101010110011101011011011100 ^
b1111101101000101101 /
b1111101110000101000 ]
b10111000111101001010110011110 O
#196625
0!
00
#198000
1!
10
b101 _
0J
b11000101010110011101011011011100 <
0[
b1 G
b101010010 I
b100010001011011100101101011000 ^
1Z
1?
b11000101010110011101100000101110 H
b11000101010110011101011011011100 /
b11000101010110011101100011010111 ]
b100001011100100011111101100100 O
1@
1.
#199375
0!
00
#200750
1!
10
0=
b1 _
0\
1`
b10 G
0F
0?
1C
0#
1B
0X
0`
0@
0.
#202125
0!
00
#203500
1!
10
b10 _
b1100000011110000 Q
b11000100 N
b1110 T
b1110 S
b1110 W
b1110 V
b1110 U
1\
b11 G
b1110 I
1F
b11000101010110011101011011101010 H
b110001000 R
b11000101010110011101100011110010 ]
b10010101111010001011111101001000 O
b10101000110100100000 ^
0C
1#
0B
1X
b11000101010110011101011110101110 ]
b10010101111010001001101111011000 O
b1111 %
b1111 &
b1111 '
b1111 (
b1111 )
b1111 *
b1111 +
b1111 ,
b1111 :
b1111 9
b1111 8
b1111 7
b1111 6
b1111 5
b1111 4
b1111 3
b11111101001 K
b11100001 M
b11110 L
b1110110101001110 P
#204875
0!
00
#206250
1!
10
b11 _
b110001000 S
b10101000110100100000 <
b100 G
b110001000 I
b1001001110110111110000000 ^
b10101000111010101000 H
b10101000110100100000 /
b10101000111101101100 ]
b1001111001011010010100000 O
#207625
0!
00
#209000
1!
10
b100 _
1J
b1001111001011010010100000 Q
b10101000111101101100 <
b101 G
b10101000111101101100 I
b10101001000011110100 H
b100011110010110101101111100000 O
b1111100110000011001001110000000 ^
b10101000111101101100 /
b10101001000110111000 ]
b100011110010111001110000110000 O
#210375
0!
00
#211750
1!
10
b101 _
0J
b1111100110000011001001110000000 <
1[
b1 G
b110001000 I
b11100100111101001001010100000000 ^
0Z
1?
b1111100110000011001010100001000 H
b1111100110000011001001110000000 /
b1111100110000011001010111001100 ]
b11000111110100000000111001100000 O
1@
1.
#213125
0!
00
#214500
1!
10
1=
b1 _
0\
1`
b10 G
0F
0?
1C
0#
1B
0X
0`
0@
0.
#215875
0!
00
#217250
1!
10
b10 _
b1110110101001110 Q
b11100001 N
b1111 T
b1111 S
b1111 W
b1111 V
b1111 U
1\
b11 G
b1111 I
1F
b1111100110000011001001110001111 H
b111000010 R
b1111100110000011001010111101001 ]
b10011110110010110100011000010100 O
b11011110011110010010 ^
0C
1#
0B
1X
b1111100110000011001010001110000 ]
b10011110110010110001100111100110 O
0$
02
#218625
0!
00
#220000
1!
10
b11 _
b111000010 S
b11011110011110010010 <
b100 G
b111000010 I
b1101000010010001100011100 ^
b11011110100101010100 H
b11011110011110010010 /
b11011110101000110101 ]
b1101111010010011011111100 O
#221375
0!
00
#222750
1!
10
b100 _
1J
b1101111010010011011111100 Q
b11011110101000110101 <
b101 G
b11011110101000110101 I
b11011110101111110111 H
b110101110010111110100101100000 O
b111100100101110110101000101100 ^
b11011110101000110101 /
b11011110110011011000 ]
b110101110011000011100001111010 O
#224125
0!
00
#225500
1!
10
b101 _
0J
b111100100101110110101000101100 <
0[
b1 G
b111000010 I
b1110011111101000011011111000 ^
1Z
1?
b111100100101110110101111101110 H
b111100100101110110101000101100 /
b111100100101110110110011001111 ]
b1001101111010010011011101101100 O
1@
1.
#226875
0!
00
#228250
1!
10
0=
b1 _
0\
1`
b10 G
0A
0F
0?
1C
0#
0@
0.
1-
1;
