tutorial/stratus_examples/lab_loop_unrolling/bdw_work/sims/B/systemc.vcd
$date
     Nov 17, 2020       22:51:05
$end

$version
              SystemC 2.3.0-ASI --- Feb  9 2017 16:02:52
$end

$timescale
     1 ps
$end

$scope module SystemC $end
$var wire    1  aaa  system.DUT.dut.clk       $end
$var wire    1  aab  system.DUT.dut.rst       $end
$var wire    1  aac  system.DUT.dut.din.busy       $end
$var wire    1  aad  system.DUT.dut.din.vld       $end
$var wire    8  aae  system.DUT.dut.din.data [7:0]  $end
$var wire    1  aaf  system.DUT.dut.dout.busy       $end
$var wire    1  aag  system.DUT.dut.dout.vld       $end
$var wire   11  aah  system.DUT.dut.dout.data [10:0]  $end
$upscope $end
$enddefinitions  $end

$comment
All initial values are dumped below at time 0 sec = 0 timescale units.
$end

$dumpvars
1aaa
0aab
1aac
0aad
b0 aae
1aaf
0aag
b0 aah
$end

#2500
0aaa

#5000
1aaa

#7500
0aaa

#10000
1aaa
1aab

#12500
0aaa

#15000
1aaa
0aac
1aad
b1010 aae
0aaf

#17500
0aaa

#20000
1aaa
1aac
b1001 aae
1aag
b1010 aah

#22500
0aaa

#25000
1aaa
0aac
0aag

#27500
0aaa

#30000
1aaa
1aac
b1000 aae
1aag
b1001 aah

#32500
0aaa

#35000
1aaa
0aac
0aag

#37500
0aaa

#40000
1aaa
1aac
b111 aae
1aag

#42500
0aaa

#45000
1aaa
0aac
0aag

#47500
0aaa

#50000
1aaa
1aac
b110 aae
1aag

#52500
0aaa

#55000
1aaa
0aac
0aag

#57500
0aaa

#60000
1aaa
1aac
b101 aae
1aag
b1000 aah

#62500
0aaa

#65000
1aaa
0aac
0aag

#67500
0aaa

#70000
1aaa
1aac
b100 aae
1aag

#72500
0aaa

#75000
1aaa
0aac
0aag

#77500
0aaa

#80000
1aaa
1aac
b11 aae
1aag
b111 aah

#82500
0aaa

#85000
1aaa
0aac
0aag

#87500
0aaa

#90000
1aaa
1aac
b10 aae
1aag
b110 aah

#92500
0aaa

#95000
1aaa
0aac
0aag

#97500
0aaa

#100000
1aaa
1aac
b1 aae
1aag
b101 aah

#102500
0aaa

#105000
1aaa
0aac
0aag

#107500
0aaa

#110000
1aaa
1aac
b1010 aae
1aag
b100 aah

#112500
0aaa

#115000
1aaa
0aac
0aag

#117500
0aaa

#120000
1aaa
1aac
1aag

#122500
0aaa

#125000
1aaa
0aac
0aag

#127500
0aaa

#130000
1aaa
1aac
1aag
b101 aah

#132500
0aaa

#135000
1aaa
0aac
0aag

#137500
0aaa

#140000
1aaa
1aac
1aag

#142500
0aaa

#145000
1aaa
0aac
0aag

#147500
0aaa

#150000
1aaa
1aac
1aag
b110 aah

#152500
0aaa

#155000
1aaa
0aac
0aag

#157500
0aaa

#160000
1aaa
1aac
1aag
b111 aah

#162500
0aaa

#165000
1aaa
0aac
0aag

#167500
0aaa

#170000
1aaa
1aac
1aag

#172500
0aaa

#175000
1aaa
0aac
0aag

#177500
0aaa

#180000
1aaa
1aac
1aag
b1000 aah

#182500
0aaa

#185000
1aaa
0aac
0aag

#187500
0aaa

#190000
1aaa
1aac
1aag
b1010 aah

#192500
0aaa

#195000
1aaa
0aac
0aag

#197500
0aaa

#200000
1aaa
1aac
1aag

#202500
0aaa

#205000
1aaa
0aac
0aag

#207500
0aaa

#210000
1aaa
1aac
b11111111 aae
1aag

#212500
0aaa

#215000
1aaa
0aac
0aag

#217500
0aaa

#220000
1aaa
1aac
1aag
b101000 aah

#222500
0aaa

#225000
1aaa
0aac
0aag

#227500
0aaa

#230000
1aaa
1aac
1aag
b1000111 aah

#232500
0aaa

#235000
1aaa
0aac
0aag

#237500
0aaa

#240000
1aaa
1aac
1aag
b1100101 aah

#242500
0aaa

#245000
1aaa
0aac
0aag

#247500
0aaa

#250000
1aaa
1aac
1aag
b10000100 aah

#252500
0aaa

#255000
1aaa
0aac
0aag

#257500
0aaa

#260000
1aaa
1aac
1aag
b10100011 aah

#262500
0aaa

#265000
1aaa
0aac
0aag

#267500
0aaa

#270000
1aaa
1aac
1aag
b11000001 aah

#272500
0aaa

#275000
1aaa
0aac
0aag

#277500
0aaa

#280000
1aaa
1aac
1aag
b11100000 aah

#282500
0aaa

#285000
1aaa
0aac
0aag

#287500
0aaa

#290000
1aaa
1aac
1aag
b11111111 aah

#292500
0aaa

#295000
1aaa
0aac
0aag

#297500
0aaa

#300000
1aaa
1aac
1aag

#302500
0aaa

#305000
1aaa
0aac
0aag

#307500
0aaa

#310000
1aaa
1aac
b1010 aae
1aag

#312500
0aaa

#315000
1aaa
0aac
0aag

#317500
0aaa

#320000
1aaa
1aac
b1001 aae
1aag
b11100000 aah

#322500
0aaa

#325000
1aaa
0aac
0aag

#327500
0aaa

#330000
1aaa
1aac
b1000 aae
1aag
b11000001 aah

#332500
0aaa

#335000
1aaa
0aac
0aag

#337500
0aaa

#340000
1aaa
1aac
b111 aae
1aag
b10100010 aah

#342500
0aaa

#345000
1aaa
0aac
0aag

#347500
0aaa

#350000
1aaa
1aac
b110 aae
1aag
b10000011 aah

#352500
0aaa

#355000
1aaa
0aac
0aag

#357500
0aaa

#360000
1aaa
1aac
b101 aae
1aag
b1100100 aah

#362500
0aaa

#365000
1aaa
0aac
0aag

#367500
0aaa

#370000
1aaa
1aac
b100 aae
1aag
b1000101 aah

#372500
0aaa

#375000
1aaa
0aac
0aag

#377500
0aaa

#380000
1aaa
1aac
b11 aae
1aag
b100110 aah

#382500
0aaa

#385000
1aaa
0aac
0aag

#387500
0aaa

#390000
1aaa
1aac
b10 aae
1aag
b110 aah

#392500
0aaa

#395000
1aaa
0aac
0aag

#397500
0aaa

#400000
1aaa
1aac
b1 aae
1aag
b101 aah

#402500
0aaa

#405000
1aaa
0aac
0aag

#407500
0aaa

#410000
1aaa
1aac
1aag
b100 aah

#412500
0aaa

#415000
1aaa
0aac
0aag

#417500
0aaa

#420000
1aaa
1aac
1aag
b11 aah

#422500
0aaa

#425000
1aaa
0aac
0aag

#427500
0aaa

#430000
1aaa
1aac
1aag
b10 aah

#432500
0aaa

#435000
1aaa
0aac
0aag

#437500
0aaa

#440000
1aaa
1aac
1aag

#442500
0aaa

#445000
1aaa
0aac
0aag

#447500
0aaa

#450000
1aaa
1aac
1aag
b1 aah

#452500
0aaa

#455000
1aaa
0aac
0aag

#457500
0aaa

#460000
1aaa
1aac
1aag

#462500
0aaa

#465000
1aaa
0aac
0aag

#467500
0aaa

#470000
1aaa
1aac
1aag

#472500
0aaa

#475000
1aaa
0aac
0aag

#477500
0aaa

#480000
1aaa
1aac
0aad
1aag

#482500
0aaa

#485000
1aaa
1aaf

