tutorial/stratus_examples/lab_dpopt/bdw_work/sims/DPO_AUTO_OP_V/verilog.vcd
$date
    Nov 18, 2020  11:33:17
$end
$version
    TOOL:	ncsim(64)	15.20-s016
$end
$timescale
    1 ps
$end

$scope module top $end

$scope module dut0 $end
$var reg       1 !    clk  $end
$var reg       1 "    rst  $end
$var wire      1 #    din_busy  $end
$var reg       1 $    din_vld  $end
$var reg       8 %    din_data_a [7:0] $end
$var reg       8 &    din_data_b [7:0] $end
$var reg       8 '    din_data_c [7:0] $end
$var reg       8 (    din_data_d [7:0] $end
$var reg       8 )    din_data_e [7:0] $end
$var reg       8 *    din_data_f [7:0] $end
$var reg       8 +    din_data_g [7:0] $end
$var reg       8 ,    din_data_h [7:0] $end
$var reg       1 -    dout_busy  $end
$var wire      1 .    dout_vld  $end
$var wire     32 /    dout_data [31:0] $end

$scope module dut0 $end
$var wire      1 0    clk  $end
$var wire      1 1    rst  $end
$var wire      1 2    din_vld  $end
$var wire      8 3    din_data_a [7:0] $end
$var wire      8 4    din_data_b [7:0] $end
$var wire      8 5    din_data_c [7:0] $end
$var wire      8 6    din_data_d [7:0] $end
$var wire      8 7    din_data_e [7:0] $end
$var wire      8 8    din_data_f [7:0] $end
$var wire      8 9    din_data_g [7:0] $end
$var wire      8 :    din_data_h [7:0] $end
$var wire      1 ;    dout_busy  $end
$var wire      1 #    din_busy  $end
$var wire      1 .    dout_vld  $end
$var reg      32 <    dout_data [31:0] $end
$var reg       1 =    dout_m_req_m_prev_trig_req  $end
$var reg       1 >    dout_m_unacked_req  $end
$var wire      1 ?    dut_Xor_1U_8_4_9_out1  $end
$var wire      1 @    dut_Or_1U_7_4_10_out1  $end
$var reg       1 A    dut_N_Muxb_1_2_11_4_1_out1  $end
$var wire      1 B    dut_And_1U_5_4_5_out1  $end
$var wire      1 C    dut_Not_1U_1_4_4_out1  $end
$var reg       1 D    din_m_unvalidated_req  $end
$var wire      1 E    dut_Or_1U_7_4_2_out1  $end
$var wire      1 F    dut_And_1U_5_4_3_out1  $end
$var reg       3 G    global_state_next [2:0] $end
$var reg       9 H    dut_Mul_20Ux9U_29U_1_19_in1 [8:0] $end
$var wire      9 I    dut_Add_8Ux8U_9U_4_20_out1 [8:0] $end
$var reg      20 J    dut_Mul_20Ux9U_29U_1_19_in2 [19:0] $end
$var reg       1 K    gs_ctrl8  $end
$var reg       9 L    dut_Mul_32Ux9U_32U_1_18_in1 [8:0] $end
$var reg       1 M    gs_ctrl7  $end
$var reg      29 N    dut_Mul_32Ux9U_32U_1_18_in2_slice [28:0] $end
$var reg       2 O    gs_ctrl6 [1:0] $end
$var reg      32 P    dut_Mul_32Ux32U_32U_1_17_in1 [31:0] $end
$var reg       2 Q    gs_ctrl5 [1:0] $end
$var reg      32 R    dut_Mul_32Ux32U_32U_1_17_in2 [31:0] $end
$var reg       2 S    gs_ctrl4 [1:0] $end
$var reg      32 T    dut_Add_32Ux32U_32U_1_16_in1 [31:0] $end
$var reg      32 U    dut_Add_32Ux32U_32U_1_16_in2 [31:0] $end
$var reg       1 V    gs_ctrl2  $end
$var wire     32 W    dut_Add_32Ux16U_32U_1_15_out1 [31:0] $end
$var reg      16 X    dut_Add_32Ux16U_32U_1_15_in1 [15:0] $end
$var reg      32 Y    dut_Add_32Ux16U_32U_1_15_in2 [31:0] $end
$var reg       2 Z    gs_ctrl0 [1:0] $end
$var wire      9 [    dut_Add_8Ux8U_9U_4_14_out1 [8:0] $end
$var wire      9 \    dut_Add_8Ux8U_9U_4_13_out1 [8:0] $end
$var wire     32 ]    dut_Add_32Ux32U_32U_1_16_out1 [31:0] $end
$var wire     17 ^    dut_Add_16Ux16U_17U_4_22_out1 [16:0] $end
$var reg      32 _    s_reg_32 [31:0] $end
$var wire     29 `    dut_Mul_20Ux9U_29U_1_19_out1 [28:0] $end
$var reg      29 a    s_reg_31 [28:0] $end
$var wire     32 b    dut_Mul_32Ux9U_32U_1_18_out1 [31:0] $end
$var reg      16 c    s_reg_30 [15:0] $end
$var wire      9 d    dut_Add_8Ux8U_9U_4_25_out1 [8:0] $end
$var reg       9 e    s_reg_29 [8:0] $end
$var reg       8 f    s_reg_28 [7:0] $end
$var reg       8 g    s_reg_27 [7:0] $end
$var reg       8 h    s_reg_26 [7:0] $end
$var reg       8 i    s_reg_25 [7:0] $end
$var reg       8 j    s_reg_24 [7:0] $end
$var reg       8 k    s_reg_23 [7:0] $end
$var wire      1 l    dut_Not_1U_1_4_6_out1  $end
$var wire      1 m    dut_And_1U_5_4_11_out1  $end
$var wire      1 n    dut_Not_1U_1_4_12_out1  $end
$var reg       1 o    dout_m_req_m_trig_req  $end
$var reg       1 p    din_m_busy_req_0  $end
$var wire     32 q    dut_Mul_32Ux32U_32U_1_17_out1 [31:0] $end
$var reg       3 r    global_state [2:0] $end
$var reg       1 s    stall0  $end
$upscope $end

$upscope $end

$upscope $end

$enddefinitions $end
$dumpvars
1!
0"
1#
0$
b0 %
b0 &
b0 '
b0 (
b0 )
b0 *
b0 +
b0 ,
1-
0.
bx /
10
01
02
b0 3
b0 4
b0 5
b0 6
b0 7
b0 8
b0 9
b0 :
1;
bx <
0=
0>
0?
0@
1A
0B
0C
1D
1E
1F
b1 G
b0 H
bx I
b0 J
0K
b0 L
0M
b0 N
b0 O
b0 P
b0 Q
b0 R
b0 S
b0 T
b0 U
0V
b0 W
b0 X
b0 Y
b0 Z
b0 [
b0 \
b0 ]
bx ^
bx _
b0 `
bx a
b0 b
bx c
bx d
bx e
b0 f
bx g
b0 h
bx i
bx j
bx k
1l
0m
1n
0o
1p
b0 q
b0 r
0s
$end
#1375
0!
00
#2750
1!
10
0-
0;
#4125
0!
00
#5500
1!
10
1"
11
#6875
0!
00
#8250
1!
10
b1 r
0p
1s
b10 G
0A
0F
1C
0#
1$
12
1B
0l
1A
0s
#9625
0!
00
#11000
1!
10
1M
1K
b10 r
b1 S
b1 Q
b1 O
b0 c
b0 a
b0 g
b0 e
b0 k
b0 j
b0 i
b0 <
1p
bx H
b11 G
bx `
1F
b0 I
b0 d
b0 ^
b0 /
0C
1#
0B
1l
b0xxxxxxxxxxxxxxxxxxxxxxxxxxxxx R
b0 H
b0 `
bx q
b0 R
b0 q
b1 %
b1 &
b1 '
b1 (
b1 )
b1 *
b1 +
b1 ,
b1 :
b1 9
b1 8
b1 7
b1 6
b1 5
b1 4
b1 3
b1 X
b1 T
b1 ]
b1 W
b10 [
b10 \
b10 U
b10 Y
b11 W
b11 ]
#12375
0!
00
#13750
1!
10
0M
0K
b11 r
b1 Z
1V
b10 S
b10 Q
b0 O
b0 _
b1 h
b1 f
b1 L
b1 J
b1 H
b100 G
b0 Y
b0 X
b0 T
b0 U
b11 R
b11 P
b1 N
b1001 q
b0 ]
b0 W
b1 `
b1 b
b1 I
b0 R
b0 P
b0 q
#15125
0!
00
#16500
1!
10
1M
b100 r
b10 Z
b11 Q
b10 O
b0 L
b101 G
b1 T
b0 N
b1 ]
b0 b
b1 R
b0 T
b0 ]
b0 R
#17875
0!
00
#19250
1!
10
0M
b101 r
b0 Z
0V
b0 S
b0 Q
b0 O
1o
b1 L
b1 G
b10 Y
b1 X
b1 T
b10 U
b1 N
b11 ]
b11 W
b1 b
0n
1?
b11 R
b11 P
b1001 q
1@
1.
#20625
0!
00
#22000
1!
10
1=
b1 r
0p
1s
b10 G
0F
0?
1C
0#
1B
0l
0s
0@
0.
#23375
0!
00
#24750
1!
10
1M
1K
b10 r
b1 S
b1 Q
b1 O
b1 c
b1 a
b1 g
b1 e
b1 k
b1 j
b1 i
b1001 <
1p
b1001 J
b11 G
b1 R
b1 P
b1 q
b1001 `
1F
b10 I
b10 d
b10 ^
b1001 /
0C
1#
0B
1l
b1001 R
b10 H
b10010 `
b1001 q
b10010 R
b10010 q
b10 %
b10 &
b10 '
b10 (
b10 )
b10 *
b10 +
b10 ,
b10 :
b10 9
b10 8
b10 7
b10 6
b10 5
b10 4
b10 3
b10 X
b10 T
b100 ]
b100 W
b100 [
b100 \
b100 U
b100 Y
b110 W
b110 ]
#26125
0!
00
#27500
1!
10
0M
0K
b11 r
b1 Z
1V
b10 S
b10 Q
b0 O
b10010 a
b10 _
b10 h
b10 f
b10010 <
b10 L
b10 J
b100 G
b1 Y
b1 X
b10010 U
b110 R
b110 P
b10 N
b100100 q
b10100 ]
b10 W
b100 `
b100 b
b11 I
b10011 ^
b10010 /
b10100 R
b10 P
b101000 q
#28875
0!
00
#30250
1!
10
1M
b100 r
b10 Z
b11 Q
b10 O
b10100 _
b10 e
b101000 <
b101 G
b10100 Y
b100 T
b10010 N
b101000 U
b100100 b
b101100 ]
b10101 W
b100 I
b101000 /
b100100 T
b101100 R
b10101 P
b1110011100 q
b1001100 ]
b1001100 R
b11000111100 q
#31625
0!
00
#33000
1!
10
0M
b101 r
b0 Z
0V
b0 S
b0 Q
b0 O
b11000111100 <
0o
b1 G
b100 Y
b10 X
b10 T
b100 U
b10 N
b100 b
b110 ]
b110 W
1n
1?
b11000111100 /
b110 R
b110 P
b100100 q
1@
1.
#34375
0!
00
#35750
1!
10
0=
b1 r
0p
1s
b10 G
0F
0?
1C
0#
1B
0l
0s
0@
0.
#37125
0!
00
#38500
1!
10
1M
1K
b10 r
b1 S
b1 Q
b1 O
b100 c
b100 a
b10 g
b10 k
b10 j
b10 i
b100100 <
1p
b100100 J
b100 H
b11 G
b100 R
b10 P
b1000 q
b10010000 `
1F
b100 d
b1000 ^
b100100 /
0C
1#
0B
1l
b10010000 R
b100100000 q
b11 %
b11 &
b11 '
b11 (
b11 )
b11 *
b11 +
b11 ,
b11 :
b11 9
b11 8
b11 7
b11 6
b11 5
b11 4
b11 3
b11 X
b11 T
b111 ]
b111 W
b110 [
b110 \
b110 U
b110 Y
b1001 W
b1001 ]
#39875
0!
00
#41250
1!
10
0M
0K
b11 r
b1 Z
1V
b10 S
b10 Q
b0 O
b10010000 a
b1000 _
b11 h
b11 f
b100100000 <
b11 L
b11 J
b11 H
b100 G
b10 Y
b10 X
b1000 T
b100100000 U
b1001 R
b1001 P
b11 N
b1010001 q
b100101000 ]
b100 W
b1001 `
b1001 b
b101 I
b10010100 ^
b100100000 /
b100101000 R
b100 P
b10010100000 q
#42625
0!
00
#44000
1!
10
1M
b100 r
b10 Z
b11 Q
b10 O
b100101000 _
b100 e
b10010100000 <
b100 L
b101 G
b100101000 Y
b100 X
b1001 T
b10010000 N
b10010100000 U
b10010101001 ]
b100101100 W
b1001000000 b
b111 I
b10010100000 /
b10010101001 R
b100101100 P
b1001000000 T
b11011100000 ]
b1010111011000001100 q
b11011100000 R
b10000000111010000000 q
#45375
0!
00
#46750
1!
10
0M
b101 r
b0 Z
0V
b0 S
b0 Q
b0 O
b10000000111010000000 <
1o
b11 L
b1 G
b110 Y
b11 X
b11 T
b110 U
b1011100000 R
b11 N
b110101111010000000 q
b1001 ]
b1001 W
b1001 b
0n
1?
b10000000111010000000 /
b1001 R
b1001 P
b1010001 q
1@
1.
#48125
0!
00
#49500
1!
10
1=
b1 r
0p
1s
b10 G
0F
0?
1C
0#
1B
0l
0s
0@
0.
#50875
0!
00
#52250
1!
10
1M
1K
b10 r
b1 S
b1 Q
b1 O
b1001 c
b1001 a
b11 g
b11 e
b11 k
b11 j
b11 i
b1010001 <
1p
b1010001 J
b111 H
b11 G
b11 P
b11011 q
b1000110111 `
1F
b110 I
b110 d
b10010 ^
b1010001 /
0C
1#
0B
1l
b1000110111 R
b110 H
b111100110 `
b11010100101 q
b111100110 R
b10110110010 q
b100 %
b100 &
b100 '
b100 (
b100 )
b100 *
b100 +
b100 ,
b100 :
b100 9
b100 8
b100 7
b100 6
b100 5
b100 4
b100 3
b100 X
b100 T
b1010 ]
b1010 W
b1000 [
b1000 \
b1000 U
b1000 Y
b1100 W
b1100 ]
#53625
0!
00
#55000
1!
10
0M
0K
b11 r
b1 Z
1V
b10 S
b10 Q
b0 O
b111100110 a
b10010 _
b100 h
b100 f
b10110110010 <
b100 L
b100 J
b100 H
b100 G
b11 Y
b11 X
b10010 T
b10110110010 U
b1100 R
b1100 P
b100 N
b10010000 q
b10111000100 ]
b110 W
b10000 `
b10000 b
b111 I
b111101111 ^
b10110110010 /
b10111000100 R
b110 P
b10001010011000 q
#56375
0!
00
#57750
1!
10
1M
b100 r
b10 Z
b11 Q
b10 O
b10111000100 _
b110 e
b10001010011000 <
b110 L
b101 G
b10111000100 Y
b1001 X
b10000 T
b111100110 N
b10001010011000 U
b10001010101000 ]
b10111001101 W
b101101100100 b
b1010 I
b10001010011000 /
b10001010101000 R
b10111001101 P
b101101100100 T
b10110111111100 ]
b110010010000100010001000 q
b10110111111100 R
b1000010101011111011001100 q
#59125
0!
00
#60500
1!
10
0M
b101 r
b0 Z
0V
b0 S
b0 Q
b0 O
b1000010101011111011001100 <
0o
b100 L
b1 G
b1000 Y
b100 X
b100 T
b1000 U
b111111100 R
b111001101 P
b100 N
b111001001011001100 q
b1100 ]
b1100 W
b10000 b
1n
1?
b1000010101011111011001100 /
b1100 R
b1100 P
b10010000 q
1@
1.
#61875
0!
00
#63250
1!
10
0=
b1 r
0p
1s
b10 G
0F
0?
1C
0#
1B
0l
0s
0@
0.
#64625
0!
00
#66000
1!
10
1M
1K
b10 r
b1 S
b1 Q
b1 O
b10000 c
b10000 a
b100 g
b100 e
b100 k
b100 j
b100 i
b10010000 <
1p
b10010000 J
b1010 H
b11 G
b10000 R
b100 P
b1000000 q
b10110100000 `
1F
b1000 I
b1000 d
b100000 ^
b10010000 /
0C
1#
0B
1l
b10110100000 R
b1000 H
b10010000000 `
b1011010000000 q
b10010000000 R
b1001000000000 q
b101 %
b101 &
b101 '
b101 (
b101 )
b101 *
b101 +
b101 ,
b101 :
b101 9
b101 8
b101 7
b101 6
b101 5
b101 4
b101 3
b101 X
b101 T
b1101 ]
b1101 W
b1010 [
b1010 \
b1010 U
b1010 Y
b1111 W
b1111 ]
#67375
0!
00
#68750
1!
10
0M
0K
b11 r
b1 Z
1V
b10 S
b10 Q
b0 O
b10010000000 a
b100000 _
b101 h
b101 f
b1001000000000 <
b101 L
b101 J
b101 H
b100 G
b100 Y
b100 X
b100000 T
b1001000000000 U
b1111 R
b1111 P
b101 N
b11100001 q
b1001000100000 ]
b1000 W
b11001 `
b11001 b
b1001 I
b10010010000 ^
b1001000000000 /
b1001000100000 R
b1000 P
b1001000100000000 q
#70125
0!
00
#71500
1!
10
1M
b100 r
b10 Z
b11 Q
b10 O
b1001000100000 _
b1000 e
b1001000100000000 <
b1000 L
b101 G
b1001000100000 Y
b10000 X
b11001 T
b10010000000 N
b1001000100000000 U
b1001000100011001 ]
b1001000110000 W
b10010000000000 b
b1101 I
b1001000100000000 /
b1001000100011001 R
b1001000110000 P
b10010000000000 T
b1011010100000000 ]
b1010010011101111011010110000 q
b1011010100000000 R
b1100110110111111000000000000 q
#72875
0!
00
#74250
1!
10
0M
b101 r
b0 Z
0V
b0 S
b0 Q
b0 O
b1100110110111111000000000000 <
1o
b101 L
b1 G
b1010 Y
b101 X
b101 T
b1010 U
b100000000 R
b1000110000 P
b101 N
b100011000000000000 q
b1111 ]
b1111 W
b11001 b
0n
1?
b1100110110111111000000000000 /
b1111 R
b1111 P
b11100001 q
1@
1.
#75625
0!
00
#77000
1!
10
1=
b1 r
0p
1s
b10 G
0F
0?
1C
0#
1B
0l
0s
0@
0.
#78375
0!
00
#79750
1!
10
1M
1K
b10 r
b1 S
b1 Q
b1 O
b11001 c
b11001 a
b101 g
b101 e
b101 k
b101 j
b101 i
b11100001 <
1p
b11100001 J
b1101 H
b11 G
b11001 R
b101 P
b1111101 q
b101101101101 `
1F
b1010 I
b1010 d
b110010 ^
b11100001 /
0C
1#
0B
1l
b101101101101 R
b1010 H
b100011001010 `
b11100100100001 q
b100011001010 R
b10101111110010 q
b110 %
b110 &
b110 '
b110 (
b110 )
b110 *
b110 +
b110 ,
b110 :
b110 9
b110 8
b110 7
b110 6
b110 5
b110 4
b110 3
b110 X
b110 T
b10000 ]
b10000 W
b1100 [
b1100 \
b1100 U
b1100 Y
b10010 W
b10010 ]
#81125
0!
00
#82500
1!
10
0M
0K
b11 r
b1 Z
1V
b10 S
b10 Q
b0 O
b100011001010 a
b110010 _
b110 h
b110 f
b10101111110010 <
b110 L
b110 J
b110 H
b100 G
b101 Y
b101 X
b110010 T
b10101111110010 U
b10010 R
b10010 P
b110 N
b101000100 q
b10110000100100 ]
b1010 W
b100100 `
b100100 b
b1011 I
b100011100011 ^
b10101111110010 /
b10110000100100 R
b1010 P
b11011100101101000 q
#83875
0!
00
#85250
1!
10
1M
b100 r
b10 Z
b11 Q
b10 O
b10110000100100 _
b1010 e
b11011100101101000 <
b1010 L
b101 G
b10110000100100 Y
b11001 X
b100100 T
b100011001010 N
b11011100101101000 U
b11011100110001100 ]
b10110000111101 W
b101011111100100 b
b10000 I
b11011100101101000 /
b11011100110001100 R
b10110000111101 P
b101011111100100 T
b100001000101001100 ]
b1001100010011010100011001011100 q
b100001000101001100 R
b1011011011101110010111100011100 q
#86625
0!
00
#88000
1!
10
0M
b101 r
b0 Z
0V
b0 S
b0 Q
b0 O
b1011011011101110010111100011100 <
0o
b110 L
b1 G
b1100 Y
b110 X
b110 T
b1100 U
b101001100 R
b111101 P
b110 N
b100111100011100 q
b10010 ]
b10010 W
b100100 b
1n
1?
b1011011011101110010111100011100 /
b10010 R
b10010 P
b101000100 q
1@
1.
#89375
0!
00
#90750
1!
10
0=
b1 r
0p
1s
b10 G
0F
0?
1C
0#
1B
0l
0s
0@
0.
#92125
0!
00
#93500
1!
10
1M
1K
b10 r
b1 S
b1 Q
b1 O
b100100 c
b100100 a
b110 g
b110 e
b110 k
b110 j
b110 i
b101000100 <
1p
b101000100 J
b10000 H
b11 G
b100100 R
b110 P
b11011000 q
b1010001000000 `
1F
b1100 I
b1100 d
b1001000 ^
b101000100 /
0C
1#
0B
1l
b1010001000000 R
b1100 H
b111100110000 `
b111100110000000 q
b111100110000 R
b101101100100000 q
b111 %
b111 &
b111 '
b111 (
b111 )
b111 *
b111 +
b111 ,
b111 :
b111 9
b111 8
b111 7
b111 6
b111 5
b111 4
b111 3
b111 X
b111 T
b10011 ]
b10011 W
b1110 [
b1110 \
b1110 U
b1110 Y
b10101 W
b10101 ]
#94875
0!
00
#96250
1!
10
0M
0K
b11 r
b1 Z
1V
b10 S
b10 Q
b0 O
b111100110000 a
b1001000 _
b111 h
b111 f
b101101100100000 <
b111 L
b111 J
b111 H
b100 G
b110 Y
b110 X
b1001000 T
b101101100100000 U
b10101 R
b10101 P
b111 N
b110111001 q
b101101101101000 ]
b1100 W
b110001 `
b110001 b
b1101 I
b111101010100 ^
b101101100100000 /
b101101101101000 R
b1100 P
b1000100100011100000 q
#97625
0!
00
#99000
1!
10
1M
b100 r
b10 Z
b11 Q
b10 O
b101101101101000 _
b1100 e
b1000100100011100000 <
b1100 L
b101 G
b101101101101000 Y
b100100 X
b110001 T
b111100110000 N
b1000100100011100000 U
b1000100100100010001 ]
b101101110001100 W
b1011011001000000 b
b10011 I
b1000100100011100000 /
b1000100100100010001 R
b101101110001100 P
b1011011001000000 T
b1001111111100100000 ]
b10001000010100010000000001001100 q
b1001111111100100000 R
b11001001011010111110010110000000 q
#100375
0!
00
#101750
1!
10
0M
b101 r
b0 Z
0V
b0 S
b0 Q
b0 O
b11001001011010111110010110000000 <
1o
b111 L
b1 G
b1110 Y
b111 X
b111 T
b1110 U
b1100100000 R
b1110001100 P
b111 N
b10110001010110000000 q
b10101 ]
b10101 W
b110001 b
0n
1?
b11001001011010111110010110000000 /
b10101 R
b10101 P
b110111001 q
1@
1.
#103125
0!
00
#104500
1!
10
1=
b1 r
0p
1s
b10 G
0F
0?
1C
0#
1B
0l
0s
0@
0.
#105875
0!
00
#107250
1!
10
1M
1K
b10 r
b1 S
b1 Q
b1 O
b110001 c
b110001 a
b111 g
b111 e
b111 k
b111 j
b111 i
b110111001 <
1p
b110111001 J
b10011 H
b11 G
b110001 R
b111 P
b101010111 q
b10000010111011 `
1F
b1110 I
b1110 d
b1100010 ^
b110111001 /
0C
1#
0B
1l
b10000010111011 R
b1110 H
b1100000011110 `
b1110010100011101 q
b1100000011110 R
b1010100011010010 q
b1000 %
b1000 &
b1000 '
b1000 (
b1000 )
b1000 *
b1000 +
b1000 ,
b1000 :
b1000 9
b1000 8
b1000 7
b1000 6
b1000 5
b1000 4
b1000 3
b1000 X
b1000 T
b10110 ]
b10110 W
b10000 [
b10000 \
b10000 U
b10000 Y
b11000 W
b11000 ]
#108625
0!
00
#110000
1!
10
0M
0K
b11 r
b1 Z
1V
b10 S
b10 Q
b0 O
b1100000011110 a
b1100010 _
b1000 h
b1000 f
b1010100011010010 <
b1000 L
b1000 J
b1000 H
b100 G
b111 Y
b111 X
b1100010 T
b1010100011010010 U
b11000 R
b11000 P
b1000 N
b1001000000 q
b1010100100110100 ]
b1110 W
b1000000 `
b1000000 b
b1111 I
b1100001001111 ^
b1010100011010010 /
b1010100100110100 R
b1110 P
b10010100000011011000 q
#111375
0!
00
#112750
1!
10
1M
b100 r
b10 Z
b11 Q
b10 O
b1010100100110100 _
b1110 e
b10010100000011011000 <
b1110 L
b101 G
b1010100100110100 Y
b110001 X
b1000000 T
b1100000011110 N
b10010100000011011000 U
b10010100000100011000 ]
b1010100101100101 W
b10101000110100100 b
b10110 I
b10010100000011011000 /
b10010100000100011000 R
b1010100101100101 P
b10101000110100100 T
b10101001001001111100 ]
b11111100111111000011001111000 q
b10101001001001111100 R
b11111110110111111010011011101100 q
#114125
0!
00
#115500
1!
10
0M
b101 r
b0 Z
0V
b0 S
b0 Q
b0 O
b11111110110111111010011011101100 <
0o
b1000 L
b1 G
b10000 Y
b1000 X
b1000 T
b10000 U
b1001111100 R
b101100101 P
b1000 N
b110111011011101100 q
b11000 ]
b11000 W
b1000000 b
1n
1?
b11111110110111111010011011101100 /
b11000 R
b11000 P
b1001000000 q
1@
1.
#116875
0!
00
#118250
1!
10
0=
b1 r
0p
1s
b10 G
0F
0?
1C
0#
1B
0l
0s
0@
0.
#119625
0!
00
#121000
1!
10
1M
1K
b10 r
b1 S
b1 Q
b1 O
b1000000 c
b1000000 a
b1000 g
b1000 e
b1000 k
b1000 j
b1000 i
b1001000000 <
1p
b1001000000 J
b10110 H
b11 G
b1000000 R
b1000 P
b1000000000 q
b11000110000000 `
1F
b10000 I
b10000 d
b10000000 ^
b1001000000 /
0C
1#
0B
1l
b11000110000000 R
b10000 H
b10010000000000 `
b11000110000000000 q
b10010000000000 R
b10010000000000000 q
b1001 %
b1001 &
b1001 '
b1001 (
b1001 )
b1001 *
b1001 +
b1001 ,
b1001 :
b1001 9
b1001 8
b1001 7
b1001 6
b1001 5
b1001 4
b1001 3
b1001 X
b1001 T
b11001 ]
b11001 W
b10010 [
b10010 \
b10010 U
b10010 Y
b11011 W
b11011 ]
#122375
0!
00
#123750
1!
10
0M
0K
b11 r
b1 Z
1V
b10 S
b10 Q
b0 O
b10010000000000 a
b10000000 _
b1001 h
b1001 f
b10010000000000000 <
b1001 L
b1001 J
b1001 H
b100 G
b1000 Y
b1000 X
b10000000 T
b10010000000000000 U
b11011 R
b11011 P
b1001 N
b1011011001 q
b10010000010000000 ]
b10000 W
b1010001 `
b1010001 b
b10001 I
b10010001000000 ^
b10010000000000000 /
b10010000010000000 R
b10000 P
b100100000100000000000 q
#125125
0!
00
#126500
1!
10
1M
b100 r
b10 Z
b11 Q
b10 O
b10010000010000000 _
b10000 e
b100100000100000000000 <
b10000 L
b101 G
b10010000010000000 Y
b1000000 X
b1010001 T
b10010000000000 N
b100100000100000000000 U
b100100000100001010001 ]
b10010000011000000 W
b100100000000000000 b
b11001 I
b100100000100000000000 /
b100100000100001010001 R
b10010000011000000 P
b100100000000000000 T
b101000100100000000000 ]
b1010110111000010101110011000000 q
b101000100100000000000 R
b11100000001101100000000000000000 q
#127875
0!
00
#129250
1!
10
0M
b101 r
b0 Z
0V
b0 S
b0 Q
b0 O
b11100000001101100000000000000000 <
1o
b1001 L
b1 G
b10010 Y
b1001 X
b1001 T
b10010 U
b0 R
b11000000 P
b1001 N
b0 q
b11011 ]
b11011 W
b1010001 b
0n
1?
b11100000001101100000000000000000 /
b11011 R
b11011 P
b1011011001 q
1@
1.
#130625
0!
00
#132000
1!
10
1=
b1 r
0p
1s
b10 G
0F
0?
1C
0#
1B
0l
0s
0@
0.
#133375
0!
00
#134750
1!
10
1M
1K
b10 r
b1 S
b1 Q
b1 O
b1010001 c
b1010001 a
b1001 g
b1001 e
b1001 k
b1001 j
b1001 i
b1011011001 <
1p
b1011011001 J
b11001 H
b11 G
b1010001 R
b1001 P
b100011100110001 `
1F
b10010 I
b10010 d
b10100010 ^
b1011011001 /
0C
1#
0B
1l
b100011100110001 R
b10010 H
b11001101000010 `
b101000000010111001 q
b11001101000010 R
b11100110101010010 q
b1010 %
b1010 &
b1010 '
b1010 (
b1010 )
b1010 *
b1010 +
b1010 ,
b1010 :
b1010 9
b1010 8
b1010 7
b1010 6
b1010 5
b1010 4
b1010 3
b1010 X
b1010 T
b11100 ]
b11100 W
b10100 [
b10100 \
b10100 U
b10100 Y
b11110 W
b11110 ]
#136125
0!
00
#137500
1!
10
0M
0K
b11 r
b1 Z
1V
b10 S
b10 Q
b0 O
b11001101000010 a
b10100010 _
b1010 h
b1010 f
b11100110101010010 <
b1010 L
b1010 J
b1010 H
b100 G
b1001 Y
b1001 X
b10100010 T
b11100110101010010 U
b11110 R
b11110 P
b1010 N
b1110000100 q
b11100110111110100 ]
b10010 W
b1100100 `
b1100100 b
b10011 I
b11001110010011 ^
b11100110101010010 /
b11100110111110100 R
b10010 P
b1000000111101100101000 q
#138875
0!
00
#140250
1!
10
1M
b100 r
b10 Z
b11 Q
b10 O
b11100110111110100 _
b10010 e
b1000000111101100101000 <
b10010 L
b101 G
b11100110111110100 Y
b1010001 X
b1100100 T
b11001101000010 N
b1000000111101100101000 U
b1000000111101110001100 ]
b11100111001000101 W
b111001101010100100 b
b11100 I
b1000000111101100101000 /
b1000000111101110001100 R
b11100111001000101 P
b111001101010100100 T
b1001000001010111001100 ]
b10100111101101111111010010111100 q
b1001000001010111001100 R
b101001000100000000011111111100 q
#141625
0!
00
#143000
1!
10
0M
b101 r
b0 Z
0V
b0 S
b0 Q
b0 O
b101001000100000000011111111100 <
0o
b1010 L
b1 G
b10100 Y
b1010 X
b1010 T
b10100 U
b111001100 R
b1001000101 P
b1010 N
b1000001001111111100 q
b11110 ]
b11110 W
b1100100 b
1n
1?
b101001000100000000011111111100 /
b11110 R
b11110 P
b1110000100 q
1@
1.
#144375
0!
00
#145750
1!
10
0=
b1 r
0p
1s
b10 G
0F
0?
1C
0#
1B
0l
0s
0@
0.
#147125
0!
00
#148500
1!
10
1M
1K
b10 r
b1 S
b1 Q
b1 O
b1100100 c
b1100100 a
b1010 g
b1010 e
b1010 k
b1010 j
b1010 i
b1110000100 <
1p
b1110000100 J
b11100 H
b11 G
b1100100 R
b1010 P
b1111101000 q
b110001001110000 `
1F
b10100 I
b10100 d
b11001000 ^
b1110000100 /
0C
1#
0B
1l
b110001001110000 R
b10100 H
b100011001010000 `
b111101100001100000 q
b100011001010000 R
b101011111100100000 q
b1011 %
b1011 &
b1011 '
b1011 (
b1011 )
b1011 *
b1011 +
b1011 ,
b1011 :
b1011 9
b1011 8
b1011 7
b1011 6
b1011 5
b1011 4
b1011 3
b1011 X
b1011 T
b11111 ]
b11111 W
b10110 [
b10110 \
b10110 U
b10110 Y
b100001 W
b100001 ]
#149875
0!
00
#151250
1!
10
0M
0K
b11 r
b1 Z
1V
b10 S
b10 Q
b0 O
b100011001010000 a
b11001000 _
b1011 h
b1011 f
b101011111100100000 <
b1011 L
b1011 J
b1011 H
b100 G
b1010 Y
b1010 X
b11001000 T
b101011111100100000 U
b100001 R
b100001 P
b1011 N
b10001000001 q
b101011111111101000 ]
b10100 W
b1111001 `
b1111001 b
b10101 I
b100011010110100 ^
b101011111100100000 /
b101011111111101000 R
b10100 P
b1101101111111000100000 q
#152625
0!
00
#154000
1!
10
1M
b100 r
b10 Z
b11 Q
b10 O
b101011111111101000 _
b10100 e
b1101101111111000100000 <
b10100 L
b101 G
b101011111111101000 Y
b1100100 X
b1111001 T
b100011001010000 N
b1101101111111000100000 U
b1101101111111010011001 ]
b101100000001001100 W
b1010111111001000000 b
b11111 I
b1101101111111000100000 /
b1101101111111010011001 R
b101100000001001100 P
b1010111111001000000 T
b1111000111110001100000 ]
b1001100011110000101010101101100 q
b1111000111110001100000 R
b1100111111111001110110010000000 q
#155375
0!
00
#156750
1!
10
0M
b101 r
b0 Z
0V
b0 S
b0 Q
b0 O
b1100111111111001110110010000000 <
1o
b1011 L
b1 G
b10110 Y
b1011 X
b1011 T
b10110 U
b1100000 R
b1001100 P
b1011 N
b1110010000000 q
b100001 ]
b100001 W
b1111001 b
0n
1?
b1100111111111001110110010000000 /
b100001 R
b100001 P
b10001000001 q
1@
1.
#158125
0!
00
#159500
1!
10
1=
b1 r
0p
1s
b10 G
0F
0?
1C
0#
1B
0l
0s
0@
0.
#160875
0!
00
