tutorial/stratus_examples/lab_array/bdw_work/sims/MEM_V/verilog.vcd
$date
    Nov 17, 2020  14:08:02
$end
$version
    TOOL:	ncsim(64)	15.20-s016
$end
$timescale
    1 ps
$end

$scope module top $end

$scope module dut0 $end
$var reg       1 !    clk  $end
$var reg       1 "    rst  $end
$var wire      1 #    din_busy  $end
$var reg       1 $    din_vld  $end
$var reg       8 %    din_data [7:0] $end
$var reg       1 &    dout_busy  $end
$var wire      1 '    dout_vld  $end
$var wire     11 (    dout_data [10:0] $end

$scope module dut0 $end
$var wire      1 )    clk  $end
$var wire      1 *    rst  $end
$var wire      1 +    din_vld  $end
$var wire      8 ,    din_data [7:0] $end
$var wire      1 -    dout_busy  $end
$var wire      1 #    din_busy  $end
$var wire      1 '    dout_vld  $end
$var wire     11 (    dout_data [10:0] $end
$var reg       1 .    dout_m_req_m_prev_trig_req  $end
$var reg       1 /    dout_m_unacked_req  $end
$var wire      1 0    dut_Xor_1Ux1U_1U_4_9_out1  $end
$var wire      1 1    dut_Or_1Ux1U_1U_4_10_out1  $end
$var reg       1 2    dut_N_Muxb_1_2_0_4_1_out1  $end
$var wire      1 3    dut_And_1Ux1U_1U_4_5_out1  $end
$var wire      1 4    dut_Not_1U_1U_4_4_out1  $end
$var reg       1 5    din_m_unvalidated_req  $end
$var wire      1 6    dut_Or_1Ux1U_1U_4_2_out1  $end
$var wire      1 7    dut_And_1Ux1U_1U_4_3_out1  $end
$var reg       3 8    global_state_next [2:0] $end
$var reg       2 9    gs_ctrl3 [1:0] $end
$var wire      6 :    dut_Add_6Ux1U_6U_4_15_out1 [5:0] $end
$var reg       2 ;    gs_ctrl1 [1:0] $end
$var reg       7 <    dut_Add_7Sx2S_8S_4_13_in2 [6:0] $end
$var reg       1 =    gs_ctrl0  $end
$var wire      1 >    dut_Not_1U_1U_4_6_out1  $end
$var wire      1 ?    dut_And_1Ux1U_1U_4_11_out1  $end
$var wire      1 @    dut_Not_1U_1U_4_12_out1  $end
$var reg       1 A    dout_m_req_m_trig_req  $end
$var wire      1 B    dut_LessThan_8Sx8S_1U_4_14_out1  $end
$var reg       1 C    din_m_busy_req_0  $end
$var wire      9 D    dut_Add_8Ux8U_9U_4_16_out1 [8:0] $end
$var wire      8 E    dut_Add_7Sx2S_8S_4_13_out1 [7:0] $end
$var reg      10 F    dout_data_slice [9:0] $end
$var reg       3 G    global_state [2:0] $end
$var reg       1 H    stall0  $end
$var reg       1 I    RAM_64x8_mem_1_1_WE0  $end
$var wire      8 J    RAM_64x8_mem_1_1_DIN0 [7:0] $end
$var wire      8 K    RAM_64x8_mem_1_1_DOUT0 [7:0] $end
$var reg       6 L    RAM_64x8_mem_1_1_A0 [5:0] $end

$scope module RAM_64x8_mem_1_1 $end
$var wire      1 )    CLK  $end
$var wire      1 M    WE0  $end
$var wire      8 J    DIN0 [7:0] $end
$var wire      6 N    A0 [5:0] $end
$var reg       8 O    DOUT0 [7:0] $end
$upscope $end

$upscope $end

$upscope $end

$upscope $end

$enddefinitions $end
$dumpvars
1!
0"
1#
0$
b0 %
1&
0'
bx (
1)
0*
0+
b0 ,
1-
0.
0/
00
01
12
03
04
15
16
17
b1 8
b1 9
b1 :
b0 ;
b0 <
0=
1>
0?
1@
0A
xB
1C
bx D
b1 E
bx F
b0 G
0H
0I
b0 J
bx K
b0 L
0M
b0 N
bx O
$end
#2500
0!
0)
#5000
1!
1)
b1 F
b1 (
1B
0&
0-
#7500
0!
0)
#10000
1!
1)
1"
1*
#12500
0!
0)
#15000
1!
1)
b1 G
1=
b1 ;
b10 9
b1 <
b1 L
b1 N
b1 J
b10 E
1$
1+
#17500
0!
0)
#20000
1!
1)
b10 F
b10 <
b10 L
b10 N
b10 J
b11 E
b10 (
#22500
0!
0)
#25000
1!
1)
b11 F
b11 <
b11 L
b11 N
b11 J
b100 E
b11 (
#27500
0!
0)
#30000
1!
1)
b100 F
b100 <
b100 L
b100 N
b100 J
b101 E
b100 (
#32500
0!
0)
#35000
1!
1)
b101 F
b101 <
b101 L
b101 N
b101 J
b110 E
b101 (
#37500
0!
0)
#40000
1!
1)
b110 F
b110 <
b110 L
b110 N
b110 J
b111 E
b110 (
#42500
0!
0)
#45000
1!
1)
b111 F
b111 <
b111 L
b111 N
b111 J
b1000 E
b111 (
#47500
0!
0)
#50000
1!
1)
b1000 F
b1000 <
b1000 L
b1000 N
b1000 J
b1001 E
b1000 (
#52500
0!
0)
#55000
1!
1)
b1001 F
b1001 <
b1001 L
b1001 N
b1001 J
b1010 E
b1001 (
#57500
0!
0)
#60000
1!
1)
b1010 F
b1010 <
b1010 L
b1010 N
b1010 J
b1011 E
b1010 (
#62500
0!
0)
#65000
1!
1)
b1011 F
b1011 <
b1011 L
b1011 N
b1011 J
b1100 E
b1011 (
#67500
0!
0)
#70000
1!
1)
b1100 F
b1100 <
b1100 L
b1100 N
b1100 J
b1101 E
b1100 (
#72500
0!
0)
#75000
1!
1)
b1101 F
b1101 <
b1101 L
b1101 N
b1101 J
b1110 E
b1101 (
#77500
0!
0)
#80000
1!
1)
b1110 F
b1110 <
b1110 L
b1110 N
b1110 J
b1111 E
b1110 (
#82500
0!
0)
#85000
1!
1)
b1111 F
b1111 <
b1111 L
b1111 N
b1111 J
b10000 E
b1111 (
#87500
0!
0)
#90000
1!
1)
b10000 F
b10000 <
b10000 L
b10000 N
b10000 J
b10001 E
b10000 (
#92500
0!
0)
#95000
1!
1)
b10001 F
b10001 <
b10001 L
b10001 N
b10001 J
b10010 E
b10001 (
#97500
0!
0)
#100000
1!
1)
b10010 F
b10010 <
b10010 L
b10010 N
b10010 J
b10011 E
b10010 (
#102500
0!
0)
#105000
1!
1)
b10011 F
b10011 <
b10011 L
b10011 N
b10011 J
b10100 E
b10011 (
#107500
0!
0)
#110000
1!
1)
b10100 F
b10100 <
b10100 L
b10100 N
b10100 J
b10101 E
b10100 (
#112500
0!
0)
#115000
1!
1)
b10101 F
b10101 <
b10101 L
b10101 N
b10101 J
b10110 E
b10101 (
#117500
0!
0)
#120000
1!
1)
b10110 F
b10110 <
b10110 L
b10110 N
b10110 J
b10111 E
b10110 (
#122500
0!
0)
#125000
1!
1)
b10111 F
b10111 <
b10111 L
b10111 N
b10111 J
b11000 E
b10111 (
#127500
0!
0)
#130000
1!
1)
b11000 F
b11000 <
b11000 L
b11000 N
b11000 J
b11001 E
b11000 (
#132500
0!
0)
#135000
1!
1)
b11001 F
b11001 <
b11001 L
b11001 N
b11001 J
b11010 E
b11001 (
#137500
0!
0)
#140000
1!
1)
b11010 F
b11010 <
b11010 L
b11010 N
b11010 J
b11011 E
b11010 (
#142500
0!
0)
#145000
1!
1)
b11011 F
b11011 <
b11011 L
b11011 N
b11011 J
b11100 E
b11011 (
#147500
0!
0)
#150000
1!
1)
b11100 F
b11100 <
b11100 L
b11100 N
b11100 J
b11101 E
b11100 (
#152500
0!
0)
#155000
1!
1)
b11101 F
b11101 <
b11101 L
b11101 N
b11101 J
b11110 E
b11101 (
#157500
0!
0)
#160000
1!
1)
b11110 F
b11110 <
b11110 L
b11110 N
b11110 J
b11111 E
b11110 (
#162500
0!
0)
#165000
1!
1)
b11111 F
b11111 <
b11111 L
b11111 N
b11111 J
b100000 E
b11111 (
#167500
0!
0)
#170000
1!
1)
b100000 F
b100000 <
b100000 L
b100000 N
b100000 J
b100001 E
b100000 (
#172500
0!
0)
#175000
1!
1)
b100001 F
b100001 <
b100001 L
b100001 N
b100001 J
b100010 E
b100001 (
#177500
0!
0)
#180000
1!
1)
b100010 F
b100010 <
b100010 L
b100010 N
b100010 J
b100011 E
b100010 (
#182500
0!
0)
#185000
1!
1)
b100011 F
b100011 <
b100011 L
b100011 N
b100011 J
b100100 E
b100011 (
#187500
0!
0)
#190000
1!
1)
b100100 F
b100100 <
b100100 L
b100100 N
b100100 J
b100101 E
b100100 (
#192500
0!
0)
#195000
1!
1)
b100101 F
b100101 <
b100101 L
b100101 N
b100101 J
b100110 E
b100101 (
#197500
0!
0)
#200000
1!
1)
b100110 F
b100110 <
b100110 L
b100110 N
b100110 J
b100111 E
b100110 (
#202500
0!
0)
#205000
1!
1)
b100111 F
b100111 <
b100111 L
b100111 N
b100111 J
b101000 E
b100111 (
#207500
0!
0)
#210000
1!
1)
b101000 F
b101000 <
b101000 L
b101000 N
b101000 J
b101001 E
b101000 (
#212500
0!
0)
#215000
1!
1)
b101001 F
b101001 <
b101001 L
b101001 N
b101001 J
b101010 E
b101001 (
#217500
0!
0)
#220000
1!
1)
b101010 F
b101010 <
b101010 L
b101010 N
b101010 J
b101011 E
b101010 (
#222500
0!
0)
#225000
1!
1)
b101011 F
b101011 <
b101011 L
b101011 N
b101011 J
b101100 E
b101011 (
#227500
0!
0)
#230000
1!
1)
b101100 F
b101100 <
b101100 L
b101100 N
b101100 J
b101101 E
b101100 (
#232500
0!
0)
#235000
1!
1)
b101101 F
b101101 <
b101101 L
b101101 N
b101101 J
b101110 E
b101101 (
#237500
0!
0)
#240000
1!
1)
b101110 F
b101110 <
b101110 L
b101110 N
b101110 J
b101111 E
b101110 (
#242500
0!
0)
#245000
1!
1)
b101111 F
b101111 <
b101111 L
b101111 N
b101111 J
b110000 E
b101111 (
#247500
0!
0)
#250000
1!
1)
b110000 F
b110000 <
b110000 L
b110000 N
b110000 J
b110001 E
b110000 (
#252500
0!
0)
#255000
1!
1)
b110001 F
b110001 <
b110001 L
b110001 N
b110001 J
b110010 E
b110001 (
#257500
0!
0)
#260000
1!
1)
b110010 F
b110010 <
b110010 L
b110010 N
b110010 J
b110011 E
b110010 (
#262500
0!
0)
#265000
1!
1)
b110011 F
b110011 <
b110011 L
b110011 N
b110011 J
b110100 E
b110011 (
#267500
0!
0)
#270000
1!
1)
b110100 F
b110100 <
b110100 L
b110100 N
b110100 J
b110101 E
b110100 (
#272500
0!
0)
#275000
1!
1)
b110101 F
b110101 <
b110101 L
b110101 N
b110101 J
b110110 E
b110101 (
#277500
0!
0)
#280000
1!
1)
b110110 F
b110110 <
b110110 L
b110110 N
b110110 J
b110111 E
b110110 (
#282500
0!
0)
#285000
1!
1)
b110111 F
b110111 <
b110111 L
b110111 N
b110111 J
b111000 E
b110111 (
#287500
0!
0)
#290000
1!
1)
b111000 F
b111000 <
b111000 L
b111000 N
b111000 J
b111001 E
b111000 (
#292500
0!
0)
#295000
1!
1)
b111001 F
b111001 <
b111001 L
b111001 N
b111001 J
b111010 E
b111001 (
#297500
0!
0)
#300000
1!
1)
b111010 F
b111010 <
b111010 L
b111010 N
b111010 J
b111011 E
b111010 (
#302500
0!
0)
#305000
1!
1)
b111011 F
b111011 <
b111011 L
b111011 N
b111011 J
b111100 E
b111011 (
#307500
0!
0)
#310000
1!
1)
b111100 F
b111100 <
b111100 L
b111100 N
b111100 J
b111101 E
b111100 (
#312500
0!
0)
#315000
1!
1)
b111101 F
b111101 <
b111101 L
b111101 N
b111101 J
b111110 E
b111101 (
#317500
0!
0)
#320000
1!
1)
b111110 F
b111110 <
b111110 L
b111110 N
b111110 J
b111111 E
b111110 (
#322500
0!
0)
#325000
1!
1)
b111111 F
b111111 <
b111111 L
b111111 N
b111111 J
b1000000 E
b111111 (
#327500
0!
0)
#330000
1!
1)
b1000000 F
b1000000 <
b0 L
b0 N
b11000000 J
b11000001 E
b1000000 (
0B
b10 8
1I
1M
#332500
0!
0)
#335000
1!
1)
b10 G
0=
b10 ;
b0 9
0C
b1111000001 F
b0 O
1H
b11 8
b0 <
b1 L
b1 N
b0 J
b1 E
b11111000001 (
1B
07
b0 K
14
0#
13
0>
0H
b11000001 D
#337500
0!
0)
#340000
1!
1)
b11 G
b1 ;
1C
b0 F
b1 O
b100 8
b0 L
b0 N
b0 D
b0 (
17
b1 K
04
1#
03
1>
b1 D
b1 %
b1 ,
b10 :
#342500
0!
0)
#345000
1!
1)
b100 G
b0 ;
b1 F
b0 O
b101 8
b10 D
b1 (
b0 K
b1 D
#347500
0!
0)
#350000
1!
1)
b101 G
1A
b10 8
0@
10
11
1'
#352500
0!
0)
#355000
1!
1)
1.
b10 G
b10 ;
0C
1H
b11 8
b10 L
b10 N
07
00
14
0#
13
0>
0H
01
0'
#357500
0!
0)
#360000
1!
1)
b11 G
b1 ;
1C
b10 O
b100 8
b1 L
b1 N
17
b10 K
04
1#
03
1>
b11 D
b10 %
b10 ,
b11 :
#362500
0!
0)
#365000
1!
1)
b100 G
b0 ;
b10 F
b1 O
b101 8
b0 L
b0 N
b100 D
b10 (
b1 K
b11 D
#367500
0!
0)
#370000
1!
1)
b101 G
0A
b11 F
b0 O
b10 8
b100 D
b11 (
1@
10
b0 K
b11 D
11
1'
#372500
0!
0)
#375000
1!
1)
0.
b10 G
b10 ;
0C
1H
b11 8
b11 L
b11 N
07
00
14
0#
13
0>
0H
01
0'
#377500
0!
0)
#380000
1!
1)
b11 G
b1 ;
1C
b10 F
b11 O
b100 8
b10 L
b10 N
b10 D
b10 (
17
b11 K
04
1#
03
1>
b101 D
b11 %
b11 ,
b100 :
#382500
0!
0)
#385000
1!
1)
b100 G
b0 ;
b11 F
b10 O
b101 8
b0 L
b0 N
b110 D
b11 (
b10 K
b101 D
#387500
0!
0)
#390000
1!
1)
b101 G
1A
b101 F
b0 O
b10 8
b111 D
b101 (
0@
10
b0 K
b101 D
11
1'
#392500
0!
0)
#395000
1!
1)
1.
b10 G
b10 ;
0C
1H
b11 8
b100 L
b100 N
07
00
14
0#
13
0>
0H
01
0'
#397500
0!
0)
#400000
1!
1)
b11 G
b1 ;
1C
b11 F
b100 O
b100 8
b11 L
b11 N
b11 D
b11 (
17
b100 K
04
1#
03
1>
b111 D
b100 %
b100 ,
b101 :
#402500
0!
0)
#405000
1!
1)
b100 G
b0 ;
b100 F
b11 O
b101 8
b0 L
b0 N
b1000 D
b100 (
b11 K
b111 D
#407500
0!
0)
#410000
1!
1)
b101 G
0A
b111 F
b0 O
b10 8
b1010 D
b111 (
1@
10
b0 K
b111 D
11
1'
#412500
0!
0)
#415000
1!
1)
0.
b10 G
b10 ;
0C
1H
b11 8
b101 L
b101 N
07
00
14
0#
13
0>
0H
01
0'
#417500
0!
0)
#420000
1!
1)
b11 G
b1 ;
1C
b100 F
b101 O
b100 8
b100 L
b100 N
b100 D
b100 (
17
b101 K
04
1#
03
1>
b1001 D
b101 %
b101 ,
b110 :
#422500
0!
0)
#425000
1!
1)
b100 G
b0 ;
b101 F
b100 O
b101 8
b0 L
b0 N
b1010 D
b101 (
b100 K
b1001 D
#427500
0!
0)
#430000
1!
1)
b101 G
1A
b1001 F
b0 O
b10 8
b1101 D
b1001 (
0@
10
b0 K
b1001 D
11
1'
#432500
0!
0)
#435000
1!
1)
1.
b10 G
b10 ;
0C
1H
b11 8
b110 L
b110 N
07
00
14
0#
13
0>
0H
01
0'
#437500
0!
0)
#440000
1!
1)
b11 G
b1 ;
1C
b101 F
b110 O
b100 8
b101 L
b101 N
b101 D
b101 (
17
b110 K
04
1#
03
1>
b1011 D
b110 %
b110 ,
b111 :
#442500
0!
0)
#445000
1!
1)
b100 G
b0 ;
b110 F
b101 O
b101 8
b0 L
b0 N
b1100 D
b110 (
b101 K
b1011 D
#447500
0!
0)
#450000
1!
1)
b101 G
0A
b1011 F
b0 O
b10 8
b10000 D
b1011 (
1@
10
b0 K
b1011 D
11
1'
#452500
0!
0)
#455000
1!
1)
0.
b10 G
b10 ;
0C
1H
b11 8
b111 L
b111 N
07
00
14
0#
13
0>
0H
01
0'
#457500
0!
0)
#460000
1!
1)
b11 G
b1 ;
1C
b110 F
b111 O
b100 8
b110 L
b110 N
b110 D
b110 (
17
b111 K
04
1#
03
1>
b1101 D
b111 %
b111 ,
b1000 :
#462500
0!
0)
#465000
1!
1)
b100 G
b0 ;
b111 F
b110 O
b101 8
b0 L
b0 N
b1110 D
b111 (
b110 K
b1101 D
#467500
0!
0)
#470000
1!
1)
b101 G
1A
b1101 F
b0 O
b10 8
b10011 D
b1101 (
0@
10
b0 K
b1101 D
11
1'
#472500
0!
0)
#475000
1!
1)
1.
b10 G
b10 ;
0C
1H
b11 8
b1000 L
b1000 N
07
00
14
0#
13
0>
0H
01
0'
#477500
0!
0)
#480000
1!
1)
b11 G
b1 ;
1C
b111 F
b1000 O
b100 8
b111 L
b111 N
b111 D
b111 (
17
b1000 K
04
1#
03
1>
b1111 D
b1000 %
b1000 ,
b1001 :
#482500
0!
0)
#485000
1!
1)
b100 G
b0 ;
b1000 F
b111 O
b101 8
b0 L
b0 N
b10000 D
b1000 (
b111 K
b1111 D
#487500
0!
0)
#490000
1!
1)
b101 G
0A
b1111 F
b0 O
b10 8
b10110 D
b1111 (
1@
10
b0 K
b1111 D
11
1'
#492500
0!
0)
#495000
1!
1)
0.
b10 G
b10 ;
0C
1H
b11 8
b1001 L
b1001 N
07
00
14
0#
13
0>
0H
01
0'
#497500
0!
0)
#500000
1!
1)
b11 G
b1 ;
1C
b1000 F
b1001 O
b100 8
b1000 L
b1000 N
b1000 D
b1000 (
17
b1001 K
04
1#
03
1>
b10001 D
b1001 %
b1001 ,
b1010 :
#502500
0!
0)
#505000
1!
1)
b100 G
b0 ;
b1001 F
b1000 O
b101 8
b0 L
b0 N
b10010 D
b1001 (
b1000 K
b10001 D
#507500
0!
0)
#510000
1!
1)
b101 G
1A
b10001 F
b0 O
b10 8
b11001 D
b10001 (
0@
10
b0 K
b10001 D
11
1'
#512500
0!
0)
#515000
1!
1)
1.
b10 G
b10 ;
0C
1H
b11 8
b1010 L
b1010 N
07
00
14
0#
13
0>
0H
01
0'
#517500
0!
0)
#520000
1!
1)
b11 G
b1 ;
1C
b1001 F
b1010 O
b100 8
b1001 L
b1001 N
b1001 D
b1001 (
17
b1010 K
04
1#
03
1>
b10011 D
b1010 %
b1010 ,
b1011 :
#522500
0!
0)
#525000
1!
1)
b100 G
b0 ;
b1010 F
b1001 O
b101 8
b0 L
b0 N
b10100 D
b1010 (
b1001 K
b10011 D
#527500
0!
0)
#530000
1!
1)
b101 G
0A
b10011 F
b0 O
b10 8
b11100 D
b10011 (
1@
10
b0 K
b10011 D
11
1'
#532500
0!
0)
#535000
1!
1)
0.
b10 G
b10 ;
0C
1H
b11 8
b1011 L
b1011 N
07
00
14
0#
13
0>
0H
01
0'
#537500
0!
0)
#540000
1!
1)
b11 G
b1 ;
1C
b1010 F
b1011 O
b100 8
b1010 L
b1010 N
b1010 D
b1010 (
17
b1011 K
04
1#
03
1>
b10101 D
0$
0+
#542500
0!
0)
#545000
1!
1)
b100 G
b0 ;
b1011 F
b1010 O
b101 8
b0 L
b0 N
b10110 D
b1011 (
b1010 K
b10101 D
#547500
0!
0)
#550000
1!
1)
b101 G
1A
b10101 F
b0 O
b10 8
b11111 D
b10101 (
0@
10
b0 K
b10101 D
11
1'
#552500
0!
0)
#555000
1!
1)
1.
b10 G
b10 ;
0C
1H
b11 8
b1011 L
02
b1011 N
07
00
14
0#
01
0'
1&
1-
