tutorial/stratus_examples/lab_array/bdw_work/sims/FLAT_V/verilog.vcd
$date
    Nov 17, 2020  14:07:36
$end
$version
    TOOL:	ncsim(64)	15.20-s016
$end
$timescale
    1 ps
$end

$scope module top $end

$scope module dut0 $end
$var reg       1 !    clk  $end
$var reg       1 "    rst  $end
$var wire      1 #    din_busy  $end
$var reg       1 $    din_vld  $end
$var reg       8 %    din_data [7:0] $end
$var reg       1 &    dout_busy  $end
$var wire      1 '    dout_vld  $end
$var wire     11 (    dout_data [10:0] $end

$scope module dut0 $end
$var wire      1 )    clk  $end
$var wire      1 *    rst  $end
$var wire      1 +    din_vld  $end
$var wire      8 ,    din_data [7:0] $end
$var wire      1 -    dout_busy  $end
$var wire      1 #    din_busy  $end
$var wire      1 '    dout_vld  $end
$var wire     11 (    dout_data [10:0] $end
$var reg       1 .    dout_m_req_m_prev_trig_req  $end
$var reg       1 /    dout_m_unacked_req  $end
$var wire      1 0    dut_Xor_1Ux1U_1U_4_9_out1  $end
$var wire      1 1    dut_Or_1Ux1U_1U_4_10_out1  $end
$var reg       1 2    dut_N_Muxb_1_2_3_4_1_out1  $end
$var wire      1 3    dut_And_1Ux1U_1U_4_5_out1  $end
$var wire      1 4    dut_Not_1U_1U_4_4_out1  $end
$var reg       1 5    din_m_unvalidated_req  $end
$var wire      1 6    dut_Or_1Ux1U_1U_4_2_out1  $end
$var wire      1 7    dut_And_1Ux1U_1U_4_3_out1  $end
$var reg       7 8    global_state_next [6:0] $end
$var reg       7 9    sreg_1 [6:0] $end
$var reg       8 :    dut_N_Mux_8_64_2_4_144_out1 [7:0] $end
$var reg       8 ;    dut_N_Mux_8_64_1_4_143_out1 [7:0] $end
$var wire      1 <    dut_Equal_6Ux1U_1U_4_141_out1  $end
$var wire      1 =    dut_Equal_6Ux2U_1U_4_138_out1  $end
$var wire      1 >    dut_Equal_6Ux2U_1U_4_136_out1  $end
$var wire      1 ?    dut_Equal_6Ux3U_1U_4_134_out1  $end
$var wire      1 @    dut_Equal_6Ux3U_1U_4_132_out1  $end
$var wire      1 A    dut_Equal_6Ux3U_1U_4_130_out1  $end
$var wire      1 B    dut_Equal_6Ux3U_1U_4_128_out1  $end
$var wire      1 C    dut_Equal_6Ux5U_1U_4_126_out1  $end
$var wire      1 D    dut_Equal_6Ux5U_1U_4_124_out1  $end
$var wire      1 E    dut_Equal_6Ux5U_1U_4_122_out1  $end
$var wire      1 F    dut_Equal_6Ux5U_1U_4_120_out1  $end
$var wire      1 G    dut_Equal_6Ux5U_1U_4_118_out1  $end
$var wire      1 H    dut_Equal_6Ux5U_1U_4_116_out1  $end
$var wire      1 I    dut_Equal_6Ux5U_1U_4_114_out1  $end
$var wire      1 J    dut_Equal_6Ux5U_1U_4_112_out1  $end
$var wire      1 K    dut_Equal_6Ux5U_1U_4_110_out1  $end
$var wire      1 L    dut_Equal_6Ux5U_1U_4_108_out1  $end
$var wire      1 M    dut_Equal_6Ux5U_1U_4_106_out1  $end
$var wire      1 N    dut_Equal_6Ux5U_1U_4_104_out1  $end
$var wire      1 O    dut_Equal_6Ux5U_1U_4_102_out1  $end
$var wire      1 P    dut_Equal_6Ux5U_1U_4_100_out1  $end
$var wire      1 Q    dut_Equal_6Ux5U_1U_4_98_out1  $end
$var wire      1 R    dut_Equal_6Ux5U_1U_4_96_out1  $end
$var wire      1 S    dut_Equal_6Ux5U_1U_4_94_out1  $end
$var wire      1 T    dut_Equal_6Ux5U_1U_4_92_out1  $end
$var wire      1 U    dut_Equal_6Ux5U_1U_4_90_out1  $end
$var wire      1 V    dut_Equal_6Ux5U_1U_4_88_out1  $end
$var wire      1 W    dut_Equal_6Ux5U_1U_4_86_out1  $end
$var wire      1 X    dut_Equal_6Ux5U_1U_4_84_out1  $end
$var wire      1 Y    dut_Equal_6Ux5U_1U_4_82_out1  $end
$var wire      1 Z    dut_Equal_6Ux5U_1U_4_80_out1  $end
$var wire      1 [    dut_Equal_6Ux6U_1U_4_78_out1  $end
$var wire      1 \    dut_Equal_6Ux6U_1U_4_76_out1  $end
$var wire      1 ]    dut_Equal_6Ux6U_1U_4_74_out1  $end
$var wire      1 ^    dut_Equal_6Ux6U_1U_4_72_out1  $end
$var wire      1 _    dut_Equal_6Ux6U_1U_4_70_out1  $end
$var wire      1 `    dut_Equal_6Ux6U_1U_4_68_out1  $end
$var wire      1 a    dut_Equal_6Ux6U_1U_4_66_out1  $end
$var wire      1 b    dut_Equal_6Ux6U_1U_4_64_out1  $end
$var wire      1 c    dut_Equal_6Ux6U_1U_4_62_out1  $end
$var wire      1 d    dut_Equal_6Ux6U_1U_4_60_out1  $end
$var wire      1 e    dut_Equal_6Ux6U_1U_4_58_out1  $end
$var wire      1 f    dut_Equal_6Ux6U_1U_4_56_out1  $end
$var wire      1 g    dut_Equal_6Ux6U_1U_4_54_out1  $end
$var wire      1 h    dut_Equal_6Ux6U_1U_4_52_out1  $end
$var wire      1 i    dut_Equal_6Ux6U_1U_4_50_out1  $end
$var wire      1 j    dut_Equal_6Ux6U_1U_4_48_out1  $end
$var wire      1 k    dut_Equal_6Ux6U_1U_4_46_out1  $end
$var wire      1 l    dut_Equal_6Ux6U_1U_4_44_out1  $end
$var wire      1 m    dut_Equal_6Ux6U_1U_4_42_out1  $end
$var wire      1 n    dut_Equal_6Ux6U_1U_4_40_out1  $end
$var wire      1 o    dut_Equal_6Ux6U_1U_4_38_out1  $end
$var wire      1 p    dut_Equal_6Ux6U_1U_4_36_out1  $end
$var wire      1 q    dut_Equal_6Ux6U_1U_4_34_out1  $end
$var wire      1 r    dut_Equal_6Ux6U_1U_4_32_out1  $end
$var wire      1 s    dut_Equal_6Ux6U_1U_4_30_out1  $end
$var wire      1 t    dut_Equal_6Ux6U_1U_4_28_out1  $end
$var wire      1 u    dut_Equal_6Ux6U_1U_4_26_out1  $end
$var wire      1 v    dut_Equal_6Ux6U_1U_4_24_out1  $end
$var wire      1 w    dut_Equal_6Ux6U_1U_4_22_out1  $end
$var wire      1 x    dut_Equal_6Ux6U_1U_4_20_out1  $end
$var wire      8 y    s_reg_257 [7:0] $end
$var wire      6 z    s_reg_256 [5:0] $end
$var wire      1 {    dut_Equal_6Ux6U_1U_4_18_out1  $end
$var reg       7 |    dut_Add_7Sx2S_8S_4_15_in2 [6:0] $end
$var wire      1 }    dut_OrReduction_6U_1U_4_14_out1  $end
$var wire      1 ~    dut_Equal_6Ux6U_1U_4_13_out1  $end
$var reg       6 !!   dut_Equal_6Ux6U_1U_4_13_in2 [5:0] $end
$var reg       1 "!   gs_ctrl0  $end
$var reg       8 #!   dut_N_Mux_8_2_0_4_17_out1 [7:0] $end
$var reg       8 $!   s_reg_255 [7:0] $end
$var reg       8 %!   dut_N_Mux_8_2_0_4_142_out1 [7:0] $end
$var reg       8 &!   s_reg_254 [7:0] $end
$var reg       8 '!   dut_N_Mux_8_2_0_4_139_out1 [7:0] $end
$var reg       8 (!   s_reg_253 [7:0] $end
$var reg       8 )!   dut_N_Mux_8_2_0_4_137_out1 [7:0] $end
$var reg       8 *!   s_reg_252 [7:0] $end
$var reg       8 +!   dut_N_Mux_8_2_0_4_135_out1 [7:0] $end
$var reg       8 ,!   s_reg_251 [7:0] $end
$var reg       8 -!   dut_N_Mux_8_2_0_4_133_out1 [7:0] $end
$var reg       8 .!   s_reg_250 [7:0] $end
$var reg       8 /!   dut_N_Mux_8_2_0_4_131_out1 [7:0] $end
$var reg       8 0!   s_reg_249 [7:0] $end
$var reg       8 1!   dut_N_Mux_8_2_0_4_129_out1 [7:0] $end
$var reg       8 2!   s_reg_248 [7:0] $end
$var reg       8 3!   dut_N_Mux_8_2_0_4_127_out1 [7:0] $end
$var reg       8 4!   s_reg_247 [7:0] $end
$var reg       8 5!   dut_N_Mux_8_2_0_4_125_out1 [7:0] $end
$var reg       8 6!   s_reg_246 [7:0] $end
$var reg       8 7!   dut_N_Mux_8_2_0_4_123_out1 [7:0] $end
$var reg       8 8!   s_reg_245 [7:0] $end
$var reg       8 9!   dut_N_Mux_8_2_0_4_121_out1 [7:0] $end
$var reg       8 :!   s_reg_244 [7:0] $end
$var reg       8 ;!   dut_N_Mux_8_2_0_4_119_out1 [7:0] $end
$var reg       8 <!   s_reg_243 [7:0] $end
$var reg       8 =!   dut_N_Mux_8_2_0_4_117_out1 [7:0] $end
$var reg       8 >!   s_reg_242 [7:0] $end
$var reg       8 ?!   dut_N_Mux_8_2_0_4_115_out1 [7:0] $end
$var reg       8 @!   s_reg_241 [7:0] $end
$var reg       8 A!   dut_N_Mux_8_2_0_4_113_out1 [7:0] $end
$var reg       8 B!   s_reg_240 [7:0] $end
$var reg       8 C!   dut_N_Mux_8_2_0_4_111_out1 [7:0] $end
$var reg       8 D!   s_reg_239 [7:0] $end
$var reg       8 E!   dut_N_Mux_8_2_0_4_109_out1 [7:0] $end
$var reg       8 F!   s_reg_238 [7:0] $end
$var reg       8 G!   dut_N_Mux_8_2_0_4_107_out1 [7:0] $end
$var reg       8 H!   s_reg_237 [7:0] $end
$var reg       8 I!   dut_N_Mux_8_2_0_4_105_out1 [7:0] $end
$var reg       8 J!   s_reg_236 [7:0] $end
$var reg       8 K!   dut_N_Mux_8_2_0_4_103_out1 [7:0] $end
$var reg       8 L!   s_reg_235 [7:0] $end
$var reg       8 M!   dut_N_Mux_8_2_0_4_101_out1 [7:0] $end
$var reg       8 N!   s_reg_234 [7:0] $end
$var reg       8 O!   dut_N_Mux_8_2_0_4_99_out1 [7:0] $end
$var reg       8 P!   s_reg_233 [7:0] $end
$var reg       8 Q!   dut_N_Mux_8_2_0_4_97_out1 [7:0] $end
$var reg       8 R!   s_reg_232 [7:0] $end
$var reg       8 S!   dut_N_Mux_8_2_0_4_95_out1 [7:0] $end
$var reg       8 T!   s_reg_231 [7:0] $end
$var reg       8 U!   dut_N_Mux_8_2_0_4_93_out1 [7:0] $end
$var reg       8 V!   s_reg_230 [7:0] $end
$var reg       8 W!   dut_N_Mux_8_2_0_4_91_out1 [7:0] $end
$var reg       8 X!   s_reg_229 [7:0] $end
$var reg       8 Y!   dut_N_Mux_8_2_0_4_89_out1 [7:0] $end
$var reg       8 Z!   s_reg_228 [7:0] $end
$var reg       8 [!   dut_N_Mux_8_2_0_4_87_out1 [7:0] $end
$var reg       8 \!   s_reg_227 [7:0] $end
$var reg       8 ]!   dut_N_Mux_8_2_0_4_85_out1 [7:0] $end
$var reg       8 ^!   s_reg_226 [7:0] $end
$var reg       8 _!   dut_N_Mux_8_2_0_4_83_out1 [7:0] $end
$var reg       8 `!   s_reg_225 [7:0] $end
$var reg       8 a!   dut_N_Mux_8_2_0_4_81_out1 [7:0] $end
$var reg       8 b!   s_reg_224 [7:0] $end
$var reg       8 c!   dut_N_Mux_8_2_0_4_79_out1 [7:0] $end
$var reg       8 d!   s_reg_223 [7:0] $end
$var reg       8 e!   dut_N_Mux_8_2_0_4_77_out1 [7:0] $end
$var reg       8 f!   s_reg_222 [7:0] $end
$var reg       8 g!   dut_N_Mux_8_2_0_4_75_out1 [7:0] $end
$var reg       8 h!   s_reg_221 [7:0] $end
$var reg       8 i!   dut_N_Mux_8_2_0_4_73_out1 [7:0] $end
$var reg       8 j!   s_reg_220 [7:0] $end
$var reg       8 k!   dut_N_Mux_8_2_0_4_71_out1 [7:0] $end
$var reg       8 l!   s_reg_219 [7:0] $end
$var reg       8 m!   dut_N_Mux_8_2_0_4_69_out1 [7:0] $end
$var reg       8 n!   s_reg_218 [7:0] $end
$var reg       8 o!   dut_N_Mux_8_2_0_4_67_out1 [7:0] $end
$var reg       8 p!   s_reg_217 [7:0] $end
$var reg       8 q!   dut_N_Mux_8_2_0_4_65_out1 [7:0] $end
$var reg       8 r!   s_reg_216 [7:0] $end
$var reg       8 s!   dut_N_Mux_8_2_0_4_63_out1 [7:0] $end
$var reg       8 t!   s_reg_215 [7:0] $end
$var reg       8 u!   dut_N_Mux_8_2_0_4_61_out1 [7:0] $end
$var reg       8 v!   s_reg_214 [7:0] $end
$var reg       8 w!   dut_N_Mux_8_2_0_4_59_out1 [7:0] $end
$var reg       8 x!   s_reg_213 [7:0] $end
$var reg       8 y!   dut_N_Mux_8_2_0_4_57_out1 [7:0] $end
$var reg       8 z!   s_reg_212 [7:0] $end
$var reg       8 {!   dut_N_Mux_8_2_0_4_55_out1 [7:0] $end
$var reg       8 |!   s_reg_211 [7:0] $end
$var reg       8 }!   dut_N_Mux_8_2_0_4_53_out1 [7:0] $end
$var reg       8 ~!   s_reg_210 [7:0] $end
$var reg       8 !"   dut_N_Mux_8_2_0_4_51_out1 [7:0] $end
$var reg       8 ""   s_reg_209 [7:0] $end
$var reg       8 #"   dut_N_Mux_8_2_0_4_49_out1 [7:0] $end
$var reg       8 $"   s_reg_208 [7:0] $end
$var reg       8 %"   dut_N_Mux_8_2_0_4_47_out1 [7:0] $end
$var reg       8 &"   s_reg_207 [7:0] $end
$var reg       8 '"   dut_N_Mux_8_2_0_4_45_out1 [7:0] $end
$var reg       8 ("   s_reg_206 [7:0] $end
$var reg       8 )"   dut_N_Mux_8_2_0_4_43_out1 [7:0] $end
$var reg       8 *"   s_reg_205 [7:0] $end
$var reg       8 +"   dut_N_Mux_8_2_0_4_41_out1 [7:0] $end
$var reg       8 ,"   s_reg_204 [7:0] $end
$var reg       8 -"   dut_N_Mux_8_2_0_4_39_out1 [7:0] $end
$var reg       8 ."   s_reg_203 [7:0] $end
$var reg       8 /"   dut_N_Mux_8_2_0_4_37_out1 [7:0] $end
$var reg       8 0"   s_reg_202 [7:0] $end
$var reg       8 1"   dut_N_Mux_8_2_0_4_35_out1 [7:0] $end
$var reg       8 2"   s_reg_201 [7:0] $end
$var reg       8 3"   dut_N_Mux_8_2_0_4_33_out1 [7:0] $end
$var reg       8 4"   s_reg_200 [7:0] $end
$var reg       8 5"   dut_N_Mux_8_2_0_4_31_out1 [7:0] $end
$var reg       8 6"   s_reg_199 [7:0] $end
$var reg       8 7"   dut_N_Mux_8_2_0_4_29_out1 [7:0] $end
$var reg       8 8"   s_reg_198 [7:0] $end
$var reg       8 9"   dut_N_Mux_8_2_0_4_27_out1 [7:0] $end
$var reg       8 :"   s_reg_197 [7:0] $end
$var reg       8 ;"   dut_N_Mux_8_2_0_4_25_out1 [7:0] $end
$var reg       8 <"   s_reg_196 [7:0] $end
$var reg       8 ="   dut_N_Mux_8_2_0_4_23_out1 [7:0] $end
$var reg       8 >"   s_reg_195 [7:0] $end
$var reg       8 ?"   dut_N_Mux_8_2_0_4_21_out1 [7:0] $end
$var reg       8 @"   s_reg_194 [7:0] $end
$var reg       8 A"   dut_N_Mux_8_2_0_4_19_out1 [7:0] $end
$var reg       8 B"   s_reg_193 [7:0] $end
$var reg       8 C"   dut_N_Mux_8_2_0_4_16_out1 [7:0] $end
$var reg       8 D"   s_reg_192 [7:0] $end
$var wire      1 E"   dut_Not_1U_1U_4_6_out1  $end
$var wire      1 F"   dut_And_1Ux1U_1U_4_11_out1  $end
$var wire      1 G"   dut_Not_1U_1U_4_12_out1  $end
$var reg       1 H"   dout_m_req_m_trig_req  $end
$var wire      1 I"   dut_LessThan_8Sx8S_1U_4_140_out1  $end
$var reg       1 J"   din_m_busy_req_0  $end
$var wire      9 K"   dut_Add_8Ux8U_9U_4_145_out1 [8:0] $end
$var wire      8 L"   dut_Add_7Sx2S_8S_4_15_out1 [7:0] $end
$var reg      10 M"   dout_data_slice [9:0] $end
$var reg       7 N"   global_state [6:0] $end
$var reg       1 O"   stall0  $end
$upscope $end

$upscope $end

$upscope $end

$enddefinitions $end
$dumpvars
1!
0"
1#
0$
b0 %
1&
0'
bx (
1)
0*
0+
b0 ,
1-
0.
0/
00
01
12
03
04
15
16
17
b1 8
bx 9
b0 :
b0 ;
x<
x=
x>
x?
x@
xA
xB
xC
xD
xE
xF
xG
xH
xI
xJ
xK
xL
xM
xN
xO
xP
xQ
xR
xS
xT
xU
xV
xW
xX
xY
xZ
x[
x\
x]
x^
x_
x`
xa
xb
xc
xd
xe
xf
xg
xh
xi
xj
xk
xl
xm
xn
xo
xp
xq
xr
xs
xt
xu
xv
xw
xx
bx y
bx z
x{
b0 |
0}
0~
b0 !!
0"!
b0 #!
b0 $!
b0 %!
b0 &!
b0 '!
b0 (!
b0 )!
b0 *!
b0 +!
b0 ,!
b0 -!
b0 .!
b0 /!
b0 0!
b0 1!
b0 2!
b0 3!
b0 4!
b0 5!
b0 6!
b0 7!
b0 8!
b0 9!
b0 :!
b0 ;!
b0 <!
b0 =!
b0 >!
b0 ?!
b0 @!
b0 A!
b0 B!
b0 C!
b0 D!
b0 E!
b0 F!
b0 G!
b0 H!
b0 I!
b0 J!
b0 K!
b0 L!
b0 M!
b0 N!
b0 O!
b0 P!
b0 Q!
b0 R!
b0 S!
b0 T!
b0 U!
b0 V!
b0 W!
b0 X!
b0 Y!
b0 Z!
b0 [!
b0 \!
b0 ]!
b0 ^!
b0 _!
b0 `!
b0 a!
b0 b!
b0 c!
b0 d!
b0 e!
b0 f!
b0 g!
b0 h!
b0 i!
b0 j!
b0 k!
b0 l!
b0 m!
b0 n!
b0 o!
b0 p!
b0 q!
b0 r!
b0 s!
b0 t!
b0 u!
b0 v!
b0 w!
b0 x!
b0 y!
b0 z!
b0 {!
b0 |!
b0 }!
b0 ~!
b0 !"
b0 ""
b0 #"
b0 $"
b0 %"
b0 &"
b0 '"
b0 ("
b0 )"
b0 *"
b0 +"
b0 ,"
b0 -"
b0 ."
b0 /"
b0 0"
b0 1"
b0 2"
b0 3"
b0 4"
b0 5"
b0 6"
b0 7"
b0 8"
b0 9"
b0 :"
b0 ;"
b0 <"
b0 ="
b0 >"
b0 ?"
b0 @"
b0 A"
b0 B"
b0 C"
b0 D"
1E"
0F"
1G"
0H"
xI"
1J"
b0 K"
b1 L"
bx M"
b0 N"
0O"
$end
#2500
0!
0)
#5000
1!
1)
b0 9
b1 M"
b1 (
1I"
b0 y
b0 z
0<
0=
0>
0?
0@
0A
0B
0C
0D
0E
0F
0G
0H
0I
0J
0K
0L
0M
0N
0O
0P
0Q
0R
0S
0T
0U
0V
0W
0X
0Y
0Z
0[
0\
0]
0^
0_
0`
0a
0b
0c
0d
0e
0f
0g
0h
0i
0j
0k
0l
0m
0n
0o
0p
0q
0r
0s
0t
0u
0v
0w
0x
0{
0&
0-
#7500
0!
0)
#10000
1!
1)
1"
1*
#12500
0!
0)
#15000
1!
1)
b1 N"
b10 8
1$
1+
#17500
0!
0)
#20000
1!
1)
b10 N"
b11 8
#22500
0!
0)
#25000
1!
1)
b11 N"
b100 8
#27500
0!
0)
#30000
1!
1)
b100 N"
b101 8
#32500
0!
0)
#35000
1!
1)
b101 N"
b110 8
#37500
0!
0)
#40000
1!
1)
b110 N"
b111 8
#42500
0!
0)
#45000
1!
1)
b111 N"
b1000 8
#47500
0!
0)
#50000
1!
1)
b1000 N"
b1001 8
#52500
0!
0)
#55000
1!
1)
b1001 N"
b1010 8
#57500
0!
0)
#60000
1!
1)
b1010 N"
b1011 8
#62500
0!
0)
#65000
1!
1)
b1011 N"
b1100 8
#67500
0!
0)
#70000
1!
1)
b1100 N"
b1101 8
#72500
0!
0)
#75000
1!
1)
b1101 N"
b1110 8
#77500
0!
0)
#80000
1!
1)
b1110 N"
b1111 8
#82500
0!
0)
#85000
1!
1)
b1111 N"
b10000 8
#87500
0!
0)
#90000
1!
1)
b10000 N"
b10001 8
#92500
0!
0)
#95000
1!
1)
b10001 N"
b10010 8
#97500
0!
0)
#100000
1!
1)
b10010 N"
b10011 8
#102500
0!
0)
#105000
1!
1)
b10011 N"
b10100 8
#107500
0!
0)
#110000
1!
1)
b10100 N"
b10101 8
#112500
0!
0)
#115000
1!
1)
b10101 N"
b10110 8
#117500
0!
0)
#120000
1!
1)
b10110 N"
b10111 8
#122500
0!
0)
#125000
1!
1)
b10111 N"
b11000 8
#127500
0!
0)
#130000
1!
1)
b11000 N"
b11001 8
#132500
0!
0)
#135000
1!
1)
b11001 N"
b11010 8
#137500
0!
0)
#140000
1!
1)
b11010 N"
b11011 8
#142500
0!
0)
#145000
1!
1)
b11011 N"
b11100 8
#147500
0!
0)
#150000
1!
1)
b11100 N"
b11101 8
#152500
0!
0)
#155000
1!
1)
b11101 N"
b11110 8
#157500
0!
0)
#160000
1!
1)
b11110 N"
b11111 8
#162500
0!
0)
#165000
1!
1)
b11111 N"
b100000 8
#167500
0!
0)
#170000
1!
1)
b100000 N"
b100001 8
#172500
0!
0)
#175000
1!
1)
b100001 N"
b100010 8
#177500
0!
0)
#180000
1!
1)
b100010 N"
b100011 8
#182500
0!
0)
#185000
1!
1)
b100011 N"
b100100 8
#187500
0!
0)
#190000
1!
1)
b100100 N"
b100101 8
#192500
0!
0)
#195000
1!
1)
b100101 N"
b100110 8
#197500
0!
0)
#200000
1!
1)
b100110 N"
b100111 8
#202500
0!
0)
#205000
1!
1)
b100111 N"
b101000 8
#207500
0!
0)
#210000
1!
1)
b101000 N"
b101001 8
#212500
0!
0)
#215000
1!
1)
b101001 N"
b101010 8
#217500
0!
0)
#220000
1!
1)
b101010 N"
b101011 8
#222500
0!
0)
#225000
1!
1)
b101011 N"
b101100 8
#227500
0!
0)
#230000
1!
1)
b101100 N"
b101101 8
#232500
0!
0)
#235000
1!
1)
b101101 N"
b101110 8
#237500
0!
0)
#240000
1!
1)
b101110 N"
b101111 8
#242500
0!
0)
#245000
1!
1)
b101111 N"
b110000 8
#247500
0!
0)
#250000
1!
1)
b110000 N"
b110001 8
#252500
0!
0)
#255000
1!
1)
b110001 N"
b110010 8
#257500
0!
0)
#260000
1!
1)
b110010 N"
b110011 8
#262500
0!
0)
#265000
1!
1)
b110011 N"
b110100 8
#267500
0!
0)
#270000
1!
1)
b110100 N"
b110101 8
#272500
0!
0)
#275000
1!
1)
b110101 N"
b110110 8
#277500
0!
0)
#280000
1!
1)
b110110 N"
b110111 8
#282500
0!
0)
#285000
1!
1)
b110111 N"
b111000 8
#287500
0!
0)
#290000
1!
1)
b111000 N"
b111001 8
#292500
0!
0)
#295000
1!
1)
b111001 N"
b111010 8
#297500
0!
0)
#300000
1!
1)
b111010 N"
b111011 8
#302500
0!
0)
#305000
1!
1)
b111011 N"
b111100 8
#307500
0!
0)
#310000
1!
1)
b111100 N"
b111101 8
#312500
0!
0)
#315000
1!
1)
b111101 N"
b111110 8
#317500
0!
0)
#320000
1!
1)
b111110 N"
b111111 8
#322500
0!
0)
#325000
1!
1)
b111111 N"
1"!
b1 8
b1 !!
b1 |
b1 #!
b10 L"
1}
b0 #!
#327500
0!
0)
#330000
1!
1)
b1 N"
0"!
b1 9
b10 M"
b10 8
b0 !!
b0 |
b1 L"
0}
b10 (
b1 y
b1 z
1<
b1 %!
#332500
0!
0)
#335000
1!
1)
b10 N"
b11 8
#337500
0!
0)
#340000
1!
1)
b11 N"
b100 8
#342500
0!
0)
#345000
1!
1)
b100 N"
b101 8
#347500
0!
0)
#350000
1!
1)
b101 N"
b110 8
#352500
0!
0)
#355000
1!
1)
b110 N"
b111 8
#357500
0!
0)
#360000
1!
1)
b111 N"
b1000 8
#362500
0!
0)
#365000
1!
1)
b1000 N"
b1001 8
#367500
0!
0)
#370000
1!
1)
b1001 N"
b1010 8
#372500
0!
0)
#375000
1!
1)
b1010 N"
b1011 8
#377500
0!
0)
#380000
1!
1)
b1011 N"
b1100 8
#382500
0!
0)
#385000
1!
1)
b1100 N"
b1101 8
#387500
0!
0)
#390000
1!
1)
b1101 N"
b1110 8
#392500
0!
0)
#395000
1!
1)
b1110 N"
b1111 8
#397500
0!
0)
#400000
1!
1)
b1111 N"
b10000 8
#402500
0!
0)
#405000
1!
1)
b10000 N"
b10001 8
#407500
0!
0)
#410000
1!
1)
b10001 N"
b10010 8
#412500
0!
0)
#415000
1!
1)
b10010 N"
b10011 8
#417500
0!
0)
#420000
1!
1)
b10011 N"
b10100 8
#422500
0!
0)
#425000
1!
1)
b10100 N"
b10101 8
#427500
0!
0)
#430000
1!
1)
b10101 N"
b10110 8
#432500
0!
0)
#435000
1!
1)
b10110 N"
b10111 8
#437500
0!
0)
#440000
1!
1)
b10111 N"
b11000 8
#442500
0!
0)
#445000
1!
1)
b11000 N"
b11001 8
#447500
0!
0)
#450000
1!
1)
b11001 N"
b11010 8
#452500
0!
0)
#455000
1!
1)
b11010 N"
b11011 8
#457500
0!
0)
#460000
1!
1)
b11011 N"
b11100 8
#462500
0!
0)
#465000
1!
1)
b11100 N"
b11101 8
#467500
0!
0)
#470000
1!
1)
b11101 N"
b11110 8
#472500
0!
0)
#475000
1!
1)
b11110 N"
b11111 8
#477500
0!
0)
#480000
1!
1)
b11111 N"
b100000 8
#482500
0!
0)
#485000
1!
1)
b100000 N"
b100001 8
#487500
0!
0)
#490000
1!
1)
b100001 N"
b100010 8
#492500
0!
0)
#495000
1!
1)
b100010 N"
b100011 8
#497500
0!
0)
#500000
1!
1)
b100011 N"
b100100 8
#502500
0!
0)
#505000
1!
1)
b100100 N"
b100101 8
#507500
0!
0)
#510000
1!
1)
b100101 N"
b100110 8
#512500
0!
0)
#515000
1!
1)
b100110 N"
b100111 8
#517500
0!
0)
#520000
1!
1)
b100111 N"
b101000 8
#522500
0!
0)
#525000
1!
1)
b101000 N"
b101001 8
#527500
0!
0)
#530000
1!
1)
b101001 N"
b101010 8
#532500
0!
0)
#535000
1!
1)
b101010 N"
b101011 8
#537500
0!
0)
#540000
1!
1)
b101011 N"
b101100 8
#542500
0!
0)
#545000
1!
1)
b101100 N"
b101101 8
#547500
0!
0)
#550000
1!
1)
b101101 N"
b101110 8
#552500
0!
0)
#555000
1!
1)
b101110 N"
b101111 8
#557500
0!
0)
#560000
1!
1)
b101111 N"
b110000 8
#562500
0!
0)
#565000
1!
1)
b110000 N"
b110001 8
#567500
0!
0)
#570000
1!
1)
b110001 N"
b110010 8
#572500
0!
0)
#575000
1!
1)
b110010 N"
b110011 8
#577500
0!
0)
#580000
1!
1)
b110011 N"
b110100 8
#582500
0!
0)
#585000
1!
1)
b110100 N"
b110101 8
#587500
0!
0)
#590000
1!
1)
b110101 N"
b110110 8
#592500
0!
0)
#595000
1!
1)
b110110 N"
b110111 8
#597500
0!
0)
#600000
1!
1)
b110111 N"
b111000 8
#602500
0!
0)
#605000
1!
1)
b111000 N"
b111001 8
#607500
0!
0)
#610000
1!
1)
b111001 N"
b111010 8
#612500
0!
0)
#615000
1!
1)
b111010 N"
b111011 8
#617500
0!
0)
#620000
1!
1)
b111011 N"
b111100 8
#622500
0!
0)
#625000
1!
1)
b111100 N"
b111101 8
#627500
0!
0)
#630000
1!
1)
b111101 N"
b111110 8
#632500
0!
0)
#635000
1!
1)
b111110 N"
b111111 8
#637500
0!
0)
#640000
1!
1)
b111111 N"
1"!
b1 &!
b1 8
b10 !!
b10 |
b1 ;
b10 #!
b1 K"
b11 L"
1}
b0 #!
#642500
0!
0)
#645000
1!
1)
b1 N"
0"!
b10 9
b11 M"
b10 8
b0 !!
b0 |
b1 L"
0}
b11 (
b10 y
b10 z
b10 %!
0<
1=
b1 %!
b10 '!
#647500
0!
0)
#650000
1!
1)
b10 N"
b11 8
#652500
0!
0)
#655000
1!
1)
b11 N"
b100 8
#657500
0!
0)
#660000
1!
1)
b100 N"
b101 8
#662500
0!
0)
#665000
1!
1)
b101 N"
b110 8
#667500
0!
0)
#670000
1!
1)
b110 N"
b111 8
#672500
0!
0)
#675000
1!
1)
b111 N"
b1000 8
#677500
0!
0)
#680000
1!
1)
b1000 N"
b1001 8
#682500
0!
0)
#685000
1!
1)
b1001 N"
b1010 8
#687500
0!
0)
#690000
1!
1)
b1010 N"
b1011 8
#692500
0!
0)
#695000
1!
1)
b1011 N"
b1100 8
#697500
0!
0)
#700000
1!
1)
b1100 N"
b1101 8
#702500
0!
0)
#705000
1!
1)
b1101 N"
b1110 8
#707500
0!
0)
#710000
1!
1)
b1110 N"
b1111 8
#712500
0!
0)
#715000
1!
1)
b1111 N"
b10000 8
#717500
0!
0)
#720000
1!
1)
b10000 N"
b10001 8
#722500
0!
0)
#725000
1!
1)
b10001 N"
b10010 8
#727500
0!
0)
#730000
1!
1)
b10010 N"
b10011 8
#732500
0!
0)
#735000
1!
1)
b10011 N"
b10100 8
#737500
0!
0)
#740000
1!
1)
b10100 N"
b10101 8
#742500
0!
0)
#745000
1!
1)
b10101 N"
b10110 8
#747500
0!
0)
#750000
1!
1)
b10110 N"
b10111 8
#752500
0!
0)
#755000
1!
1)
b10111 N"
b11000 8
#757500
0!
0)
#760000
1!
1)
b11000 N"
b11001 8
#762500
0!
0)
#765000
1!
1)
b11001 N"
b11010 8
#767500
0!
0)
#770000
1!
1)
b11010 N"
b11011 8
#772500
0!
0)
#775000
1!
1)
b11011 N"
b11100 8
#777500
0!
0)
#780000
1!
1)
b11100 N"
b11101 8
#782500
0!
0)
#785000
1!
1)
b11101 N"
b11110 8
#787500
0!
0)
#790000
1!
1)
b11110 N"
b11111 8
#792500
0!
0)
#795000
1!
1)
b11111 N"
b100000 8
#797500
0!
0)
#800000
1!
1)
b100000 N"
b100001 8
#802500
0!
0)
#805000
1!
1)
b100001 N"
b100010 8
#807500
0!
0)
#810000
1!
1)
b100010 N"
b100011 8
#812500
0!
0)
#815000
1!
1)
b100011 N"
b100100 8
#817500
0!
0)
#820000
1!
1)
b100100 N"
b100101 8
#822500
0!
0)
#825000
1!
1)
b100101 N"
b100110 8
#827500
0!
0)
#830000
1!
1)
b100110 N"
b100111 8
#832500
0!
0)
#835000
1!
1)
b100111 N"
b101000 8
#837500
0!
0)
#840000
1!
1)
b101000 N"
b101001 8
#842500
0!
0)
#845000
1!
1)
b101001 N"
b101010 8
#847500
0!
0)
