tutorial/stratus_examples/lab_dpopt/bdw_work/sims/BASIC_V/verilog.vcd
$date
    Nov 18, 2020  11:32:46
$end
$version
    TOOL:	ncsim(64)	15.20-s016
$end
$timescale
    1 ps
$end

$scope module top $end

$scope module dut0 $end
$var reg       1 !    clk  $end
$var reg       1 "    rst  $end
$var wire      1 #    din_busy  $end
$var reg       1 $    din_vld  $end
$var reg       8 %    din_data_a [7:0] $end
$var reg       8 &    din_data_b [7:0] $end
$var reg       8 '    din_data_c [7:0] $end
$var reg       8 (    din_data_d [7:0] $end
$var reg       8 )    din_data_e [7:0] $end
$var reg       8 *    din_data_f [7:0] $end
$var reg       8 +    din_data_g [7:0] $end
$var reg       8 ,    din_data_h [7:0] $end
$var reg       1 -    dout_busy  $end
$var wire      1 .    dout_vld  $end
$var wire     32 /    dout_data [31:0] $end

$scope module dut0 $end
$var wire      1 0    clk  $end
$var wire      1 1    rst  $end
$var wire      1 2    din_vld  $end
$var wire      8 3    din_data_a [7:0] $end
$var wire      8 4    din_data_b [7:0] $end
$var wire      8 5    din_data_c [7:0] $end
$var wire      8 6    din_data_d [7:0] $end
$var wire      8 7    din_data_e [7:0] $end
$var wire      8 8    din_data_f [7:0] $end
$var wire      8 9    din_data_g [7:0] $end
$var wire      8 :    din_data_h [7:0] $end
$var wire      1 ;    dout_busy  $end
$var wire      1 #    din_busy  $end
$var wire      1 .    dout_vld  $end
$var reg      32 <    dout_data [31:0] $end
$var reg       1 =    dout_m_req_m_prev_trig_req  $end
$var reg       1 >    dout_m_unacked_req  $end
$var wire      1 ?    dut_Xor_1Ux1U_1U_4_9_out1  $end
$var wire      1 @    dut_Or_1Ux1U_1U_4_10_out1  $end
$var reg       1 A    dut_N_Muxb_1_2_0_4_1_out1  $end
$var wire      1 B    dut_And_1Ux1U_1U_4_5_out1  $end
$var wire      1 C    dut_Not_1U_1U_4_4_out1  $end
$var reg       1 D    din_m_unvalidated_req  $end
$var wire      1 E    dut_Or_1Ux1U_1U_4_2_out1  $end
$var wire      1 F    dut_And_1Ux1U_1U_4_3_out1  $end
$var reg       4 G    global_state_next [3:0] $end
$var reg      32 H    dut_Add_32Ux32U_32U_4_26_in1 [31:0] $end
$var reg       2 I    gs_ctrl2 [1:0] $end
$var reg      32 J    dut_Mul_32Ux32U_32U_4_14_in1 [31:0] $end
$var reg       3 K    gs_ctrl1 [2:0] $end
$var reg      32 L    dut_Mul_32Ux32U_32U_4_14_in2 [31:0] $end
$var reg       3 M    gs_ctrl0 [2:0] $end
$var reg      32 N    s_reg_52 [31:0] $end
$var wire      9 O    dut_Add_8Ux8U_9U_4_25_out1 [8:0] $end
$var wire      9 P    dut_Add_8Ux8U_9U_4_20_out1 [8:0] $end
$var wire     10 Q    dut_Add_9Ux8U_10U_4_19_out1 [9:0] $end
$var wire      9 R    dut_Add_8Ux8U_9U_4_15_out1 [8:0] $end
$var reg      10 S    s_reg_51 [9:0] $end
$var reg      32 T    s_reg_50 [31:0] $end
$var wire     17 U    dut_Add_16Ux16U_17U_4_23_out1 [16:0] $end
$var reg      17 V    s_reg_49 [16:0] $end
$var wire     10 W    dut_Add_9Ux8U_10U_4_17_out1 [9:0] $end
$var wire      9 X    dut_Add_8Ux8U_9U_4_13_out1 [8:0] $end
$var reg      10 Y    s_reg_48 [9:0] $end
$var reg       8 Z    s_reg_47 [7:0] $end
$var reg       8 [    s_reg_46 [7:0] $end
$var reg       8 \    s_reg_45 [7:0] $end
$var reg       8 ]    s_reg_44 [7:0] $end
$var reg       8 ^    s_reg_43 [7:0] $end
$var reg       8 _    s_reg_42 [7:0] $end
$var reg       8 `    s_reg_41 [7:0] $end
$var wire      1 a    dut_Not_1U_1U_4_6_out1  $end
$var wire      1 b    dut_And_1Ux1U_1U_4_11_out1  $end
$var wire      1 c    dut_Not_1U_1U_4_12_out1  $end
$var reg       1 d    dout_m_req_m_trig_req  $end
$var reg       1 e    din_m_busy_req_0  $end
$var wire     32 f    dut_Add_32Ux32U_32U_4_26_out1 [31:0] $end
$var wire     32 g    dut_Mul_32Ux32U_32U_4_14_out1 [31:0] $end
$var reg       4 h    global_state [3:0] $end
$var reg       1 i    stall0  $end
$upscope $end

$upscope $end

$upscope $end

$enddefinitions $end
$dumpvars
1!
0"
1#
0$
b0 %
b0 &
b0 '
b0 (
b0 )
b0 *
b0 +
b0 ,
1-
0.
bx /
10
01
02
b0 3
b0 4
b0 5
b0 6
b0 7
b0 8
b0 9
b0 :
1;
bx <
0=
0>
0?
0@
1A
0B
0C
1D
1E
1F
b1 G
b0xxxxxxxxxxxxxxxxx H
b0 I
b0xxxxxxxx J
b0 K
b0xxxxxxxx L
b0 M
bx N
bx O
bx P
bx Q
bx R
bx S
bx T
bx U
bx V
bx W
b0 X
bx Y
bx Z
bx [
bx \
bx ]
bx ^
bx _
bx `
1a
0b
1c
0d
1e
bx f
bx g
b0 h
0i
$end
#1375
0!
00
#2750
1!
10
0-
0;
#4125
0!
00
#5500
1!
10
1"
11
#6875
0!
00
#8250
1!
10
b1 h
0e
1i
b10 G
0A
0F
1C
0#
1$
12
1B
0a
1A
0i
#9625
0!
00
#11000
1!
10
b10 h
b0 Z
b0 Y
b0 ]
b0 \
b0 [
b0 `
b0 _
b0 ^
1e
b0 V
b11 G
b0 J
b0 L
b0 H
b0 g
1F
b0 R
b0 O
b0 W
b0 P
0C
1#
0B
1a
b1 %
b1 &
b1 '
b1 (
b1 )
b1 *
b1 +
b1 ,
b1 :
b1 9
b1 8
b1 7
b1 6
b1 5
b1 4
b1 3
b10 X
#12375
0!
00
#13750
1!
10
b11 h
b1 M
b1 K
b0 S
b0 <
b100 G
b0 f
b0 U
b0 Q
b0 /
#15125
0!
00
#16500
1!
10
b100 h
b10 M
b10 K
b101 G
#17875
0!
00
#19250
1!
10
b101 h
b11 M
b11 K
b0 T
b110 G
#20625
0!
00
#22000
1!
10
b110 h
b100 M
b100 K
b0 N
b111 G
#23375
0!
00
#24750
1!
10
b111 h
b101 K
b1000 G
#26125
0!
00
#27500
1!
10
b1000 h
b0 M
b0 K
b1001 G
#28875
0!
00
#30250
1!
10
b1001 h
b100 M
b100 K
b1010 G
#31625
0!
00
#33000
1!
10
b1010 h
b101 M
b1 I
b1011 G
#34375
0!
00
#35750
1!
10
b1011 h
b0 M
b0 K
b10 I
b1100 G
#37125
0!
00
#38500
1!
10
b1100 h
b101 M
b110 K
b0 I
b1101 G
#39875
0!
00
#41250
1!
10
b1101 h
b0 M
b0 K
1d
b1 G
0c
1?
1@
1.
#42625
0!
00
#44000
1!
10
1=
b1 h
0e
1i
b10 G
0F
0?
1C
0#
1B
0a
0i
0@
0.
#45375
0!
00
#46750
1!
10
b10 h
b1 Z
b10 Y
b1 ]
b1 \
b1 [
b1 `
b1 _
b1 ^
1e
b1 V
b11 G
b1 J
b1 L
b1 H
b1 f
b1 g
b1 U
1F
b10 R
b10 O
b1 Q
b11 W
b10 P
0C
1#
0B
1a
b10 %
b10 &
b10 '
b10 (
b10 )
b10 *
b10 +
b10 ,
b10 :
b10 9
b10 8
b10 7
b10 6
b10 5
b10 4
b10 3
b100 X
#48125
0!
00
#49500
1!
10
b11 h
b1 M
b1 K
b10 S
b1 <
b100 G
b10 f
b10 U
b11 Q
b1 /
#50875
0!
00
#52250
1!
10
b100 h
b10 M
b10 K
b11 Y
b101 G
b100 W
#53625
0!
00
#55000
1!
10
b101 h
b11 M
b11 K
b11 S
b1 T
b110 G
b11 L
b11 J
b1001 g
b100 Q
#56375
0!
00
#57750
1!
10
b110 h
b100 M
b100 K
b1001 N
b10 S
b111 G
b1001 L
b10 J
b10010 g
b11 Q
#59125
0!
00
#60500
1!
10
b111 h
b101 K
b10010 N
b10 V
b1000 G
b1 J
b10010 L
b10 H
b11 f
b11 U
b101 W
#61875
0!
00
#63250
1!
10
b1000 h
b0 M
b0 K
b10010 <
b1001 G
b1 L
b1 g
b10100 f
b10100 U
b10010 /
#64625
0!
00
#66000
1!
10
b1001 h
b100 M
b100 K
b10100 <
b1010 G
b10010 L
b10 J
b100100 g
b10110 f
b10110 U
b10100 /
#67375
0!
00
#68750
1!
10
b1010 h
b101 M
b1 I
b100100 N
b1011 G
b10100 L
b1 H
b10101 f
b101000 g
#70125
0!
00
#71500
1!
10
b1011 h
b0 M
b0 K
b10 I
b101000 <
b10101 T
b1100 G
b1 L
b1 J
b100100 H
b1 g
b1001100 f
b101010 U
b101000 /
#72875
0!
00
#74250
1!
10
b1100 h
b101 M
b110 K
b0 I
b1001100 <
b1101 G
b1001100 L
b10101 J
b10 H
b11000111100 g
b1001110 f
b1001110 U
b1001100 /
#75625
0!
00
#77000
1!
10
b1101 h
b0 M
b0 K
b11000111100 <
0d
b1 G
b1 L
b1 J
b1 g
1c
1?
b11000111110 f
b11000111110 U
b11000111100 /
1@
1.
#78375
0!
00
#79750
1!
10
0=
b1 h
0e
1i
b10 G
0F
0?
1C
0#
1B
0a
0i
0@
0.
#81125
0!
00
#82500
1!
10
b10 h
b10 Z
b100 Y
b10 ]
b10 \
b10 [
b10 `
b10 _
b10 ^
1e
b11 G
b10 J
b10 L
b100 g
1F
b100 R
b100 O
b100 Q
b110 W
b100 P
0C
1#
0B
1a
b11 %
b11 &
b11 '
b11 (
b11 )
b11 *
b11 +
b11 ,
b11 :
b11 9
b11 8
b11 7
b11 6
b11 5
b11 4
b11 3
b110 X
#83875
0!
00
#85250
1!
10
b11 h
b1 M
b1 K
b100 S
b100 <
b100 G
b110 f
b110 U
b110 Q
b100 /
#86625
0!
00
#88000
1!
10
b100 h
b10 M
b10 K
b110 Y
b100 V
b101 G
b100 H
b1000 f
b1000 U
b1010 W
#89375
0!
00
#90750
1!
10
b101 h
b11 M
b11 K
b110 S
b100 T
b110 G
b110 L
b110 J
b100100 g
b1000 Q
#92125
0!
00
#93500
1!
10
b110 h
b100 M
b100 K
b100 S
b111 G
b100100 L
b100 J
b10010000 g
b110 Q
#94875
0!
00
#96250
1!
10
b111 h
b101 K
b10010000 N
b1000 V
b1000 G
b10 J
b10010000 L
b1000 H
b1100 f
b100100000 g
b1100 U
b1110 W
#97625
0!
00
#99000
1!
10
b1000 h
b0 M
b0 K
b100100000 <
b1001 G
b10 L
b100 g
b100101000 f
b100101000 U
b100100000 /
#100375
0!
00
#101750
1!
10
b1001 h
b100 M
b100 K
b100101000 <
b1010 G
b10010000 L
b100 J
b1001000000 g
b100110000 f
b100110000 U
b100101000 /
#103125
0!
00
#104500
1!
10
b1010 h
b101 M
b1 I
b1001000000 N
b1011 G
b100101000 L
b100 H
b100101100 f
b10010100000 g
#105875
0!
00
#107250
1!
10
b1011 h
b0 M
b0 K
b10 I
b10010100000 <
b100101100 T
b1100 G
b10 L
b10 J
b1001000000 H
b100 g
b11011100000 f
b10010101000 U
b10010100000 /
#108625
0!
00
#110000
1!
10
b1100 h
b101 M
b110 K
b0 I
b11011100000 <
b1101 G
b11011100000 L
b100101100 J
b1000 H
b10000000111010000000 g
b11011101000 f
b11011101000 U
b11011100000 /
#111375
0!
00
#112750
1!
10
b1101 h
b0 M
b0 K
b10000000111010000000 <
1d
b1 G
b10 L
b10 J
b100 g
0c
1?
b10000000111010001000 f
b111010001000 U
b10000000111010000000 /
1@
1.
#114125
0!
00
#115500
1!
10
1=
b1 h
0e
1i
b10 G
0F
0?
1C
0#
1B
0a
0i
0@
0.
#116875
0!
00
#118250
1!
10
b10 h
b11 Z
b11 ]
b11 \
b11 [
b11 `
b11 _
b11 ^
1e
b11 V
b11 G
b11 J
b11 L
b11 H
b10000000111010000011 f
b1001 g
b111010000011 U
b1001 W
1F
b110 R
b110 O
b111 Q
b110 P
0C
1#
0B
1a
b100 %
b100 &
b100 '
b100 (
b100 )
b100 *
b100 +
b100 ,
b100 :
b100 9
b100 8
b100 7
b100 6
b100 5
b100 4
b100 3
b1000 X
#119625
0!
00
#121000
1!
10
b11 h
b1 M
b1 K
b110 S
b1001 <
b100 G
b1100 f
b1100 U
b1001 Q
b1001 /
#122375
0!
00
#123750
1!
10
b100 h
b10 M
b10 K
b1001 Y
b1001 V
b101 G
b1001 H
b10010 f
b10010 U
b10010 W
#125125
0!
00
#126500
1!
10
b101 h
b11 M
b11 K
b1001 S
b1001 T
b110 G
b1001 L
b1001 J
b1010001 g
b1100 Q
#127875
0!
00
#129250
1!
10
b110 h
b100 M
b100 K
b1010001 N
b110 S
b111 G
b1010001 L
b110 J
b111100110 g
b1001 Q
#130625
0!
00
#132000
1!
10
b111 h
b101 K
b111100110 N
b10010 V
b1000 G
b11 J
b111100110 L
b10010 H
b11011 f
b10110110010 g
b11011 U
b11011 W
#133375
0!
00
#134750
1!
10
b1000 h
b0 M
b0 K
b10110110010 <
b1001 G
b11 L
b1001 g
b10111000100 f
b10111000100 U
b10110110010 /
#136125
0!
00
#137500
1!
10
b1001 h
b100 M
b100 K
b10111000100 <
b1010 G
b111100110 L
b110 J
b101101100100 g
b10111010110 f
b10111010110 U
b10111000100 /
#138875
0!
00
#140250
1!
10
b1010 h
b101 M
b1 I
b101101100100 N
b1011 G
b10111000100 L
b1001 H
b10111001101 f
b10001010011000 g
#141625
0!
00
#143000
1!
10
b1011 h
b0 M
b0 K
b10 I
b10001010011000 <
b10111001101 T
b1100 G
b11 L
b11 J
b101101100100 H
b1001 g
b10110111111100 f
b10001010101010 U
b10001010011000 /
#144375
0!
00
#145750
1!
10
b1100 h
b101 M
b110 K
b0 I
b10110111111100 <
b1101 G
b10110111111100 L
b10111001101 J
b10010 H
b1000010101011111011001100 g
b10111000001110 f
b10111000001110 U
b10110111111100 /
#147125
0!
00
#148500
1!
10
b1101 h
b0 M
b0 K
b1000010101011111011001100 <
0d
b1 G
b11 L
b11 J
b1001 g
1c
1?
b1000010101011111011011110 f
b1011111011011110 U
b1000010101011111011001100 /
1@
1.
#149875
0!
00
#151250
1!
10
0=
b1 h
0e
1i
b10 G
0F
0?
1C
0#
1B
0a
0i
0@
0.
#152625
0!
00
#154000
1!
10
b10 h
b100 Z
b1000 Y
b100 ]
b100 \
b100 [
b100 `
b100 _
b100 ^
1e
b100 V
b11 G
b100 J
b100 L
b100 H
b1000010101011111011010000 f
b10000 g
b1011111011010000 U
1F
b1000 R
b1000 O
b1010 Q
b1100 W
b1000 P
0C
1#
0B
1a
b101 %
b101 &
b101 '
b101 (
b101 )
b101 *
b101 +
b101 ,
b101 :
b101 9
b101 8
b101 7
b101 6
b101 5
b101 4
b101 3
b1010 X
#155375
0!
00
#156750
1!
10
b11 h
b1 M
b1 K
b1000 S
b10000 <
b100 G
b10100 f
b10100 U
b1100 Q
b10000 /
#158125
0!
00
#159500
1!
10
b100 h
b10 M
b10 K
b1100 Y
b10000 V
b101 G
b10000 H
b100000 f
b100000 U
b11100 W
#160875
0!
00
#162250
1!
10
b101 h
b11 M
b11 K
b1100 S
b10000 T
b110 G
b1100 L
b1100 J
b10010000 g
b10000 Q
#163625
0!
00
#165000
1!
10
b110 h
b100 M
b100 K
b10010000 N
b1000 S
b111 G
b10010000 L
b1000 J
b10010000000 g
b1100 Q
#166375
0!
00
#167750
1!
10
b111 h
b101 K
b10010000000 N
b100000 V
b1000 G
b100 J
b10010000000 L
b100000 H
b110000 f
b1001000000000 g
b110000 U
b101100 W
#169125
0!
00
#170500
1!
10
b1000 h
b0 M
b0 K
b1001000000000 <
b1001 G
b100 L
b10000 g
b1001000100000 f
b1001000100000 U
b1001000000000 /
#171875
0!
00
#173250
1!
10
b1001 h
b100 M
b100 K
b1001000100000 <
b1010 G
b10010000000 L
b1000 J
b10010000000000 g
b1001001000000 f
b1001001000000 U
b1001000100000 /
#174625
0!
00
#176000
1!
10
b1010 h
b101 M
b1 I
b10010000000000 N
b1011 G
b1001000100000 L
b10000 H
b1001000110000 f
b1001000100000000 g
#177375
0!
00
#178750
1!
10
b1011 h
b0 M
b0 K
b10 I
b1001000100000000 <
b1001000110000 T
b1100 G
b100 L
b100 J
b10010000000000 H
b10000 g
b1011010100000000 f
b1001000100100000 U
b1001000100000000 /
#180125
0!
00
#181500
1!
10
b1100 h
b101 M
b110 K
b0 I
b1011010100000000 <
b1101 G
b1011010100000000 L
b1001000110000 J
b100000 H
b1100110110111111000000000000 g
b1011010100100000 f
b1011010100100000 U
b1011010100000000 /
#182875
0!
00
#184250
1!
10
b1101 h
b0 M
b0 K
b1100110110111111000000000000 <
1d
b1 G
b100 L
b100 J
b10000 g
0c
1?
b1100110110111111000000100000 f
b1111000000100000 U
b1100110110111111000000000000 /
1@
1.
#185625
0!
00
#187000
1!
10
1=
b1 h
0e
1i
b10 G
0F
0?
1C
0#
1B
0a
0i
0@
0.
#188375
0!
00
#189750
1!
10
b10 h
b101 Z
b1010 Y
b101 ]
b101 \
b101 [
b101 `
b101 _
b101 ^
1e
b101 V
b11 G
b101 J
b101 L
b101 H
b1100110110111111000000000101 f
b11001 g
b1111000000000101 U
1F
b1010 R
b1010 O
b1101 Q
b1111 W
b1010 P
0C
1#
0B
1a
b110 %
b110 &
b110 '
b110 (
b110 )
b110 *
b110 +
b110 ,
b110 :
b110 9
b110 8
b110 7
b110 6
b110 5
b110 4
b110 3
b1100 X
#191125
0!
00
#192500
1!
10
b11 h
b1 M
b1 K
b1010 S
b11001 <
b100 G
b11110 f
b11110 U
b1111 Q
b11001 /
#193875
0!
00
#195250
1!
10
b100 h
b10 M
b10 K
b1111 Y
b11001 V
b101 G
b11001 H
b110010 f
b110010 U
b101000 W
#196625
0!
00
#198000
1!
10
b101 h
b11 M
b11 K
b1111 S
b11001 T
b110 G
b1111 L
b1111 J
b11100001 g
b10100 Q
#199375
0!
00
#200750
1!
10
b110 h
b100 M
b100 K
b11100001 N
b1010 S
b111 G
b11100001 L
b1010 J
b100011001010 g
b1111 Q
#202125
0!
00
#203500
1!
10
b111 h
b101 K
b100011001010 N
b110010 V
b1000 G
b101 J
b100011001010 L
b110010 H
b1001011 f
b10101111110010 g
b1001011 U
b1000001 W
#204875
0!
00
#206250
1!
10
b1000 h
b0 M
b0 K
b10101111110010 <
b1001 G
b101 L
b11001 g
b10110000100100 f
b10110000100100 U
b10101111110010 /
#207625
0!
00
#209000
1!
10
b1001 h
b100 M
b100 K
b10110000100100 <
b1010 G
b100011001010 L
b1010 J
b101011111100100 g
b10110001010110 f
b10110001010110 U
b10110000100100 /
#210375
0!
00
#211750
1!
10
b1010 h
b101 M
b1 I
b101011111100100 N
b1011 G
b10110000100100 L
b11001 H
b10110000111101 f
b11011100101101000 g
#213125
0!
00
#214500
1!
10
b1011 h
b0 M
b0 K
b10 I
b11011100101101000 <
b10110000111101 T
b1100 G
b101 L
b101 J
b101011111100100 H
b11001 g
b100001000101001100 f
b1011100110011010 U
b11011100101101000 /
#215875
0!
00
#217250
1!
10
b1100 h
b101 M
b110 K
b0 I
b100001000101001100 <
b1101 G
b100001000101001100 L
b10110000111101 J
b110010 H
b1011011011101110010111100011100 g
b100001000101111110 f
b1000101111110 U
b100001000101001100 /
#218625
0!
00
#220000
1!
10
b1101 h
b0 M
b0 K
b1011011011101110010111100011100 <
0d
b1 G
b101 L
b101 J
b11001 g
1c
1?
b1011011011101110010111101001110 f
b10111101001110 U
b1011011011101110010111100011100 /
1@
1.
#221375
0!
00
#222750
1!
10
0=
b1 h
0e
1i
b10 G
0F
0?
1C
0#
1B
0a
0i
0@
0.
#224125
0!
00
#225500
1!
10
b10 h
b110 Z
b1100 Y
b110 ]
b110 \
b110 [
b110 `
b110 _
b110 ^
1e
b110 V
b11 G
b110 J
b110 L
b110 H
b1011011011101110010111100100010 f
b100100 g
b10111100100010 U
1F
b1100 R
b1100 O
b10000 Q
b10010 W
b1100 P
0C
1#
0B
1a
b111 %
b111 &
b111 '
b111 (
b111 )
b111 *
b111 +
b111 ,
b111 :
b111 9
b111 8
b111 7
b111 6
b111 5
b111 4
b111 3
b1110 X
#226875
0!
00
#228250
1!
10
b11 h
b1 M
b1 K
b1100 S
b100100 <
b100 G
b101010 f
b101010 U
b10010 Q
b100100 /
#229625
0!
00
#231000
1!
10
b100 h
b10 M
b10 K
b10010 Y
b100100 V
b101 G
b100100 H
b1001000 f
b1001000 U
b110110 W
#232375
0!
00
#233750
1!
10
b101 h
b11 M
b11 K
b10010 S
b100100 T
b110 G
b10010 L
b10010 J
b101000100 g
b11000 Q
#235125
0!
00
#236500
1!
10
b110 h
b100 M
b100 K
b101000100 N
b1100 S
b111 G
b101000100 L
b1100 J
b111100110000 g
b10010 Q
#237875
0!
00
#239250
1!
10
b111 h
b101 K
b111100110000 N
b1001000 V
b1000 G
b110 J
b111100110000 L
b1001000 H
b1101100 f
b101101100100000 g
b1101100 U
b1011010 W
#240625
0!
00
#242000
1!
10
b1000 h
b0 M
b0 K
b101101100100000 <
b1001 G
b110 L
b100100 g
b101101101101000 f
b101101101101000 U
b101101100100000 /
#243375
0!
00
#244750
1!
10
b1001 h
b100 M
b100 K
b101101101101000 <
b1010 G
b111100110000 L
b1100 J
b1011011001000000 g
b101101110110000 f
b101101110110000 U
b101101101101000 /
#246125
0!
00
#247500
1!
10
b1010 h
b101 M
b1 I
b1011011001000000 N
b1011 G
b101101101101000 L
b100100 H
b101101110001100 f
b1000100100011100000 g
#248875
0!
00
#250250
1!
10
b1011 h
b0 M
b0 K
b10 I
b1000100100011100000 <
b101101110001100 T
b1100 G
b110 L
b110 J
b1011011001000000 H
b100100 g
b1001111111100100000 f
b100100100101000 U
b1000100100011100000 /
#251625
0!
00
#253000
1!
10
b1100 h
b101 M
b110 K
b0 I
b1001111111100100000 <
b1101 G
b1001111111100100000 L
b101101110001100 J
b1001000 H
b11001001011010111110010110000000 g
b1001111111101101000 f
b1111111101101000 U
b1001111111100100000 /
#254375
0!
00
#255750
1!
10
b1101 h
b0 M
b0 K
b11001001011010111110010110000000 <
1d
b1 G
b110 L
b110 J
b100100 g
0c
1?
b11001001011010111110010111001000 f
b1110010111001000 U
b11001001011010111110010110000000 /
1@
1.
#257125
0!
00
#258500
1!
10
1=
b1 h
0e
1i
b10 G
0F
0?
1C
0#
1B
0a
0i
0@
0.
#259875
0!
00
#261250
1!
10
b10 h
b111 Z
b1110 Y
b111 ]
b111 \
b111 [
b111 `
b111 _
b111 ^
1e
b111 V
b11 G
b111 J
b111 L
b111 H
b11001001011010111110010110000111 f
b110001 g
b1110010110000111 U
1F
b1110 R
b1110 O
b10011 Q
b10101 W
b1110 P
0C
1#
0B
1a
b1000 %
b1000 &
b1000 '
b1000 (
b1000 )
b1000 *
b1000 +
b1000 ,
b1000 :
b1000 9
b1000 8
b1000 7
b1000 6
b1000 5
b1000 4
b1000 3
b10000 X
#262625
0!
00
#264000
1!
10
b11 h
b1 M
b1 K
b1110 S
b110001 <
b100 G
b111000 f
b111000 U
b10101 Q
b110001 /
#265375
0!
00
#266750
1!
10
b100 h
b10 M
b10 K
b10101 Y
b110001 V
b101 G
b110001 H
b1100010 f
b1100010 U
b1000110 W
#268125
0!
00
#269500
1!
10
b101 h
b11 M
b11 K
b10101 S
b110001 T
b110 G
b10101 L
b10101 J
b110111001 g
b11100 Q
#270875
0!
00
#272250
1!
10
b110 h
b100 M
b100 K
b110111001 N
b1110 S
b111 G
b110111001 L
b1110 J
b1100000011110 g
b10101 Q
#273625
0!
00
#275000
1!
10
b111 h
b101 K
b1100000011110 N
b1100010 V
b1000 G
b111 J
b1100000011110 L
b1100010 H
b10010011 f
b1010100011010010 g
b10010011 U
b1110111 W
#276375
0!
00
#277750
1!
10
b1000 h
b0 M
b0 K
b1010100011010010 <
b1001 G
b111 L
b110001 g
b1010100100110100 f
b1010100100110100 U
b1010100011010010 /
#279125
0!
00
#280500
1!
10
b1001 h
b100 M
b100 K
b1010100100110100 <
b1010 G
b1100000011110 L
b1110 J
b10101000110100100 g
b1010100110010110 f
b1010100110010110 U
b1010100100110100 /
#281875
0!
00
#283250
1!
10
b1010 h
b101 M
b1 I
b10101000110100100 N
b1011 G
b1010100100110100 L
b110001 H
b1010100101100101 f
b10010100000011011000 g
#284625
0!
00
#286000
1!
10
b1011 h
b0 M
b0 K
b10 I
b10010100000011011000 <
b1010100101100101 T
b1100 G
b111 L
b111 J
b10101000110100100 H
b110001 g
b10101001001001111100 f
b100000100111010 U
b10010100000011011000 /
#287375
0!
00
#288750
1!
10
b1100 h
b101 M
b110 K
b0 I
b10101001001001111100 <
b1101 G
b10101001001001111100 L
b1010100101100101 J
b1100010 H
b11111110110111111010011011101100 g
b10101001001011011110 f
b1001001011011110 U
b10101001001001111100 /
#290125
0!
00
#291500
1!
10
b1101 h
b0 M
b0 K
b11111110110111111010011011101100 <
0d
b1 G
b111 L
b111 J
b110001 g
1c
1?
b11111110110111111010011101001110 f
b1010011101001110 U
b11111110110111111010011011101100 /
1@
1.
#292875
0!
00
#294250
1!
10
0=
b1 h
0e
1i
b10 G
0F
0?
1C
0#
1B
0a
0i
0@
0.
#295625
0!
00
#297000
1!
10
b10 h
b1000 Z
b10000 Y
b1000 ]
b1000 \
b1000 [
b1000 `
b1000 _
b1000 ^
1e
b1000 V
b11 G
b1000 J
b1000 L
b1000 H
b11111110110111111010011011110100 f
b1000000 g
b1010011011110100 U
1F
b10000 R
b10000 O
b10110 Q
b11000 W
b10000 P
0C
1#
0B
1a
b1001 %
b1001 &
b1001 '
b1001 (
b1001 )
b1001 *
b1001 +
b1001 ,
b1001 :
b1001 9
b1001 8
b1001 7
b1001 6
b1001 5
b1001 4
b1001 3
b10010 X
#298375
0!
00
#299750
1!
10
b11 h
b1 M
b1 K
b10000 S
b1000000 <
b100 G
b1001000 f
b1001000 U
b11000 Q
b1000000 /
#301125
0!
00
#302500
1!
10
b100 h
b10 M
b10 K
b11000 Y
b1000000 V
b101 G
b1000000 H
b10000000 f
b10000000 U
b1011000 W
#303875
0!
00
#305250
1!
10
b101 h
b11 M
b11 K
b11000 S
b1000000 T
b110 G
b11000 L
b11000 J
b1001000000 g
b100000 Q
#306625
0!
00
#308000
1!
10
b110 h
b100 M
b100 K
b1001000000 N
b10000 S
b111 G
b1001000000 L
b10000 J
b10010000000000 g
b11000 Q
#309375
0!
00
#310750
1!
10
b111 h
b101 K
b10010000000000 N
b10000000 V
b1000 G
b1000 J
b10010000000000 L
b10000000 H
b11000000 f
b10010000000000000 g
b11000000 U
b10011000 W
#312125
0!
00
#313500
1!
10
b1000 h
b0 M
b0 K
b10010000000000000 <
b1001 G
b1000 L
b1000000 g
b10010000010000000 f
b10000010000000 U
b10010000000000000 /
#314875
0!
00
#316250
1!
10
b1001 h
b100 M
b100 K
b10010000010000000 <
b1010 G
b10010000000000 L
b10000 J
b100100000000000000 g
b10010000100000000 f
b10000100000000 U
b10010000010000000 /
#317625
0!
00
#319000
1!
10
b1010 h
b101 M
b1 I
b100100000000000000 N
b1011 G
b10010000010000000 L
b1000000 H
b10010000011000000 f
b100100000100000000000 g
#320375
0!
00
#321750
1!
10
b1011 h
b0 M
b0 K
b10 I
b100100000100000000000 <
b10010000011000000 T
b1100 G
b1000 L
b1000 J
b100100000000000000 H
b1000000 g
b101000100100000000000 f
b100010000000 U
b100100000100000000000 /
#323125
0!
00
#324500
1!
10
b1100 h
b101 M
b110 K
b0 I
b101000100100000000000 <
b1101 G
b101000100100000000000 L
b10010000011000000 J
b10000000 H
b11100000001101100000000000000000 g
b101000100100010000000 f
b100100010000000 U
b101000100100000000000 /
#325875
0!
00
#327250
1!
10
b1101 h
b0 M
b0 K
b11100000001101100000000000000000 <
1d
b1 G
b1000 L
b1000 J
b1000000 g
0c
1?
b11100000001101100000000010000000 f
b10000000 U
b11100000001101100000000000000000 /
1@
1.
#328625
0!
00
#330000
1!
10
1=
b1 h
0e
1i
b10 G
0F
0?
1C
0#
1B
0a
0i
0@
0.
#331375
0!
00
#332750
1!
10
b10 h
b1001 Z
b10010 Y
b1001 ]
b1001 \
b1001 [
b1001 `
b1001 _
b1001 ^
1e
b1001 V
b11 G
b1001 J
b1001 L
b1001 H
b11100000001101100000000000001001 f
b1010001 g
b1001 U
1F
b10010 R
b10010 O
b11001 Q
b11011 W
b10010 P
0C
1#
0B
1a
b1010 %
b1010 &
b1010 '
b1010 (
b1010 )
b1010 *
b1010 +
b1010 ,
b1010 :
b1010 9
b1010 8
b1010 7
b1010 6
b1010 5
b1010 4
b1010 3
b10100 X
#334125
0!
00
#335500
1!
10
b11 h
b1 M
b1 K
b10010 S
b1010001 <
b100 G
b1011010 f
b1011010 U
b11011 Q
b1010001 /
#336875
0!
00
#338250
1!
10
b100 h
b10 M
b10 K
b11011 Y
b1010001 V
b101 G
b1010001 H
b10100010 f
b10100010 U
b1101100 W
#339625
0!
00
#341000
1!
10
b101 h
b11 M
b11 K
b11011 S
b1010001 T
b110 G
b11011 L
b11011 J
b1011011001 g
b100100 Q
#342375
0!
00
#343750
1!
10
b110 h
b100 M
b100 K
b1011011001 N
b10010 S
b111 G
b1011011001 L
b10010 J
b11001101000010 g
b11011 Q
#345125
0!
00
#346500
1!
10
b111 h
b101 K
b11001101000010 N
b10100010 V
b1000 G
b1001 J
b11001101000010 L
b10100010 H
b11110011 f
b11100110101010010 g
b11110011 U
b10111101 W
#347875
0!
00
#349250
1!
10
b1000 h
b0 M
b0 K
b11100110101010010 <
b1001 G
b1001 L
b1010001 g
b11100110111110100 f
b1100110111110100 U
b11100110101010010 /
#350625
0!
00
#352000
1!
10
b1001 h
b100 M
b100 K
b11100110111110100 <
b1010 G
b11001101000010 L
b10010 J
b111001101010100100 g
b11100111010010110 f
b1100111010010110 U
b11100110111110100 /
#353375
0!
00
#354750
1!
10
b1010 h
b101 M
b1 I
b111001101010100100 N
b1011 G
b11100110111110100 L
b1010001 H
b11100111001000101 f
b1000000111101100101000 g
#356125
0!
00
