tutorial/stratus_examples/lab_loop_unrolling/bdw_work/sims/UNROLL_FILL_V/verilog.vcd
$date
    Nov 17, 2020  22:53:16
$end
$version
    TOOL:	ncsim(64)	15.20-s016
$end
$timescale
    1 ps
$end

$scope module top $end

$scope module dut0 $end
$var reg       1 !    clk  $end
$var reg       1 "    rst  $end
$var wire      1 #    din_busy  $end
$var reg       1 $    din_vld  $end
$var reg       8 %    din_data [7:0] $end
$var reg       1 &    dout_busy  $end
$var wire      1 '    dout_vld  $end
$var wire     11 (    dout_data [10:0] $end

$scope module dut0 $end
$var wire      1 )    clk  $end
$var wire      1 *    rst  $end
$var wire      1 +    din_vld  $end
$var wire      8 ,    din_data [7:0] $end
$var wire      1 -    dout_busy  $end
$var wire      1 #    din_busy  $end
$var wire      1 '    dout_vld  $end
$var reg      11 .    dout_data [10:0] $end
$var reg       1 /    dout_m_req_m_prev_trig_req  $end
$var reg       1 0    dout_m_unacked_req  $end
$var wire      1 1    dut_Xor_1Ux1U_1U_4_9_out1  $end
$var wire      1 2    dut_Or_1Ux1U_1U_4_10_out1  $end
$var reg       1 3    dut_N_Muxb_1_2_0_4_1_out1  $end
$var wire      1 4    dut_And_1Ux1U_1U_4_5_out1  $end
$var wire      1 5    dut_Not_1U_1U_4_4_out1  $end
$var reg       1 6    din_m_unvalidated_req  $end
$var wire      1 7    dut_Or_1Ux1U_1U_4_2_out1  $end
$var wire      1 8    dut_And_1Ux1U_1U_4_3_out1  $end
$var reg       5 9    global_state_next [4:0] $end
$var reg       4 :    dut_Add_4Sx2S_5S_4_16_in2 [3:0] $end
$var reg       1 ;    gs_ctrl5  $end
$var reg       3 <    dut_Add_3Sx2S_3S_4_13_in2 [2:0] $end
$var reg       1 =    gs_ctrl4  $end
$var reg       2 >    gs_ctrl3 [1:0] $end
$var reg       1 ?    gs_ctrl2  $end
$var reg       2 @    gs_ctrl1 [1:0] $end
$var wire      3 A    dut_Add_3Sx2S_3S_4_13_out1 [2:0] $end
$var wire      1 B    dut_LessThan_4Sx4S_1U_4_15_out1  $end
$var reg       4 C    gs_ctrl0 [3:0] $end
$var wire      5 D    dut_Add_4Sx2S_5S_4_16_out1 [4:0] $end
$var wire      4 E    dut_Add_4Sx2S_4S_4_14_out1 [3:0] $end
$var reg       5 F    s_reg_12 [4:0] $end
$var wire      1 G    dut_Not_1U_1U_4_6_out1  $end
$var wire      1 H    dut_And_1Ux1U_1U_4_11_out1  $end
$var wire      1 I    dut_Not_1U_1U_4_12_out1  $end
$var reg       1 J    dout_m_req_m_trig_req  $end
$var reg       1 K    din_m_busy_req_0  $end
$var wire     11 L    dut_Add_11Ux8U_11U_4_18_out1 [10:0] $end
$var wire      1 M    dut_LessThan_5Sx5S_1U_4_17_out1  $end
$var reg       5 N    global_state [4:0] $end
$var reg       1 O    stall0  $end
$var reg       8 P    dut_RAM_8X8_1_my_array_1_DIN [7:0] $end
$var reg       1 Q    dut_RAM_8X8_1_my_array_1_CE  $end
$var reg       1 R    dut_RAM_8X8_1_my_array_1_RW  $end
$var reg       3 S    dut_RAM_8X8_1_my_array_1_in1 [2:0] $end
$var wire      8 T    dut_RAM_8X8_1_my_array_1_out1 [7:0] $end

$scope module dut_RAM_8X8_1_my_array_1 $end
$var wire      8 U    DIN [7:0] $end
$var wire      1 V    CE  $end
$var wire      1 W    RW  $end
$var wire      3 X    in1 [2:0] $end
$var wire      1 )    clk  $end
$var reg       8 Y    out1 [7:0] $end
$upscope $end

$upscope $end

$upscope $end

$upscope $end

$enddefinitions $end
$dumpvars
1!
0"
1#
0$
b0 %
1&
0'
bx (
1)
0*
0+
b0 ,
1-
bx .
0/
00
01
02
13
04
05
16
17
18
b1 9
b0 :
0;
b0 <
0=
b0 >
0?
b0 @
b1 A
xB
b0 C
b1 D
bx E
bx F
1G
0H
1I
0J
1K
bx L
xM
b0 N
0O
b0 P
0Q
0R
b0 S
b0 T
b0 U
0V
0W
b0 X
b0 Y
$end
#2500
0!
0)
#5000
1!
1)
#7500
0!
0)
#10000
1!
1)
1"
1*
#12500
0!
0)
#15000
1!
1)
0K
b1 N
1?
b1 >
03
1O
b10 9
08
15
0#
b1010 %
1$
0&
0-
1+
b1010 ,
14
0G
13
b1010 P
0O
1Q
1R
1W
1V
b1010 U
#17500
0!
0)
#20000
1!
1)
1K
b10 N
b1 C
b1 @
b1010 .
b11 9
b1 S
b1 X
b1010 L
18
b1010 (
05
1#
04
1G
b1001 %
b1001 ,
#22500
0!
0)
#25000
1!
1)
b11 N
b10 C
b100 9
b10 S
b10 X
#27500
0!
0)
#30000
1!
1)
b100 N
b11 C
b101 9
b11 S
b11 X
#32500
0!
0)
#35000
1!
1)
b101 N
b100 C
b110 9
b100 S
b100 X
#37500
0!
0)
#40000
1!
1)
b110 N
b101 C
b111 9
b101 S
b101 X
#42500
0!
0)
#45000
1!
1)
b111 N
b110 C
b1000 9
b110 S
b110 X
#47500
0!
0)
#50000
1!
1)
b1000 N
b111 C
b1001 9
b111 S
b111 X
#52500
0!
0)
#55000
1!
1)
b1001 N
b0 C
b0 @
0?
b0 >
b1010 9
b0 S
b1001 P
0Q
0R
0W
0V
b1001 U
b0 X
#57500
0!
0)
#60000
1!
1)
b1010 N
1J
b1011 9
0I
11
12
1'
#62500
0!
0)
#65000
1!
1)
1/
0K
b1011 N
b1000 C
1?
1O
b1100 9
b1 S
b1 X
08
01
15
0#
14
0G
0O
1Q
1V
02
0'
#67500
0!
0)
#70000
1!
1)
b0 F
1K
b1100 N
b1001 C
b10 @
b1 >
b1001 .
b1010 Y
b0 S
b1101 9
b0 P
1R
1W
b0 U
b0 X
b1001 L
18
1M
1B
b1 E
b1010 T
b1001 (
05
1#
04
1G
b1010 P
b1010 U
b10011 L
b1000 %
b1000 ,
#72500
0!
0)
#75000
1!
1)
1=
b1 F
b1101 N
b1010 C
b1 @
b10 >
b1 <
b1 S
b1100 9
b1001 P
0R
0W
b1001 U
b1 X
b10 A
b10 E
b10 S
b10 X
#77500
0!
0)
#80000
1!
1)
0=
b1100 N
b1001 C
b10 @
b1 >
b0 <
b1101 9
b1 S
b1010 P
1R
1W
b1010 U
b1 X
b1 A
#82500
0!
0)
#85000
1!
1)
1=
b10 F
b1101 N
b1010 C
b1 @
b10 >
b10 <
b1100 9
b1001 P
0R
0W
b1001 U
b11 A
b11 E
b11 S
b11 X
#87500
0!
0)
#90000
1!
1)
0=
b1100 N
b1001 C
b10 @
b1 >
b0 <
b1101 9
b10 S
b1010 P
1R
1W
b1010 U
b10 X
b1 A
#92500
0!
0)
#95000
1!
1)
1=
b11 F
b1101 N
b1010 C
b1 @
b10 >
b11 <
b1 S
b1100 9
b1001 P
0R
0W
b1001 U
b1 X
b100 A
b100 E
b100 S
b100 X
#97500
0!
0)
#100000
1!
1)
0=
b1100 N
b1001 C
b10 @
b1 >
b0 <
b1101 9
b11 S
b1010 P
1R
1W
b1010 U
b11 X
b1 A
#102500
0!
0)
#105000
1!
1)
1=
b100 F
b1101 N
b1010 C
b1 @
b10 >
b100 <
b1 S
b1100 9
b1001 P
0R
0W
b1001 U
b1 X
b101 A
b101 E
b101 S
b101 X
#107500
0!
0)
#110000
1!
1)
0=
b1100 N
b1001 C
b10 @
b1 >
b0 <
b1101 9
b100 S
b1010 P
1R
1W
b1010 U
b100 X
b1 A
#112500
0!
0)
#115000
1!
1)
1=
b101 F
b1101 N
b1010 C
b1 @
b10 >
b101 <
b1 S
b1100 9
b1001 P
0R
0W
b1001 U
b1 X
b110 A
b110 E
b110 S
b110 X
#117500
0!
0)
#120000
1!
1)
0=
b1100 N
b1001 C
b10 @
b1 >
b0 <
b1101 9
b101 S
b1010 P
1R
1W
b1010 U
b101 X
b1 A
#122500
0!
0)
#125000
1!
1)
1=
b110 F
b1101 N
b1010 C
b1 @
b10 >
b110 <
b1 S
b1100 9
b1001 P
0R
0W
b1001 U
b1 X
b111 A
b111 E
b111 S
b111 X
#127500
0!
0)
#130000
1!
1)
0=
b1100 N
b1001 C
b10 @
b1 >
b0 <
b1101 9
b110 S
b1010 P
1R
1W
b1010 U
b110 X
b1 A
#132500
0!
0)
#135000
1!
1)
1=
b111 F
b1101 N
b1010 C
b1 @
b10 >
b111 <
b1 S
b1100 9
b1001 P
0R
0W
b1001 U
b1 X
b0 A
0B
b1000 E
b111 S
b1110 9
1R
1W
b111 X
#137500
0!
0)
#140000
1!
1)
0=
b1110 N
b0 C
b0 @
b0 >
b0 <
b1111 9
b0 S
b1000 P
0R
0W
b1000 U
b0 X
b1 A
#142500
0!
0)
#145000
1!
1)
b1 F
b1111 N
0?
b0 .
b10000 9
0Q
0V
b1010 L
1B
b10 E
b0 (
#147500
0!
0)
#150000
1!
1)
1;
b10000 N
b1001 C
1?
b1010 .
b0 Y
b1 :
b1111 9
b1 S
1Q
1V
b1 X
b10 D
b10100 L
b0 T
b1010 (
b1010 L
#152500
0!
0)
#155000
1!
1)
0;
b10 F
b1111 N
b0 C
0?
b1010 Y
b0 :
b0 S
b10000 9
0Q
0V
b0 X
b1 D
b11 E
b1010 T
b10100 L
#157500
0!
0)
#160000
1!
1)
1;
b10000 N
b1001 C
1?
b10100 .
b0 Y
b10 :
b1111 9
b10 S
1Q
1V
b10 X
b11 D
b11110 L
b0 T
b10100 (
b10100 L
#162500
0!
0)
#165000
1!
1)
0;
b11 F
b1111 N
b0 C
0?
b1010 Y
b0 :
b0 S
b10000 9
0Q
0V
b0 X
b1 D
b100 E
b1010 T
b11110 L
#167500
0!
0)
#170000
1!
1)
1;
b10000 N
b1001 C
1?
b11110 .
b0 Y
b11 :
b1111 9
b11 S
1Q
1V
b11 X
b100 D
b101000 L
b0 T
b11110 (
b11110 L
#172500
0!
0)
#175000
1!
1)
0;
b100 F
b1111 N
b0 C
0?
b1010 Y
b0 :
b0 S
b10000 9
0Q
0V
b0 X
b1 D
b101 E
b1010 T
b101000 L
#177500
0!
0)
#180000
1!
1)
1;
b10000 N
b1001 C
1?
b101000 .
b0 Y
b100 :
b1111 9
b100 S
1Q
1V
b100 X
b101 D
b110010 L
b0 T
b101000 (
b101000 L
#182500
0!
0)
#185000
1!
1)
0;
b101 F
b1111 N
b0 C
0?
b1010 Y
b0 :
b0 S
b10000 9
0Q
0V
b0 X
b1 D
b110 E
b1010 T
b110010 L
#187500
0!
0)
#190000
1!
1)
1;
b10000 N
b1001 C
1?
b110010 .
b0 Y
b101 :
b1111 9
b101 S
1Q
1V
b101 X
b110 D
b111100 L
b0 T
b110010 (
b110010 L
#192500
0!
0)
#195000
1!
1)
0;
b110 F
b1111 N
b0 C
0?
b1010 Y
b0 :
b0 S
b10000 9
0Q
0V
b0 X
b1 D
b111 E
b1010 T
b111100 L
#197500
0!
0)
#200000
1!
1)
1;
b10000 N
b1001 C
1?
b111100 .
b0 Y
b110 :
b1111 9
b110 S
1Q
1V
b110 X
b111 D
b1000110 L
b0 T
b111100 (
b111100 L
#202500
0!
0)
#205000
1!
1)
0;
b111 F
b1111 N
b0 C
0?
b1010 Y
b0 :
b0 S
b10000 9
0Q
0V
b0 X
b1 D
0B
b1000 E
b1010 T
b1000110 L
#207500
0!
0)
#210000
1!
1)
1;
b10000 N
b1001 C
1?
b1000110 .
b0 Y
b111 :
b1111 9
b111 S
1Q
1V
b111 X
b1000 D
b1010000 L
b0 T
b1000110 (
b1000110 L
#212500
0!
0)
#215000
1!
1)
0;
b1000 F
b1111 N
b0 C
0?
b1001 Y
b0 :
b0 S
b10000 9
0Q
0V
b0 X
b1 D
0M
1B
b1001 E
b1001 T
b10001 9
b1001111 L
#217500
0!
0)
#220000
1!
1)
b10001 N
b1001 .
0J
b0 Y
b1011 9
1I
11
b10010 L
b0 T
b1001 (
b1001 L
12
1'
#222500
0!
0)
#225000
1!
1)
0/
0K
b1011 N
b1000 C
1?
1O
b1100 9
b1 S
b1 X
08
01
15
0#
14
0G
0O
1Q
1V
02
0'
#227500
0!
0)
#230000
1!
1)
b0 F
1K
b1100 N
b1001 C
b10 @
b1 >
b1000 .
b1010 Y
b0 S
b1101 9
b0 P
1R
1W
b0 U
b0 X
b1000 L
18
1M
b1 E
b1010 T
b1000 (
05
1#
04
1G
b1010 P
b1010 U
b10010 L
b111 %
b111 ,
#232500
0!
0)
#235000
1!
1)
1=
b1 F
b1101 N
b1010 C
b1 @
b10 >
b1 <
b1 S
b1100 9
b1000 P
0R
0W
b1000 U
b1 X
b10 A
b10 E
b10 S
b10 X
#237500
0!
0)
#240000
1!
1)
0=
b1100 N
b1001 C
b10 @
b1 >
b0 <
b1101 9
b1 S
b1010 P
1R
1W
b1010 U
b1 X
b1 A
#242500
0!
0)
#245000
1!
1)
1=
b10 F
b1101 N
b1010 C
b1 @
b10 >
b10 <
b1100 9
b1000 P
0R
0W
b1000 U
b11 A
b11 E
b11 S
b11 X
#247500
0!
0)
#250000
1!
1)
0=
b1100 N
b1001 C
b10 @
b1 >
b0 <
b1101 9
b10 S
b1010 P
1R
1W
b1010 U
b10 X
b1 A
#252500
0!
0)
#255000
1!
1)
1=
b11 F
b1101 N
b1010 C
b1 @
b10 >
b11 <
b1 S
b1100 9
b1000 P
0R
0W
b1000 U
b1 X
b100 A
b100 E
b100 S
b100 X
#257500
0!
0)
#260000
1!
1)
0=
b1100 N
b1001 C
b10 @
b1 >
b0 <
b1101 9
b11 S
b1010 P
1R
1W
b1010 U
b11 X
b1 A
#262500
0!
0)
#265000
1!
1)
1=
b100 F
b1101 N
b1010 C
b1 @
b10 >
b100 <
b1 S
b1100 9
b1000 P
0R
0W
b1000 U
b1 X
b101 A
b101 E
b101 S
b101 X
#267500
0!
0)
#270000
1!
1)
0=
b1100 N
b1001 C
b10 @
b1 >
b0 <
b1101 9
b100 S
b1010 P
1R
1W
b1010 U
b100 X
b1 A
#272500
0!
0)
#275000
1!
1)
1=
b101 F
b1101 N
b1010 C
b1 @
b10 >
b101 <
b1 S
b1100 9
b1000 P
0R
0W
b1000 U
b1 X
b110 A
b110 E
b110 S
b110 X
#277500
0!
0)
#280000
1!
1)
0=
b1100 N
b1001 C
b10 @
b1 >
b0 <
b1101 9
b101 S
b1010 P
1R
1W
b1010 U
b101 X
b1 A
#282500
0!
0)
#285000
1!
1)
1=
b110 F
b1101 N
b1010 C
b1 @
b10 >
b110 <
b1 S
b1100 9
b1000 P
0R
0W
b1000 U
b1 X
b111 A
b111 E
b111 S
b111 X
#287500
0!
0)
#290000
1!
1)
0=
b1100 N
b1001 C
b10 @
b1 >
b1001 Y
b0 <
b1101 9
b110 S
b1010 P
1R
1W
b1010 U
b110 X
b1 A
b1001 T
b1001 P
b1001 U
b10001 L
#292500
0!
0)
#295000
1!
1)
1=
b111 F
b1101 N
b1010 C
b1 @
b10 >
b111 <
b1 S
b1100 9
b1000 P
0R
0W
b1000 U
b1 X
b0 A
0B
b1000 E
b111 S
b1110 9
1R
1W
b111 X
#297500
0!
0)
#300000
1!
1)
0=
b1110 N
b0 C
b0 @
b0 >
b0 <
b1111 9
b0 S
b111 P
0R
0W
b111 U
b0 X
b1 A
#302500
0!
0)
#305000
1!
1)
b1 F
b1111 N
0?
b0 .
b1010 Y
b10000 9
0Q
0V
b1001 L
1B
b10 E
b1010 T
b0 (
b1010 L
#307500
0!
0)
#310000
1!
1)
1;
b10000 N
b1001 C
1?
b1010 .
b0 Y
b1 :
b1111 9
b1 S
1Q
1V
b1 X
b10 D
b10100 L
b0 T
b1010 (
b1010 L
#312500
0!
0)
#315000
1!
1)
0;
b10 F
b1111 N
b0 C
0?
b1010 Y
b0 :
b0 S
b10000 9
0Q
0V
b0 X
b1 D
b11 E
b1010 T
b10100 L
#317500
0!
0)
#320000
1!
1)
1;
b10000 N
b1001 C
1?
b10100 .
b0 Y
b10 :
b1111 9
b10 S
1Q
1V
b10 X
b11 D
b11110 L
b0 T
b10100 (
b10100 L
#322500
0!
0)
#325000
1!
1)
0;
b11 F
b1111 N
b0 C
0?
b1010 Y
b0 :
b0 S
b10000 9
0Q
0V
b0 X
b1 D
b100 E
b1010 T
b11110 L
#327500
0!
0)
#330000
1!
1)
1;
b10000 N
b1001 C
1?
b11110 .
b0 Y
b11 :
b1111 9
b11 S
1Q
1V
b11 X
b100 D
b101000 L
b0 T
b11110 (
b11110 L
#332500
0!
0)
#335000
1!
1)
0;
b100 F
b1111 N
b0 C
0?
b1010 Y
b0 :
b0 S
b10000 9
0Q
0V
b0 X
b1 D
b101 E
b1010 T
b101000 L
#337500
0!
0)
#340000
1!
1)
1;
b10000 N
b1001 C
1?
b101000 .
b0 Y
b100 :
b1111 9
b100 S
1Q
1V
b100 X
b101 D
b110010 L
b0 T
b101000 (
b101000 L
#342500
0!
0)
#345000
1!
1)
0;
b101 F
b1111 N
b0 C
0?
b1010 Y
b0 :
b0 S
b10000 9
0Q
0V
b0 X
b1 D
b110 E
b1010 T
b110010 L
#347500
0!
0)
#350000
1!
1)
1;
b10000 N
b1001 C
1?
b110010 .
b0 Y
b101 :
b1111 9
b101 S
1Q
1V
b101 X
b110 D
b111100 L
b0 T
b110010 (
b110010 L
#352500
0!
0)
#355000
1!
1)
0;
b110 F
b1111 N
b0 C
0?
b1010 Y
b0 :
b0 S
b10000 9
0Q
0V
b0 X
b1 D
b111 E
b1010 T
b111100 L
#357500
0!
0)
#360000
1!
1)
1;
b10000 N
b1001 C
1?
b111100 .
b0 Y
b110 :
b1111 9
b110 S
1Q
1V
b110 X
b111 D
b1000110 L
b0 T
b111100 (
b111100 L
#362500
0!
0)
#365000
1!
1)
0;
b111 F
b1111 N
b0 C
0?
b1001 Y
b0 :
b0 S
b10000 9
0Q
0V
b0 X
b1 D
0B
b1000 E
b1001 T
b1000101 L
#367500
0!
0)
#370000
1!
1)
1;
b10000 N
b1001 C
1?
b1000101 .
b0 Y
b111 :
b1111 9
b111 S
1Q
1V
b111 X
b1000 D
b1001110 L
b0 T
b1000101 (
b1000101 L
#372500
0!
0)
#375000
1!
1)
0;
b1000 F
b1111 N
b0 C
0?
b1000 Y
b0 :
b0 S
b10000 9
0Q
0V
b0 X
b1 D
0M
1B
b1001 E
b1000 T
b10001 9
b1001101 L
#377500
0!
0)
#380000
1!
1)
b10001 N
b1001 .
1J
b0 Y
b1011 9
0I
11
b10001 L
b0 T
b1001 (
b1001 L
12
1'
#382500
0!
0)
#385000
1!
1)
1/
0K
b1011 N
b1000 C
1?
1O
b1100 9
b1 S
b1 X
08
01
15
0#
14
0G
0O
1Q
1V
02
0'
#387500
0!
0)
#390000
1!
1)
b0 F
1K
b1100 N
b1001 C
b10 @
b1 >
b111 .
b1010 Y
b0 S
b1101 9
b0 P
1R
1W
b0 U
b0 X
b111 L
18
1M
b1 E
b1010 T
b111 (
05
1#
04
1G
b1010 P
b1010 U
b10001 L
b110 %
b110 ,
#392500
0!
0)
#395000
1!
1)
1=
b1 F
b1101 N
b1010 C
b1 @
b10 >
b1 <
b1 S
b1100 9
b111 P
0R
0W
b111 U
b1 X
b10 A
b10 E
b10 S
b10 X
#397500
0!
0)
#400000
1!
1)
0=
b1100 N
b1001 C
b10 @
b1 >
b0 <
b1101 9
b1 S
b1010 P
1R
1W
b1010 U
b1 X
b1 A
#402500
0!
0)
#405000
1!
1)
1=
b10 F
b1101 N
b1010 C
b1 @
b10 >
b10 <
b1100 9
b111 P
0R
0W
b111 U
b11 A
b11 E
b11 S
b11 X
#407500
0!
0)
#410000
1!
1)
0=
b1100 N
b1001 C
b10 @
b1 >
b0 <
b1101 9
b10 S
b1010 P
1R
1W
b1010 U
b10 X
b1 A
#412500
0!
0)
#415000
1!
1)
1=
b11 F
b1101 N
b1010 C
b1 @
b10 >
b11 <
b1 S
b1100 9
b111 P
0R
0W
b111 U
b1 X
b100 A
b100 E
b100 S
b100 X
#417500
0!
0)
#420000
1!
1)
0=
b1100 N
b1001 C
b10 @
b1 >
b0 <
b1101 9
b11 S
b1010 P
1R
1W
b1010 U
b11 X
b1 A
#422500
0!
0)
#425000
1!
1)
1=
b100 F
b1101 N
b1010 C
b1 @
b10 >
b100 <
b1 S
b1100 9
b111 P
0R
0W
b111 U
b1 X
b101 A
b101 E
b101 S
b101 X
#427500
0!
0)
#430000
1!
1)
0=
b1100 N
b1001 C
b10 @
b1 >
b0 <
b1101 9
b100 S
b1010 P
1R
1W
b1010 U
b100 X
b1 A
#432500
0!
0)
#435000
1!
1)
1=
b101 F
b1101 N
b1010 C
b1 @
b10 >
b101 <
b1 S
b1100 9
b111 P
0R
0W
b111 U
b1 X
b110 A
b110 E
b110 S
b110 X
#437500
0!
0)
#440000
1!
1)
0=
b1100 N
b1001 C
b10 @
b1 >
b1001 Y
b0 <
b1101 9
b101 S
b1010 P
1R
1W
b1010 U
b101 X
b1 A
b1001 T
b1001 P
b1001 U
b10000 L
#442500
0!
0)
#445000
1!
1)
1=
b110 F
b1101 N
b1010 C
b1 @
b10 >
b110 <
b1 S
b1100 9
b111 P
0R
0W
b111 U
b1 X
b111 A
b111 E
b111 S
b111 X
#447500
0!
0)
#450000
1!
1)
0=
b1100 N
b1001 C
b10 @
b1 >
b1000 Y
b0 <
b1101 9
b110 S
b1001 P
1R
1W
b1001 U
b110 X
b1 A
b1000 T
b1000 P
b1000 U
b1111 L
#452500
0!
0)
#455000
1!
1)
1=
b111 F
b1101 N
b1010 C
b1 @
b10 >
b111 <
b1 S
b1100 9
b111 P
0R
0W
b111 U
b1 X
b0 A
0B
b1000 E
b111 S
b1110 9
1R
1W
b111 X
#457500
0!
0)
#460000
1!
1)
0=
b1110 N
b0 C
b0 @
b0 >
b0 <
b1111 9
b0 S
b110 P
0R
0W
b110 U
b0 X
b1 A
#462500
0!
0)
#465000
1!
1)
b1 F
b1111 N
0?
b0 .
b1010 Y
b10000 9
0Q
0V
b1000 L
1B
b10 E
b1010 T
b0 (
b1010 L
#467500
0!
0)
#470000
1!
1)
1;
b10000 N
b1001 C
1?
b1010 .
b0 Y
b1 :
b1111 9
b1 S
1Q
1V
b1 X
b10 D
b10100 L
b0 T
b1010 (
b1010 L
#472500
0!
0)
#475000
1!
1)
0;
b10 F
b1111 N
b0 C
0?
b1010 Y
b0 :
b0 S
b10000 9
0Q
0V
b0 X
b1 D
b11 E
b1010 T
b10100 L
#477500
0!
0)
#480000
1!
1)
1;
b10000 N
b1001 C
1?
b10100 .
b0 Y
b10 :
b1111 9
b10 S
1Q
1V
b10 X
b11 D
b11110 L
b0 T
b10100 (
b10100 L
#482500
0!
0)
#485000
1!
1)
0;
b11 F
b1111 N
b0 C
0?
b1010 Y
b0 :
b0 S
b10000 9
0Q
0V
b0 X
b1 D
b100 E
b1010 T
b11110 L
#487500
0!
0)
#490000
1!
1)
1;
b10000 N
b1001 C
1?
b11110 .
b0 Y
b11 :
b1111 9
b11 S
1Q
1V
b11 X
b100 D
b101000 L
b0 T
b11110 (
b11110 L
#492500
0!
0)
#495000
1!
1)
0;
b100 F
b1111 N
b0 C
0?
b1010 Y
b0 :
b0 S
b10000 9
0Q
0V
b0 X
b1 D
b101 E
b1010 T
b101000 L
#497500
0!
0)
#500000
1!
1)
1;
b10000 N
b1001 C
1?
b101000 .
b0 Y
b100 :
b1111 9
b100 S
1Q
1V
b100 X
b101 D
b110010 L
b0 T
b101000 (
b101000 L
#502500
0!
0)
#505000
1!
1)
0;
b101 F
b1111 N
b0 C
0?
b1010 Y
b0 :
b0 S
b10000 9
0Q
0V
b0 X
b1 D
b110 E
b1010 T
b110010 L
#507500
0!
0)
#510000
1!
1)
1;
b10000 N
b1001 C
1?
b110010 .
b0 Y
b101 :
b1111 9
b101 S
1Q
1V
b101 X
b110 D
b111100 L
b0 T
b110010 (
b110010 L
#512500
0!
0)
#515000
1!
1)
0;
b110 F
b1111 N
b0 C
0?
b1001 Y
b0 :
b0 S
b10000 9
0Q
0V
b0 X
b1 D
b111 E
b1001 T
b111011 L
#517500
0!
0)
#520000
1!
1)
1;
b10000 N
b1001 C
1?
b111011 .
b0 Y
b110 :
b1111 9
b110 S
1Q
1V
b110 X
b111 D
b1000100 L
b0 T
b111011 (
b111011 L
#522500
0!
0)
#525000
1!
1)
0;
b111 F
b1111 N
b0 C
0?
b1000 Y
b0 :
b0 S
b10000 9
0Q
0V
b0 X
b1 D
0B
b1000 E
b1000 T
b1000011 L
#527500
0!
0)
#530000
1!
1)
1;
b10000 N
b1001 C
1?
b1000011 .
b0 Y
b111 :
b1111 9
b111 S
1Q
1V
b111 X
b1000 D
b1001011 L
b0 T
b1000011 (
b1000011 L
#532500
0!
0)
#535000
1!
1)
0;
b1000 F
b1111 N
b0 C
0?
b111 Y
b0 :
b0 S
b10000 9
0Q
0V
b0 X
b1 D
0M
1B
b1001 E
b111 T
b10001 9
b1001010 L
#537500
0!
0)
#540000
1!
1)
b10001 N
b1001 .
0J
b0 Y
b1011 9
1I
11
b10000 L
b0 T
b1001 (
b1001 L
12
1'
#542500
0!
0)
#545000
1!
1)
0/
0K
b1011 N
b1000 C
1?
1O
b1100 9
b1 S
b1 X
08
01
15
0#
14
0G
0O
1Q
1V
02
0'
#547500
0!
0)
#550000
1!
1)
b0 F
1K
b1100 N
b1001 C
b10 @
b1 >
b110 .
b1010 Y
b0 S
b1101 9
b0 P
1R
1W
b0 U
b0 X
b110 L
18
1M
b1 E
b1010 T
b110 (
05
1#
04
1G
b1010 P
b1010 U
b10000 L
b101 %
b101 ,
#552500
0!
0)
#555000
1!
1)
1=
b1 F
b1101 N
b1010 C
b1 @
b10 >
b1 <
b1 S
b1100 9
b110 P
0R
0W
b110 U
b1 X
b10 A
b10 E
b10 S
b10 X
#557500
0!
0)
#560000
1!
1)
0=
b1100 N
b1001 C
b10 @
b1 >
b0 <
b1101 9
b1 S
b1010 P
1R
1W
b1010 U
b1 X
b1 A
#562500
0!
0)
#565000
1!
1)
1=
b10 F
b1101 N
b1010 C
b1 @
b10 >
b10 <
b1100 9
b110 P
0R
0W
b110 U
b11 A
b11 E
b11 S
b11 X
#567500
0!
0)
#570000
1!
1)
0=
b1100 N
b1001 C
b10 @
b1 >
b0 <
b1101 9
b10 S
b1010 P
1R
1W
b1010 U
b10 X
b1 A
#572500
0!
0)
#575000
1!
1)
1=
b11 F
b1101 N
b1010 C
b1 @
b10 >
b11 <
b1 S
b1100 9
b110 P
0R
0W
b110 U
b1 X
b100 A
b100 E
b100 S
b100 X
#577500
0!
0)
#580000
1!
1)
0=
b1100 N
b1001 C
b10 @
b1 >
b0 <
b1101 9
b11 S
b1010 P
1R
1W
b1010 U
b11 X
b1 A
#582500
0!
0)
#585000
1!
1)
1=
b100 F
b1101 N
b1010 C
b1 @
b10 >
b100 <
b1 S
b1100 9
b110 P
0R
0W
b110 U
b1 X
b101 A
b101 E
b101 S
b101 X
#587500
0!
0)
#590000
1!
1)
0=
b1100 N
b1001 C
b10 @
b1 >
b1001 Y
b0 <
b1101 9
b100 S
b1010 P
1R
1W
b1010 U
b100 X
b1 A
b1001 T
b1001 P
b1001 U
b1111 L
#592500
0!
0)
#595000
1!
1)
1=
b101 F
b1101 N
b1010 C
b1 @
b10 >
b101 <
b1 S
b1100 9
b110 P
0R
0W
b110 U
b1 X
b110 A
b110 E
b110 S
b110 X
#597500
0!
0)
#600000
1!
1)
0=
b1100 N
b1001 C
b10 @
b1 >
b1000 Y
b0 <
b1101 9
b101 S
b1001 P
1R
1W
b1001 U
b101 X
b1 A
b1000 T
b1000 P
b1000 U
b1110 L
#602500
0!
0)
#605000
1!
1)
1=
b110 F
b1101 N
b1010 C
b1 @
b10 >
b110 <
b1 S
b1100 9
b110 P
0R
0W
b110 U
b1 X
b111 A
b111 E
b111 S
b111 X
#607500
0!
0)
#610000
1!
1)
0=
b1100 N
b1001 C
b10 @
b1 >
b111 Y
b0 <
b1101 9
b110 S
b1000 P
1R
1W
b1000 U
b110 X
b1 A
b111 T
b111 P
b111 U
b1101 L
#612500
0!
0)
#615000
1!
1)
1=
b111 F
b1101 N
b1010 C
b1 @
b10 >
b111 <
b1 S
b1100 9
b110 P
0R
0W
b110 U
b1 X
b0 A
0B
b1000 E
b111 S
b1110 9
1R
1W
b111 X
#617500
0!
0)
#620000
1!
1)
0=
b1110 N
b0 C
b0 @
b0 >
b0 <
b1111 9
b0 S
b101 P
0R
0W
b101 U
b0 X
b1 A
#622500
0!
0)
#625000
1!
1)
b1 F
b1111 N
0?
b0 .
b1010 Y
b10000 9
0Q
0V
b111 L
1B
b10 E
b1010 T
b0 (
b1010 L
#627500
0!
0)
#630000
1!
1)
1;
b10000 N
b1001 C
1?
b1010 .
b0 Y
b1 :
b1111 9
b1 S
1Q
1V
b1 X
b10 D
b10100 L
b0 T
b1010 (
b1010 L
#632500
0!
0)
#635000
1!
1)
0;
b10 F
b1111 N
b0 C
0?
b1010 Y
b0 :
b0 S
b10000 9
0Q
0V
b0 X
b1 D
b11 E
b1010 T
b10100 L
#637500
0!
0)
#640000
1!
1)
1;
b10000 N
b1001 C
1?
b10100 .
b0 Y
b10 :
b1111 9
b10 S
1Q
1V
b10 X
b11 D
b11110 L
b0 T
b10100 (
b10100 L
#642500
0!
0)
#645000
1!
1)
0;
b11 F
b1111 N
b0 C
0?
b1010 Y
b0 :
b0 S
b10000 9
0Q
0V
b0 X
b1 D
b100 E
b1010 T
b11110 L
#647500
0!
0)
#650000
1!
1)
1;
b10000 N
b1001 C
1?
b11110 .
b0 Y
b11 :
b1111 9
b11 S
1Q
1V
b11 X
b100 D
b101000 L
b0 T
b11110 (
b11110 L
#652500
0!
0)
#655000
1!
1)
0;
b100 F
b1111 N
b0 C
0?
b1010 Y
b0 :
b0 S
b10000 9
0Q
0V
b0 X
b1 D
b101 E
b1010 T
b101000 L
#657500
0!
0)
