tutorial/stratus_examples/lab_loop_unrolling/bdw_work/sims/FLAT_UNROLL_ALL_V/verilog.vcd
$date
    Nov 17, 2020  22:54:42
$end
$version
    TOOL:	ncsim(64)	15.20-s016
$end
$timescale
    1 ps
$end

$scope module top $end

$scope module dut0 $end
$var reg       1 !    clk  $end
$var reg       1 "    rst  $end
$var wire      1 #    din_busy  $end
$var reg       1 $    din_vld  $end
$var reg       8 %    din_data [7:0] $end
$var reg       1 &    dout_busy  $end
$var wire      1 '    dout_vld  $end
$var wire     11 (    dout_data [10:0] $end

$scope module dut0 $end
$var wire      1 )    clk  $end
$var wire      1 *    rst  $end
$var wire      1 +    din_vld  $end
$var wire      8 ,    din_data [7:0] $end
$var wire      1 -    dout_busy  $end
$var wire      1 #    din_busy  $end
$var wire      1 '    dout_vld  $end
$var reg      11 .    dout_data [10:0] $end
$var reg       1 /    dout_m_req_m_prev_trig_req  $end
$var reg       1 0    dout_m_unacked_req  $end
$var wire      1 1    dut_Xor_1Ux1U_1U_4_9_out1  $end
$var wire      1 2    dut_Or_1Ux1U_1U_4_10_out1  $end
$var reg       1 3    dut_N_Muxb_1_2_0_4_1_out1  $end
$var wire      1 4    dut_And_1Ux1U_1U_4_5_out1  $end
$var wire      1 5    dut_Not_1U_1U_4_4_out1  $end
$var reg       1 6    din_m_unvalidated_req  $end
$var wire      1 7    dut_Or_1Ux1U_1U_4_2_out1  $end
$var wire      1 8    dut_And_1Ux1U_1U_4_3_out1  $end
$var reg       4 9    global_state_next [3:0] $end
$var reg       8 :    dut_Add_11Ux8U_11U_4_15_in1 [7:0] $end
$var reg       3 ;    gs_ctrl1 [2:0] $end
$var reg      11 <    dut_Add_11Ux8U_11U_4_15_in2 [10:0] $end
$var reg       1 =    gs_ctrl0  $end
$var reg       8 >    s_reg_25 [7:0] $end
$var reg       8 ?    s_reg_24 [7:0] $end
$var reg       8 @    s_reg_23 [7:0] $end
$var reg       8 A    s_reg_22 [7:0] $end
$var reg       8 B    s_reg_21 [7:0] $end
$var reg       8 C    s_reg_20 [7:0] $end
$var reg       8 D    s_reg_19 [7:0] $end
$var wire      1 E    dut_Not_1U_1U_4_6_out1  $end
$var wire      1 F    dut_And_1Ux1U_1U_4_11_out1  $end
$var wire      1 G    dut_Not_1U_1U_4_12_out1  $end
$var reg       1 H    dout_m_req_m_trig_req  $end
$var reg       1 I    din_m_busy_req_0  $end
$var wire     11 J    dut_Add_11Ux8U_11U_4_15_out1 [10:0] $end
$var wire     10 K    dut_Add_9Ux8U_10U_4_14_out1 [9:0] $end
$var wire      9 L    dut_Add_8Ux8U_9U_4_13_out1 [8:0] $end
$var reg       4 M    global_state [3:0] $end
$var reg       1 N    stall0  $end
$upscope $end

$upscope $end

$upscope $end

$enddefinitions $end
$dumpvars
1!
0"
1#
0$
b0 %
1&
0'
bx (
1)
0*
0+
b0 ,
1-
bx .
0/
00
01
02
13
04
05
16
17
18
b1 9
bx :
b0 ;
bx <
0=
bx >
bx ?
bx @
bx A
bx B
bx C
bx D
1E
0F
1G
0H
1I
bx J
bx K
bx L
b0 M
0N
$end
#2500
0!
0)
#5000
1!
1)
#7500
0!
0)
#10000
1!
1)
1"
1*
#12500
0!
0)
#15000
1!
1)
b1 M
0I
1N
b10 9
03
08
15
0#
b1010 %
1$
0&
0-
1+
b1010 ,
14
0E
13
0N
#17500
0!
0)
#20000
1!
1)
b10 M
b1010 A
b1010 @
b1010 ?
b1010 >
1I
1H
b1010 C
b1010 B
b1010 .
b1010 D
b11 9
b1010 :
b1010 <
b10100 J
b10100 K
b10100 L
0G
11
18
b1010 (
05
1#
04
1E
12
1'
b1001 %
b1001 ,
#22500
0!
0)
#25000
1!
1)
1/
b11 M
0I
b10100 .
1N
b100 9
b10100 <
b11110 J
b11110 K
08
01
b10100 (
15
0#
14
0E
0N
02
0'
#27500
0!
0)
#30000
1!
1)
b100 M
b1001 >
1I
b11110 .
b101 9
b11110 <
b101000 J
b101000 K
18
b11110 (
05
1#
04
1E
b1000 %
b1000 ,
#32500
0!
0)
#35000
1!
1)
b101 M
1=
b1 ;
b101000 .
b110 9
b101000 <
b110010 J
b110010 K
b101000 (
#37500
0!
0)
#40000
1!
1)
b110 M
0=
b10 ;
b110010 .
b111 9
b110010 <
b111100 J
b111100 K
b110010 (
#42500
0!
0)
#45000
1!
1)
b111 M
b11 ;
b111100 .
b1000 9
b111100 <
b1000110 J
b1000110 K
b111100 (
#47500
0!
0)
#50000
1!
1)
b1000 M
b100 ;
b1000110 .
b1001 9
b1001 :
b1000110 <
b1001111 J
b1010000 K
b1000110 (
#52500
0!
0)
#55000
1!
1)
b1001 M
b0 ;
0H
b1001 .
b11 9
b1010 :
b1001 <
b10011 J
b10011 K
1G
11
b1001 (
12
1'
#57500
0!
0)
#60000
1!
1)
0/
b11 M
b1001 ?
0I
b10100 .
1N
b100 9
b10100 <
b11110 J
b11110 K
08
01
b10100 (
15
0#
14
0E
0N
02
0'
#62500
0!
0)
#65000
1!
1)
b100 M
b1000 >
1I
b11110 .
b101 9
b11110 <
b101000 J
b101000 K
18
b11110 (
05
1#
04
1E
b111 %
b111 ,
#67500
0!
0)
#70000
1!
1)
b101 M
1=
b1 ;
b101000 .
b110 9
b101000 <
b110010 J
b110010 K
b101000 (
#72500
0!
0)
#75000
1!
1)
b110 M
0=
b10 ;
b110010 .
b111 9
b110010 <
b111100 J
b111100 K
b110010 (
#77500
0!
0)
#80000
1!
1)
b111 M
b11 ;
b111100 .
b1000 9
b1001 :
b111100 <
b1000101 J
b1000110 K
b111100 (
#82500
0!
0)
#85000
1!
1)
b1000 M
b100 ;
b1000101 .
b1001 9
b1000 :
b1000101 <
b1001101 J
b1001111 K
b1000101 (
#87500
0!
0)
#90000
1!
1)
b1001 M
b0 ;
1H
b1001 .
b11 9
b1010 :
b1001 <
b10011 J
b10011 K
0G
11
b1001 (
12
1'
#92500
0!
0)
#95000
1!
1)
1/
b11 M
b1001 @
b1000 ?
0I
b10100 .
1N
b100 9
b10100 <
b11110 J
b11110 K
08
01
b10100 (
15
0#
14
0E
0N
02
0'
#97500
0!
0)
#100000
1!
1)
b100 M
b111 >
1I
b11110 .
b101 9
b11110 <
b101000 J
b101000 K
18
b11110 (
05
1#
04
1E
b110 %
b110 ,
#102500
0!
0)
#105000
1!
1)
b101 M
1=
b1 ;
b101000 .
b110 9
b101000 <
b110010 J
b110010 K
b101000 (
#107500
0!
0)
#110000
1!
1)
b110 M
0=
b10 ;
b110010 .
b111 9
b110010 <
b1001 :
b111011 J
b111100 K
b110010 (
#112500
0!
0)
#115000
1!
1)
b111 M
b11 ;
b111011 .
b1000 9
b1000 :
b111011 <
b1000011 J
b1000101 K
b111011 (
#117500
0!
0)
#120000
1!
1)
b1000 M
b100 ;
b1000011 .
b1001 9
b111 :
b1000011 <
b1001010 J
b1001101 K
b1000011 (
#122500
0!
0)
#125000
1!
1)
b1001 M
b0 ;
0H
b1001 .
b11 9
b1010 :
b1001 <
b10011 J
b10011 K
1G
11
b1001 (
12
1'
#127500
0!
0)
#130000
1!
1)
0/
b11 M
b1001 A
b1000 @
b111 ?
0I
b10100 .
1N
b100 9
b10100 <
b11110 J
b11110 K
08
01
b10100 (
15
0#
14
0E
0N
02
0'
#132500
0!
0)
#135000
1!
1)
b100 M
b110 >
1I
b11110 .
b101 9
b11110 <
b101000 J
b101000 K
18
b11110 (
05
1#
04
1E
b101 %
b101 ,
#137500
0!
0)
#140000
1!
1)
b101 M
1=
b1 ;
b101000 .
b110 9
b101000 <
b1001 :
b110001 J
b110010 K
b101000 (
#142500
0!
0)
#145000
1!
1)
b110 M
0=
b10 ;
b110001 .
b111 9
b110001 <
b1000 :
b111001 J
b111011 K
b110001 (
#147500
0!
0)
#150000
1!
1)
b111 M
b11 ;
b111001 .
b1000 9
b111 :
b111001 <
b1000000 J
b1000011 K
b111001 (
#152500
0!
0)
#155000
1!
1)
b1000 M
b100 ;
b1000000 .
b1001 9
b110 :
b1000000 <
b1000110 J
b1001010 K
b1000000 (
#157500
0!
0)
#160000
1!
1)
b1001 M
b0 ;
1H
b1000 .
b11 9
b1010 :
b1000 <
b10010 J
b10010 K
0G
11
b1000 (
12
1'
#162500
0!
0)
#165000
1!
1)
1/
b11 M
b1000 A
b111 @
b110 ?
0I
b1001 B
b10100 .
1N
b100 9
b1001 :
b10100 <
b11101 J
b11110 K
08
01
b10100 (
15
0#
14
0E
0N
02
0'
#167500
0!
0)
#170000
1!
1)
b100 M
b101 >
1I
b11110 .
b101 9
b11110 <
b100111 J
b101000 K
18
b11110 (
05
1#
04
1E
b100 %
b100 ,
#172500
0!
0)
#175000
1!
1)
b101 M
1=
b1 ;
b100111 .
b110 9
b100111 <
b1000 :
b101111 J
b110001 K
b100111 (
#177500
0!
0)
#180000
1!
1)
b110 M
0=
b10 ;
b101111 .
b111 9
b101111 <
b111 :
b110110 J
b111001 K
b101111 (
#182500
0!
0)
#185000
1!
1)
b111 M
b11 ;
b110110 .
b1000 9
b110 :
b110110 <
b111100 J
b1000000 K
b110110 (
#187500
0!
0)
#190000
1!
1)
b1000 M
b100 ;
b111100 .
b1001 9
b101 :
b111100 <
b1000001 J
b1000110 K
b111100 (
#192500
0!
0)
#195000
1!
1)
b1001 M
b0 ;
0H
b1000 .
b11 9
b1001 :
b1000 <
b10001 J
b10010 K
1G
11
b1000 (
12
1'
#197500
0!
0)
#200000
1!
1)
0/
b11 M
b111 A
b110 @
b101 ?
0I
b1001 C
b1000 B
b10100 .
1N
b100 9
b1000 :
b10100 <
b11100 J
b11101 K
b10011 L
08
01
b10100 (
15
0#
14
0E
0N
02
0'
#202500
0!
0)
#205000
1!
1)
b100 M
b100 >
1I
b11101 .
b101 9
b11101 <
b100101 J
b100110 K
18
b11101 (
05
1#
04
1E
b11 %
b11 ,
#207500
0!
0)
#210000
1!
1)
b101 M
1=
b1 ;
b100101 .
b110 9
b100101 <
b111 :
b101100 J
b101110 K
b100101 (
#212500
0!
0)
#215000
1!
1)
b110 M
0=
b10 ;
b101100 .
b111 9
b101100 <
b110 :
b110010 J
b110101 K
b101100 (
#217500
0!
0)
#220000
1!
1)
b111 M
b11 ;
b110010 .
b1000 9
b101 :
b110010 <
b110111 J
b111011 K
b110010 (
#222500
0!
0)
#225000
1!
1)
b1000 M
b100 ;
b110111 .
b1001 9
b100 :
b110111 <
b111011 J
b1000000 K
b110111 (
#227500
0!
0)
#230000
1!
1)
b1001 M
b0 ;
1H
b111 .
b11 9
b1000 :
b111 <
b1111 J
b10000 K
0G
11
b111 (
12
1'
#232500
0!
0)
#235000
1!
1)
1/
b11 M
b110 A
b101 @
b100 ?
0I
b1000 C
b111 B
b10011 .
b1001 D
1N
b100 9
b111 :
b10011 <
b11010 J
b11011 K
b10001 L
08
01
b10011 (
15
0#
14
0E
0N
02
0'
#237500
0!
0)
#240000
1!
1)
b100 M
b11 >
1I
b11011 .
b101 9
b11011 <
b100010 J
b100011 K
18
b11011 (
05
1#
04
1E
b10 %
b10 ,
#242500
0!
0)
#245000
1!
1)
b101 M
1=
b1 ;
b100010 .
b110 9
b100010 <
b110 :
b101000 J
b101010 K
b100010 (
#247500
0!
0)
#250000
1!
1)
b110 M
0=
b10 ;
b101000 .
b111 9
b101000 <
b101 :
b101101 J
b110000 K
b101000 (
#252500
0!
0)
#255000
1!
1)
b111 M
b11 ;
b101101 .
b1000 9
b100 :
b101101 <
b110001 J
b110101 K
b101101 (
#257500
0!
0)
#260000
1!
1)
b1000 M
b100 ;
b110001 .
b1001 9
b11 :
b110001 <
b110100 J
b111001 K
b110001 (
#262500
0!
0)
#265000
1!
1)
b1001 M
b0 ;
0H
b110 .
b11 9
b111 :
b110 <
b1101 J
b1110 K
1G
11
b110 (
12
1'
#267500
0!
0)
#270000
1!
1)
0/
b11 M
b101 A
b100 @
b11 ?
0I
b111 C
b110 B
b10001 .
b1000 D
1N
b100 9
b110 :
b10001 <
b10111 J
b11000 K
b1111 L
08
01
b10001 (
15
0#
14
0E
0N
02
0'
#272500
0!
0)
#275000
1!
1)
b100 M
b10 >
1I
b11000 .
b101 9
b11000 <
b11110 J
b11111 K
18
b11000 (
05
1#
04
1E
b1 %
b1 ,
#277500
0!
0)
#280000
1!
1)
b101 M
1=
b1 ;
b11110 .
b110 9
b11110 <
b101 :
b100011 J
b100101 K
b11110 (
#282500
0!
0)
#285000
1!
1)
b110 M
0=
b10 ;
b100011 .
b111 9
b100011 <
b100 :
b100111 J
b101010 K
b100011 (
#287500
0!
0)
#290000
1!
1)
b111 M
b11 ;
b100111 .
b1000 9
b11 :
b100111 <
b101010 J
b101110 K
b100111 (
#292500
0!
0)
#295000
1!
1)
b1000 M
b100 ;
b101010 .
b1001 9
b10 :
b101010 <
b101100 J
b110001 K
b101010 (
#297500
0!
0)
#300000
1!
1)
b1001 M
b0 ;
1H
b101 .
b11 9
b110 :
b101 <
b1011 J
b1100 K
0G
11
b101 (
12
1'
#302500
0!
0)
#305000
1!
1)
1/
b11 M
b100 A
b11 @
b10 ?
0I
b110 C
b101 B
b1111 .
b111 D
1N
b100 9
b101 :
b1111 <
b10100 J
b10101 K
b1101 L
08
01
b1111 (
15
0#
14
0E
0N
02
0'
#307500
0!
0)
#310000
1!
1)
b100 M
b1 >
1I
b10101 .
b101 9
b10101 <
b11010 J
b11011 K
18
b10101 (
05
1#
04
1E
b1010 %
b1010 ,
#312500
0!
0)
#315000
1!
1)
b101 M
1=
b1 ;
b11010 .
b110 9
b11010 <
b100 :
b11110 J
b100000 K
b11010 (
#317500
0!
0)
#320000
1!
1)
b110 M
0=
b10 ;
b11110 .
b111 9
b11110 <
b11 :
b100001 J
b100100 K
b11110 (
#322500
0!
0)
#325000
1!
1)
b111 M
b11 ;
b100001 .
b1000 9
b10 :
b100001 <
b100011 J
b100111 K
b100001 (
#327500
0!
0)
#330000
1!
1)
b1000 M
b100 ;
b100011 .
b1001 9
b1 :
b100011 <
b100100 J
b101001 K
b100011 (
#332500
0!
0)
#335000
1!
1)
b1001 M
b0 ;
0H
b100 .
b11 9
b101 :
b100 <
b1001 J
b1010 K
1G
11
b100 (
12
1'
#337500
0!
0)
#340000
1!
1)
0/
b11 M
b11 A
b10 @
b1 ?
0I
b101 C
b100 B
b1101 .
b110 D
1N
b100 9
b100 :
b1101 <
b10001 J
b10010 K
b1011 L
08
01
b1101 (
15
0#
14
0E
0N
02
0'
#342500
0!
0)
#345000
1!
1)
b100 M
b1010 >
1I
b10010 .
b101 9
b10010 <
b10110 J
b10111 K
18
b10010 (
05
1#
04
1E
#347500
0!
0)
#350000
1!
1)
b101 M
1=
b1 ;
b10110 .
b110 9
b10110 <
b11 :
b11001 J
b11011 K
b10110 (
#352500
0!
0)
#355000
1!
1)
b110 M
0=
b10 ;
b11001 .
b111 9
b11001 <
b10 :
b11011 J
b11110 K
b11001 (
#357500
0!
0)
#360000
1!
1)
b111 M
b11 ;
b11011 .
b1000 9
b1 :
b11011 <
b11100 J
b100000 K
b11011 (
#362500
0!
0)
#365000
1!
1)
b1000 M
b100 ;
b11100 .
b1001 9
b1010 :
b11100 <
b100110 J
b100001 K
b11100 (
#367500
0!
0)
#370000
1!
1)
b1001 M
b0 ;
1H
b100 .
b11 9
b100 :
b100 <
b1000 J
b1001 K
0G
11
b100 (
12
1'
#372500
0!
0)
#375000
1!
1)
1/
b11 M
b10 A
b1 @
b1010 ?
0I
b100 C
b11 B
b1011 .
b101 D
1N
b100 9
b11 :
b1011 <
b1110 J
b1111 K
b1001 L
08
01
b1011 (
15
0#
14
0E
0N
02
0'
#377500
0!
0)
#380000
1!
1)
b100 M
1I
b1111 .
b101 9
b1111 <
b10010 J
b10011 K
18
b1111 (
05
1#
04
1E
#382500
0!
0)
#385000
1!
1)
b101 M
1=
b1 ;
b10010 .
b110 9
b10010 <
b10 :
b10100 J
b10110 K
b10010 (
#387500
0!
0)
#390000
1!
1)
b110 M
0=
b10 ;
b10100 .
b111 9
b10100 <
b1 :
b10101 J
b11000 K
b10100 (
#392500
0!
0)
#395000
1!
1)
b111 M
b11 ;
b10101 .
b1000 9
b1010 :
b10101 <
b11111 J
b11001 K
b10101 (
#397500
0!
0)
#400000
1!
1)
b1000 M
b100 ;
b11111 .
b1001 9
b11111 <
b101001 J
b100011 K
b11111 (
#402500
0!
0)
#405000
1!
1)
b1001 M
b0 ;
0H
b101 .
b11 9
b11 :
b101 <
b1000 J
b1001 K
1G
11
b101 (
12
1'
#407500
0!
0)
#410000
1!
1)
0/
b11 M
b1 A
b1010 @
0I
b11 C
b10 B
b1001 .
b100 D
1N
b100 9
b10 :
b1001 <
b1011 J
b1100 K
b111 L
08
01
b1001 (
15
0#
14
0E
0N
02
0'
#412500
0!
0)
#415000
1!
1)
b100 M
1I
b1100 .
b101 9
b1100 <
b1110 J
b1111 K
18
b1100 (
05
1#
04
1E
#417500
0!
0)
#420000
1!
1)
b101 M
1=
b1 ;
b1110 .
b110 9
b1110 <
b1 :
b1111 J
b10001 K
b1110 (
#422500
0!
0)
#425000
1!
1)
b110 M
0=
b10 ;
b1111 .
b111 9
b1111 <
b1010 :
b11001 J
b10010 K
b1111 (
#427500
0!
0)
#430000
1!
1)
b111 M
b11 ;
b11001 .
b1000 9
b11001 <
b100011 J
b11100 K
b11001 (
#432500
0!
0)
#435000
1!
1)
b1000 M
b100 ;
b100011 .
b1001 9
b100011 <
b101101 J
b100110 K
b100011 (
#437500
0!
0)
#440000
1!
1)
b1001 M
b0 ;
1H
b101 .
b11 9
b10 :
b101 <
b111 J
b1000 K
0G
11
b101 (
12
1'
#442500
0!
0)
#445000
1!
1)
1/
b11 M
b1010 A
0I
b10 C
b1 B
b111 .
b11 D
1N
b100 9
b1 :
b111 <
b1000 J
b1001 K
b101 L
08
01
b111 (
15
0#
14
0E
0N
02
0'
#447500
0!
0)
#450000
1!
1)
b100 M
1I
b1001 .
b101 9
b1001 <
b1010 J
b1011 K
18
b1001 (
05
1#
04
1E
#452500
0!
0)
#455000
1!
1)
b101 M
1=
b1 ;
b1010 .
b110 9
b1010 <
b1010 :
b10100 J
b1100 K
b1010 (
#457500
0!
0)
#460000
1!
1)
b110 M
0=
b10 ;
b10100 .
b111 9
b10100 <
b11110 J
b10110 K
b10100 (
#462500
0!
0)
#465000
1!
1)
b111 M
b11 ;
b11110 .
b1000 9
b11110 <
b101000 J
b100000 K
b11110 (
#467500
0!
0)
#470000
1!
1)
b1000 M
b100 ;
b101000 .
b1001 9
b101000 <
b110010 J
b101010 K
b101000 (
#472500
0!
0)
#475000
1!
1)
b1001 M
b0 ;
0H
b110 .
b11 9
b1 :
b110 <
b111 J
b1000 K
1G
11
b110 (
12
1'
#477500
0!
0)
#480000
1!
1)
0/
b11 M
0I
b1 C
b1010 B
b101 .
b10 D
1N
b100 9
b1010 :
b101 <
b1111 J
b110 K
b11 L
08
01
b101 (
15
0#
14
0E
0N
02
0'
#482500
0!
0)
#485000
1!
1)
b100 M
1I
b110 .
b101 9
b110 <
b10000 J
b111 K
18
b110 (
05
1#
04
1E
#487500
0!
0)
#490000
1!
1)
b101 M
1=
b1 ;
b10000 .
b110 9
b10000 <
b11010 J
b10001 K
b10000 (
#492500
0!
0)
#495000
1!
1)
b110 M
0=
b10 ;
b11010 .
b111 9
b11010 <
b100100 J
b11011 K
b11010 (
#497500
0!
0)
#500000
1!
1)
b111 M
b11 ;
b100100 .
b1000 9
b100100 <
b101110 J
b100101 K
b100100 (
#502500
0!
0)
#505000
1!
1)
b1000 M
b100 ;
b101110 .
b1001 9
b101110 <
b111000 J
b101111 K
b101110 (
#507500
0!
0)
#510000
1!
1)
b1001 M
b0 ;
1H
b111 .
b11 9
b111 <
b10001 J
b1000 K
0G
11
b111 (
12
1'
#512500
0!
0)
#515000
1!
1)
1/
b11 M
0I
b1010 C
b11 .
b1 D
1N
b100 9
b11 <
b1101 J
b1101 K
b1011 L
08
01
b11 (
15
0#
14
0E
0N
02
0'
#517500
0!
0)
#520000
1!
1)
b100 M
1I
b1101 .
b101 9
b1101 <
b10111 J
b10111 K
18
b1101 (
05
1#
04
1E
#522500
0!
0)
#525000
1!
1)
b101 M
1=
b1 ;
b10111 .
b110 9
b10111 <
b100001 J
b100001 K
b10111 (
#527500
0!
0)
#530000
1!
1)
b110 M
0=
b10 ;
b100001 .
b111 9
b100001 <
b101011 J
b101011 K
b100001 (
#532500
0!
0)
#535000
1!
1)
b111 M
b11 ;
b101011 .
b1000 9
b101011 <
b110101 J
b110101 K
b101011 (
#537500
0!
0)
#540000
1!
1)
b1000 M
b100 ;
b110101 .
b1001 9
b110101 <
b111111 J
b111111 K
b110101 (
#542500
0!
0)
#545000
1!
1)
b1001 M
b0 ;
0H
b111 .
b11 9
b111 <
b10001 J
b10001 K
1G
11
b111 (
12
1'
#547500
0!
0)
#550000
1!
1)
0/
b11 M
0I
b1011 .
b1010 D
1N
b100 9
b1011 <
b10101 J
b10100 L
b10101 K
08
01
b1011 (
15
0#
14
0E
0N
02
0'
#552500
0!
0)
#555000
1!
1)
b100 M
1I
b10101 .
b101 9
b10101 <
b11111 J
b11111 K
18
b10101 (
05
1#
04
1E
#557500
0!
0)
#560000
1!
1)
b101 M
1=
b1 ;
b11111 .
b110 9
b11111 <
b101001 J
b101001 K
b11111 (
#562500
0!
0)
#565000
1!
1)
b110 M
0=
b10 ;
b101001 .
b111 9
b101001 <
b110011 J
b110011 K
b101001 (
#567500
0!
0)
#570000
1!
1)
b111 M
b11 ;
b110011 .
b1000 9
b110011 <
b111101 J
b111101 K
b110011 (
#572500
0!
0)
#575000
1!
1)
b1000 M
b100 ;
b111101 .
b1001 9
b111101 <
b1000111 J
b1000111 K
b111101 (
#577500
0!
0)
#580000
1!
1)
b1001 M
b0 ;
1H
b1000 .
b11 9
b1000 <
b10010 J
b10010 K
0G
11
b1000 (
12
1'
#582500
0!
0)
#585000
1!
1)
1/
b11 M
0I
b10100 .
1N
b100 9
b10100 <
b11110 J
b11110 K
08
01
b10100 (
15
0#
14
0E
0N
02
0'
#587500
0!
0)
#590000
1!
1)
b100 M
1I
b11110 .
b101 9
b11110 <
b101000 J
b101000 K
18
b11110 (
05
1#
04
1E
#592500
0!
0)
#595000
1!
1)
b101 M
1=
b1 ;
b101000 .
b110 9
b101000 <
b110010 J
b110010 K
b101000 (
#597500
0!
0)
#600000
1!
1)
b110 M
0=
b10 ;
b110010 .
b111 9
b110010 <
b111100 J
b111100 K
b110010 (
#602500
0!
0)
#605000
1!
1)
b111 M
b11 ;
b111100 .
b1000 9
b111100 <
b1000110 J
b1000110 K
b111100 (
#607500
0!
0)
#610000
1!
1)
b1000 M
b100 ;
b1000110 .
b1001 9
b1000110 <
b1010000 J
b1010000 K
b1000110 (
#612500
0!
0)
#615000
1!
1)
b1001 M
b0 ;
0H
b1010 .
b11 9
b1010 <
b10100 J
b10100 K
1G
11
b1010 (
12
1'
#617500
0!
0)
#620000
1!
1)
0/
b11 M
0I
b10100 .
1N
b100 9
b10100 <
b11110 J
b11110 K
08
01
b10100 (
15
0#
14
0E
0N
02
0'
#622500
0!
0)
#625000
1!
1)
b100 M
1I
b11110 .
b101 9
b11110 <
b101000 J
b101000 K
18
b11110 (
05
1#
04
1E
#627500
0!
0)
#630000
1!
1)
b101 M
1=
b1 ;
b101000 .
b110 9
b101000 <
b110010 J
b110010 K
b101000 (
#632500
0!
0)
#635000
1!
1)
b110 M
0=
b10 ;
b110010 .
b111 9
b110010 <
b111100 J
b111100 K
b110010 (
#637500
0!
0)
#640000
1!
1)
b111 M
b11 ;
b111100 .
b1000 9
b111100 <
b1000110 J
b1000110 K
b111100 (
#642500
0!
0)
#645000
1!
1)
b1000 M
b100 ;
b1000110 .
b1001 9
b1000110 <
b1010000 J
b1010000 K
b1000110 (
#647500
0!
0)
#650000
1!
1)
b1001 M
b0 ;
1H
b1010 .
b11 9
b1010 <
b10100 J
b10100 K
0G
11
b1010 (
12
1'
#652500
0!
0)
#655000
1!
1)
1/
b11 M
0I
b10100 .
1N
b100 9
b10100 <
b11110 J
b11110 K
08
01
b10100 (
15
0#
14
0E
0N
02
0'
#657500
0!
0)
#660000
1!
1)
b100 M
1I
b11110 .
b101 9
b11110 <
b101000 J
b101000 K
18
b11110 (
05
1#
04
1E
b11111111 %
b11111111 ,
#662500
0!
0)
#665000
1!
1)
b101 M
1=
b1 ;
b101000 .
b110 9
b101000 <
b110010 J
b110010 K
b101000 (
#667500
0!
0)
#670000
1!
1)
b110 M
0=
b10 ;
b110010 .
b111 9
b110010 <
b111100 J
b111100 K
b110010 (
#672500
0!
0)
#675000
1!
1)
b111 M
b11 ;
b111100 .
b1000 9
b111100 <
b1000110 J
b1000110 K
b111100 (
#677500
0!
0)
#680000
1!
1)
b1000 M
b100 ;
b1000110 .
b1001 9
b1000110 <
b1010000 J
b1010000 K
b1000110 (
#682500
0!
0)
#685000
1!
1)
b1001 M
b0 ;
0H
b1010 .
b11 9
b1010 <
b10100 J
b10100 K
1G
11
b1010 (
12
1'
#687500
0!
0)
#690000
1!
1)
0/
b11 M
0I
b10100 .
1N
b100 9
b10100 <
b11110 J
b11110 K
08
01
b10100 (
15
0#
14
0E
0N
02
0'
#692500
0!
0)
#695000
1!
1)
b100 M
b11111111 >
1I
b11110 .
b101 9
b11110 <
b101000 J
b101000 K
18
b11110 (
05
1#
04
1E
#697500
0!
0)
#700000
1!
1)
b101 M
1=
b1 ;
b101000 .
b110 9
b101000 <
b110010 J
b110010 K
b101000 (
#702500
0!
0)
#705000
1!
1)
b110 M
0=
b10 ;
b110010 .
b111 9
b110010 <
b111100 J
b111100 K
b110010 (
#707500
0!
0)
#710000
1!
1)
b111 M
b11 ;
b111100 .
b1000 9
b111100 <
b1000110 J
b1000110 K
b111100 (
#712500
0!
0)
#715000
1!
1)
b1000 M
b100 ;
b1000110 .
b1001 9
b11111111 :
b1000110 <
b101000101 J
b1010000 K
b1000110 (
#717500
0!
0)
#720000
1!
1)
b1001 M
b0 ;
1H
b101000 .
b11 9
b1010 :
b101000 <
b110010 J
b110010 K
0G
11
b101000 (
12
1'
#722500
0!
0)
#725000
1!
1)
1/
b11 M
b11111111 ?
0I
b10100 .
1N
b100 9
b10100 <
b11110 J
b11110 K
08
01
b10100 (
15
0#
14
0E
0N
02
0'
#727500
0!
0)
#730000
1!
1)
b100 M
1I
b11110 .
b101 9
b11110 <
b101000 J
b101000 K
18
b11110 (
05
1#
04
1E
#732500
0!
0)
#735000
1!
1)
b101 M
1=
b1 ;
b101000 .
b110 9
b101000 <
b110010 J
b110010 K
b101000 (
#737500
0!
0)
#740000
1!
1)
b110 M
0=
b10 ;
b110010 .
b111 9
b110010 <
b111100 J
b111100 K
b110010 (
#742500
0!
0)
#745000
1!
1)
b111 M
b11 ;
b111100 .
b1000 9
b11111111 :
b111100 <
b100111011 J
b1000110 K
b111100 (
#747500
0!
0)
#750000
1!
1)
b1000 M
b100 ;
b100111011 .
b1001 9
b100111011 <
b1000111010 J
b101000101 K
b100111011 (
#752500
0!
0)
#755000
1!
1)
b1001 M
b0 ;
0H
b1000111 .
b11 9
b1010 :
b1000111 <
b1010001 J
b1010001 K
1G
11
b1000111 (
12
1'
#757500
0!
0)
#760000
1!
1)
0/
b11 M
b11111111 @
0I
b10100 .
1N
b100 9
b10100 <
b11110 J
b11110 K
08
01
b10100 (
15
0#
14
0E
0N
02
0'
#762500
0!
0)
#765000
1!
1)
b100 M
1I
b11110 .
b101 9
b11110 <
b101000 J
b101000 K
18
b11110 (
05
1#
04
1E
#767500
0!
0)
#770000
1!
1)
b101 M
1=
b1 ;
b101000 .
b110 9
b101000 <
b110010 J
b110010 K
b101000 (
#772500
0!
0)
#775000
1!
1)
b110 M
0=
b10 ;
b110010 .
b111 9
b110010 <
b11111111 :
b100110001 J
b111100 K
b110010 (
#777500
0!
0)
#780000
1!
1)
b111 M
b11 ;
b100110001 .
b1000 9
b100110001 <
b1000110000 J
b100111011 K
b100110001 (
#782500
0!
0)
#785000
1!
1)
b1000 M
b100 ;
b1000110000 .
b1001 9
b1000110000 <
b1100101111 J
b111010 K
b1000110000 (
#787500
0!
0)
#790000
1!
1)
b1001 M
b0 ;
1H
b1100101 .
b11 9
b1010 :
b1100101 <
b1101111 J
b1101111 K
0G
11
b1100101 (
12
1'
#792500
0!
0)
#795000
1!
1)
1/
b11 M
b11111111 A
0I
b10100 .
1N
b100 9
b10100 <
b11110 J
b11110 K
08
01
b10100 (
15
0#
14
0E
0N
02
0'
#797500
0!
0)
#800000
1!
1)
b100 M
1I
b11110 .
b101 9
b11110 <
b101000 J
b101000 K
18
b11110 (
05
1#
04
1E
#802500
0!
0)
#805000
1!
1)
b101 M
1=
b1 ;
b101000 .
b110 9
b101000 <
b11111111 :
b100100111 J
b110010 K
b101000 (
#807500
0!
0)
#810000
1!
1)
b110 M
0=
b10 ;
b100100111 .
b111 9
b100100111 <
b1000100110 J
b100110001 K
b100100111 (
#812500
0!
0)
#815000
1!
1)
b111 M
b11 ;
b1000100110 .
b1000 9
b1000100110 <
b1100100101 J
b110000 K
b1000100110 (
#817500
0!
0)
#820000
1!
1)
b1000 M
b100 ;
b1100100101 .
b1001 9
b1100100101 <
b10000100100 J
b100101111 K
b1100100101 (
#822500
0!
0)
#825000
1!
1)
b1001 M
b0 ;
0H
b10000100 .
b11 9
b1010 :
b10000100 <
b10001110 J
b10001110 K
1G
11
b10000100 (
12
1'
#827500
0!
0)
#830000
1!
1)
0/
b11 M
0I
b11111111 B
b10100 .
1N
b100 9
b11111111 :
b10100 <
b100010011 J
b11110 K
08
01
b10100 (
15
0#
14
0E
0N
02
0'
#832500
0!
0)
