tutorial/stratus_examples/lab_explicit_mem/bdw_work/sims/BASIC_V/verilog.vcd
$date
    Nov 17, 2020  14:53:30
$end
$version
    TOOL:	ncsim(64)	15.20-s016
$end
$timescale
    1 ps
$end

$scope module top $end

$scope module dut0 $end
$var reg       1 !    clk  $end
$var reg       1 "    rst  $end
$var wire      1 #    din_busy  $end
$var reg       1 $    din_vld  $end
$var reg       8 %    din_data [7:0] $end
$var reg       1 &    dout_busy  $end
$var wire      1 '    dout_vld  $end
$var wire     11 (    dout_data [10:0] $end
$var wire      1 )    mem_WE0  $end
$var wire      8 *    mem_DIN0 [7:0] $end
$var reg       8 +    mem_DOUT0 [7:0] $end
$var wire      6 ,    mem_A0 [5:0] $end
$var wire      1 -    mem_REQ0  $end

$scope module dut0 $end
$var wire      1 .    clk  $end
$var wire      1 /    rst  $end
$var wire      1 0    din_vld  $end
$var wire      8 1    din_data [7:0] $end
$var wire      1 2    dout_busy  $end
$var wire      8 3    mem_DOUT0 [7:0] $end
$var wire      1 #    din_busy  $end
$var wire      1 '    dout_vld  $end
$var wire     11 (    dout_data [10:0] $end
$var reg       1 4    mem_WE0  $end
$var wire      8 *    mem_DIN0 [7:0] $end
$var reg       6 5    mem_A0 [5:0] $end
$var reg       1 6    mem_REQ0  $end
$var reg       1 7    dout_m_req_m_prev_trig_req  $end
$var reg       1 8    dout_m_unacked_req  $end
$var wire      1 9    dut_Xor_1Ux1U_1U_4_9_out1  $end
$var wire      1 :    dut_Or_1Ux1U_1U_4_10_out1  $end
$var reg       1 ;    dut_N_Muxb_1_2_0_4_1_out1  $end
$var wire      1 <    dut_And_1Ux1U_1U_4_5_out1  $end
$var wire      1 =    dut_Not_1U_1U_4_4_out1  $end
$var reg       1 >    din_m_unvalidated_req  $end
$var wire      1 ?    dut_Or_1Ux1U_1U_4_2_out1  $end
$var wire      1 @    dut_And_1Ux1U_1U_4_3_out1  $end
$var reg       3 A    global_state_next [2:0] $end
$var reg       7 B    dut_Add_7Sx2S_8S_4_13_in2 [6:0] $end
$var reg       1 C    gs_ctrl0  $end
$var wire      6 D    dut_Add_6Ux1U_6U_4_15_out1 [5:0] $end
$var wire      1 E    dut_Not_1U_1U_4_6_out1  $end
$var wire      1 F    dut_And_1Ux1U_1U_4_11_out1  $end
$var wire      1 G    dut_Not_1U_1U_4_12_out1  $end
$var reg       1 H    dout_m_req_m_trig_req  $end
$var wire      1 I    dut_LessThan_8Sx8S_1U_4_14_out1  $end
$var reg       1 J    din_m_busy_req_0  $end
$var wire      9 K    dut_Add_8Ux8U_9U_4_16_out1 [8:0] $end
$var wire      8 L    dut_Add_7Sx2S_8S_4_13_out1 [7:0] $end
$var reg      10 M    dout_data_slice [9:0] $end
$var reg       1 N    stall0  $end
$var reg       1 O    mem_WE0_reg  $end
$var reg       8 P    s_reg_7 [7:0] $end
$var reg       1 Q    mem_REQ0_reg  $end
$var reg       3 R    global_state [2:0] $end
$upscope $end

$upscope $end

$upscope $end

$enddefinitions $end
$dumpvars
1!
0"
1#
0$
b0 %
1&
0'
bx (
1)
bx *
b0 +
bx ,
0-
1.
0/
00
b0 1
12
b0 3
14
bx 5
06
07
08
09
0:
1;
0<
0=
1>
1?
1@
b1 A
b0 B
0C
b1 D
1E
0F
1G
0H
xI
1J
bx K
b1 L
bx M
0N
1O
bx P
0Q
b0 R
$end
#2500
0!
0.
#5000
1!
1.
b0 P
b1 M
b0 5
b1 (
1I
b0 K
b0 *
b0 ,
0&
02
#7500
0!
0.
#10000
1!
1.
1"
1/
#12500
0!
0.
#15000
1!
1.
b1 R
1C
0O
1Q
16
04
b1 B
b10 L
0)
1-
1$
10
#17500
0!
0.
#20000
1!
1.
b1 P
b10 M
b1 5
b10 B
b11 L
b10 (
b1 K
b1 *
b1 ,
#22500
0!
0.
#25000
1!
1.
b10 P
b11 M
b10 5
b11 B
b100 L
b11 (
b10 K
b10 *
b10 ,
#27500
0!
0.
#30000
1!
1.
b11 P
b100 M
b11 5
b100 B
b101 L
b100 (
b11 K
b11 *
b11 ,
#32500
0!
0.
#35000
1!
1.
b100 P
b101 M
b100 5
b101 B
b110 L
b101 (
b100 K
b100 *
b100 ,
#37500
0!
0.
#40000
1!
1.
b101 P
b110 M
b101 5
b110 B
b111 L
b110 (
b101 K
b101 *
b101 ,
#42500
0!
0.
#45000
1!
1.
b110 P
b111 M
b110 5
b111 B
b1000 L
b111 (
b110 K
b110 *
b110 ,
#47500
0!
0.
#50000
1!
1.
b111 P
b1000 M
b111 5
b1000 B
b1001 L
b1000 (
b111 K
b111 *
b111 ,
#52500
0!
0.
#55000
1!
1.
b1000 P
b1001 M
b1000 5
b1001 B
b1010 L
b1001 (
b1000 K
b1000 *
b1000 ,
#57500
0!
0.
#60000
1!
1.
b1001 P
b1010 M
b1001 5
b1010 B
b1011 L
b1010 (
b1001 K
b1001 *
b1001 ,
#62500
0!
0.
#65000
1!
1.
b1010 P
b1011 M
b1010 5
b1011 B
b1100 L
b1011 (
b1010 K
b1010 *
b1010 ,
#67500
0!
0.
#70000
1!
1.
b1011 P
b1100 M
b1011 5
b1100 B
b1101 L
b1100 (
b1011 K
b1011 *
b1011 ,
#72500
0!
0.
#75000
1!
1.
b1100 P
b1101 M
b1100 5
b1101 B
b1110 L
b1101 (
b1100 K
b1100 *
b1100 ,
#77500
0!
0.
#80000
1!
1.
b1101 P
b1110 M
b1101 5
b1110 B
b1111 L
b1110 (
b1101 K
b1101 *
b1101 ,
#82500
0!
0.
#85000
1!
1.
b1110 P
b1111 M
b1110 5
b1111 B
b10000 L
b1111 (
b1110 K
b1110 *
b1110 ,
#87500
0!
0.
#90000
1!
1.
b1111 P
b10000 M
b1111 5
b10000 B
b10001 L
b10000 (
b1111 K
b1111 *
b1111 ,
#92500
0!
0.
#95000
1!
1.
b10000 P
b10001 M
b10000 5
b10001 B
b10010 L
b10001 (
b10000 K
b10000 *
b10000 ,
#97500
0!
0.
#100000
1!
1.
b10001 P
b10010 M
b10001 5
b10010 B
b10011 L
b10010 (
b10001 K
b10001 *
b10001 ,
#102500
0!
0.
#105000
1!
1.
b10010 P
b10011 M
b10010 5
b10011 B
b10100 L
b10011 (
b10010 K
b10010 *
b10010 ,
#107500
0!
0.
#110000
1!
1.
b10011 P
b10100 M
b10011 5
b10100 B
b10101 L
b10100 (
b10011 K
b10011 *
b10011 ,
#112500
0!
0.
#115000
1!
1.
b10100 P
b10101 M
b10100 5
b10101 B
b10110 L
b10101 (
b10100 K
b10100 *
b10100 ,
#117500
0!
0.
#120000
1!
1.
b10101 P
b10110 M
b10101 5
b10110 B
b10111 L
b10110 (
b10101 K
b10101 *
b10101 ,
#122500
0!
0.
#125000
1!
1.
b10110 P
b10111 M
b10110 5
b10111 B
b11000 L
b10111 (
b10110 K
b10110 *
b10110 ,
#127500
0!
0.
#130000
1!
1.
b10111 P
b11000 M
b10111 5
b11000 B
b11001 L
b11000 (
b10111 K
b10111 *
b10111 ,
#132500
0!
0.
#135000
1!
1.
b11000 P
b11001 M
b11000 5
b11001 B
b11010 L
b11001 (
b11000 K
b11000 *
b11000 ,
#137500
0!
0.
#140000
1!
1.
b11001 P
b11010 M
b11001 5
b11010 B
b11011 L
b11010 (
b11001 K
b11001 *
b11001 ,
#142500
0!
0.
#145000
1!
1.
b11010 P
b11011 M
b11010 5
b11011 B
b11100 L
b11011 (
b11010 K
b11010 *
b11010 ,
#147500
0!
0.
#150000
1!
1.
b11011 P
b11100 M
b11011 5
b11100 B
b11101 L
b11100 (
b11011 K
b11011 *
b11011 ,
#152500
0!
0.
#155000
1!
1.
b11100 P
b11101 M
b11100 5
b11101 B
b11110 L
b11101 (
b11100 K
b11100 *
b11100 ,
#157500
0!
0.
#160000
1!
1.
b11101 P
b11110 M
b11101 5
b11110 B
b11111 L
b11110 (
b11101 K
b11101 *
b11101 ,
#162500
0!
0.
#165000
1!
1.
b11110 P
b11111 M
b11110 5
b11111 B
b100000 L
b11111 (
b11110 K
b11110 *
b11110 ,
#167500
0!
0.
#170000
1!
1.
b11111 P
b100000 M
b11111 5
b100000 B
b100001 L
b100000 (
b11111 K
b11111 *
b11111 ,
#172500
0!
0.
#175000
1!
1.
b100000 P
b100001 M
b100000 5
b100001 B
b100010 L
b100001 (
b100000 K
b100000 *
b100000 ,
#177500
0!
0.
#180000
1!
1.
b100001 P
b100010 M
b100001 5
b100010 B
b100011 L
b100010 (
b100001 K
b100001 *
b100001 ,
#182500
0!
0.
#185000
1!
1.
b100010 P
b100011 M
b100010 5
b100011 B
b100100 L
b100011 (
b100010 K
b100010 *
b100010 ,
#187500
0!
0.
#190000
1!
1.
b100011 P
b100100 M
b100011 5
b100100 B
b100101 L
b100100 (
b100011 K
b100011 *
b100011 ,
#192500
0!
0.
#195000
1!
1.
b100100 P
b100101 M
b100100 5
b100101 B
b100110 L
b100101 (
b100100 K
b100100 *
b100100 ,
#197500
0!
0.
#200000
1!
1.
b100101 P
b100110 M
b100101 5
b100110 B
b100111 L
b100110 (
b100101 K
b100101 *
b100101 ,
#202500
0!
0.
#205000
1!
1.
b100110 P
b100111 M
b100110 5
b100111 B
b101000 L
b100111 (
b100110 K
b100110 *
b100110 ,
#207500
0!
0.
#210000
1!
1.
b100111 P
b101000 M
b100111 5
b101000 B
b101001 L
b101000 (
b100111 K
b100111 *
b100111 ,
#212500
0!
0.
#215000
1!
1.
b101000 P
b101001 M
b101000 5
b101001 B
b101010 L
b101001 (
b101000 K
b101000 *
b101000 ,
#217500
0!
0.
#220000
1!
1.
b101001 P
b101010 M
b101001 5
b101010 B
b101011 L
b101010 (
b101001 K
b101001 *
b101001 ,
#222500
0!
0.
#225000
1!
1.
b101010 P
b101011 M
b101010 5
b101011 B
b101100 L
b101011 (
b101010 K
b101010 *
b101010 ,
#227500
0!
0.
#230000
1!
1.
b101011 P
b101100 M
b101011 5
b101100 B
b101101 L
b101100 (
b101011 K
b101011 *
b101011 ,
#232500
0!
0.
#235000
1!
1.
b101100 P
b101101 M
b101100 5
b101101 B
b101110 L
b101101 (
b101100 K
b101100 *
b101100 ,
#237500
0!
0.
#240000
1!
1.
b101101 P
b101110 M
b101101 5
b101110 B
b101111 L
b101110 (
b101101 K
b101101 *
b101101 ,
#242500
0!
0.
#245000
1!
1.
b101110 P
b101111 M
b101110 5
b101111 B
b110000 L
b101111 (
b101110 K
b101110 *
b101110 ,
#247500
0!
0.
#250000
1!
1.
b101111 P
b110000 M
b101111 5
b110000 B
b110001 L
b110000 (
b101111 K
b101111 *
b101111 ,
#252500
0!
0.
#255000
1!
1.
b110000 P
b110001 M
b110000 5
b110001 B
b110010 L
b110001 (
b110000 K
b110000 *
b110000 ,
#257500
0!
0.
#260000
1!
1.
b110001 P
b110010 M
b110001 5
b110010 B
b110011 L
b110010 (
b110001 K
b110001 *
b110001 ,
#262500
0!
0.
#265000
1!
1.
b110010 P
b110011 M
b110010 5
b110011 B
b110100 L
b110011 (
b110010 K
b110010 *
b110010 ,
#267500
0!
0.
#270000
1!
1.
b110011 P
b110100 M
b110011 5
b110100 B
b110101 L
b110100 (
b110011 K
b110011 *
b110011 ,
#272500
0!
0.
#275000
1!
1.
b110100 P
b110101 M
b110100 5
b110101 B
b110110 L
b110101 (
b110100 K
b110100 *
b110100 ,
#277500
0!
0.
#280000
1!
1.
b110101 P
b110110 M
b110101 5
b110110 B
b110111 L
b110110 (
b110101 K
b110101 *
b110101 ,
#282500
0!
0.
#285000
1!
1.
b110110 P
b110111 M
b110110 5
b110111 B
b111000 L
b110111 (
b110110 K
b110110 *
b110110 ,
#287500
0!
0.
#290000
1!
1.
b110111 P
b111000 M
b110111 5
b111000 B
b111001 L
b111000 (
b110111 K
b110111 *
b110111 ,
#292500
0!
0.
#295000
1!
1.
b111000 P
b111001 M
b111000 5
b111001 B
b111010 L
b111001 (
b111000 K
b111000 *
b111000 ,
#297500
0!
0.
#300000
1!
1.
b111001 P
b111010 M
b111001 5
b111010 B
b111011 L
b111010 (
b111001 K
b111001 *
b111001 ,
#302500
0!
0.
#305000
1!
1.
b111010 P
b111011 M
b111010 5
b111011 B
b111100 L
b111011 (
b111010 K
b111010 *
b111010 ,
#307500
0!
0.
#310000
1!
1.
b111011 P
b111100 M
b111011 5
b111100 B
b111101 L
b111100 (
b111011 K
b111011 *
b111011 ,
#312500
0!
0.
#315000
1!
1.
b111100 P
b111101 M
b111100 5
b111101 B
b111110 L
b111101 (
b111100 K
b111100 *
b111100 ,
#317500
0!
0.
#320000
1!
1.
b111101 P
b111110 M
b111101 5
b111110 B
b111111 L
b111110 (
b111101 K
b111101 *
b111101 ,
#322500
0!
0.
#325000
1!
1.
b111110 P
b111111 M
b111110 5
b111111 B
b1000000 L
b111111 (
b111110 K
b111110 *
b111110 ,
#327500
0!
0.
#330000
1!
1.
b111111 P
b1000000 M
b111111 5
b1000000 B
b11000001 L
b1000000 (
0I
b111111 K
b111111 *
b111111 ,
b10 A
#332500
0!
0.
#335000
1!
1.
b10 R
0C
b1000000 P
b1111000001 M
0J
1O
0Q
b0 5
14
1N
b11 A
b0 B
b1 L
0@
b11111000001 (
1I
b1000000 K
b11000000 *
1)
b0 ,
1=
0#
1<
0E
0N
#337500
0!
0.
#340000
1!
1.
b11 R
b1 P
1J
1Q
b1 5
b100 A
1@
b1 K
b1 *
b1 ,
0=
1#
0<
1E
b1 %
b1 1
b10 D
#342500
0!
0.
#345000
1!
1.
b100 R
b0 P
0Q
06
b0 5
b101 A
b0 K
b0 *
b0 ,
0-
b1 +
b1 3
b1 K
#347500
0!
0.
#350000
1!
1.
b101 R
b1 M
1H
b10 A
0G
19
b1 (
1:
1'
b0 +
b0 3
b0 K
#352500
0!
0.
#355000
1!
1.
17
b10 R
0J
16
b1 5
1N
b11 A
0@
b1 ,
1-
09
1=
0#
1<
0E
0N
0:
0'
#357500
0!
0.
#360000
1!
1.
b11 R
b10 P
1J
1Q
b10 5
b100 A
1@
b10 K
b10 *
b10 ,
0=
1#
0<
1E
b10 %
b1 +
b1 3
b10 1
b11 D
b11 K
#362500
0!
0.
#365000
1!
1.
b100 R
b1 P
0Q
06
b1 5
b101 A
b10 K
b1 *
b1 ,
0-
b10 +
b10 3
b11 K
#367500
0!
0.
#370000
1!
1.
b101 R
b11 M
0H
b10 A
1G
19
b11 (
1:
1'
b1 +
b1 3
b10 K
#372500
0!
0.
#375000
1!
1.
07
b10 R
0J
16
b10 5
1N
b11 A
0@
b10 ,
1-
09
1=
0#
1<
0E
0N
0:
0'
#377500
0!
0.
#380000
1!
1.
b11 R
b11 P
1J
1Q
b11 5
b100 A
1@
b100 K
b11 *
b11 ,
0=
1#
0<
1E
b11 %
b10 +
b10 3
b11 1
b100 D
b101 K
#382500
0!
0.
#385000
1!
1.
b100 R
b10 P
0Q
06
b10 5
b101 A
b100 K
b10 *
b10 ,
0-
b11 +
b11 3
b101 K
#387500
0!
0.
#390000
1!
1.
b101 R
b101 M
1H
b10 A
0G
19
b101 (
1:
1'
b10 +
b10 3
b100 K
#392500
0!
0.
#395000
1!
1.
17
b10 R
0J
16
b11 5
1N
b11 A
0@
b11 ,
1-
09
1=
0#
1<
0E
0N
0:
0'
#397500
0!
0.
#400000
1!
1.
b11 R
b100 P
1J
1Q
b100 5
b100 A
1@
b110 K
b100 *
b100 ,
0=
1#
0<
1E
b100 %
b11 +
b11 3
b100 1
b101 D
b111 K
#402500
0!
0.
#405000
1!
1.
b100 R
b11 P
0Q
06
b11 5
b101 A
b110 K
b11 *
b11 ,
0-
b100 +
b100 3
b111 K
#407500
0!
0.
#410000
1!
1.
b101 R
b111 M
0H
b10 A
1G
19
b111 (
1:
1'
b11 +
b11 3
b110 K
#412500
0!
0.
#415000
1!
1.
07
b10 R
0J
16
b100 5
1N
b11 A
0@
b100 ,
1-
09
1=
0#
1<
0E
0N
0:
0'
#417500
0!
0.
#420000
1!
1.
b11 R
b101 P
1J
1Q
b101 5
b100 A
1@
b1000 K
b101 *
b101 ,
0=
1#
0<
1E
b101 %
b100 +
b100 3
b101 1
b110 D
b1001 K
#422500
0!
0.
#425000
1!
1.
b100 R
b100 P
0Q
06
b100 5
b101 A
b1000 K
b100 *
b100 ,
0-
b101 +
b101 3
b1001 K
#427500
0!
0.
#430000
1!
1.
b101 R
b1001 M
1H
b10 A
0G
19
b1001 (
1:
1'
b100 +
b100 3
b1000 K
#432500
0!
0.
#435000
1!
1.
17
b10 R
0J
16
b101 5
1N
b11 A
0@
b101 ,
1-
09
1=
0#
1<
0E
0N
0:
0'
#437500
0!
0.
#440000
1!
1.
b11 R
b110 P
1J
1Q
b110 5
b100 A
1@
b1010 K
b110 *
b110 ,
0=
1#
0<
1E
b110 %
b101 +
b101 3
b110 1
b111 D
b1011 K
#442500
0!
0.
#445000
1!
1.
b100 R
b101 P
0Q
06
b101 5
b101 A
b1010 K
b101 *
b101 ,
0-
b110 +
b110 3
b1011 K
#447500
0!
0.
#450000
1!
1.
b101 R
b1011 M
0H
b10 A
1G
19
b1011 (
1:
1'
b101 +
b101 3
b1010 K
#452500
0!
0.
#455000
1!
1.
07
b10 R
0J
16
b110 5
1N
b11 A
0@
b110 ,
1-
09
1=
0#
1<
0E
0N
0:
0'
#457500
0!
0.
#460000
1!
1.
b11 R
b111 P
1J
1Q
b111 5
b100 A
1@
b1100 K
b111 *
b111 ,
0=
1#
0<
1E
b111 %
b110 +
b110 3
b111 1
b1000 D
b1101 K
#462500
0!
0.
#465000
1!
1.
b100 R
b110 P
0Q
06
b110 5
b101 A
b1100 K
b110 *
b110 ,
0-
b111 +
b111 3
b1101 K
#467500
0!
0.
#470000
1!
1.
b101 R
b1101 M
1H
b10 A
0G
19
b1101 (
1:
1'
b110 +
b110 3
b1100 K
#472500
0!
0.
#475000
1!
1.
17
b10 R
0J
16
b111 5
1N
b11 A
0@
b111 ,
1-
09
1=
0#
1<
0E
0N
0:
0'
#477500
0!
0.
#480000
1!
1.
b11 R
b1000 P
1J
1Q
b1000 5
b100 A
1@
b1110 K
b1000 *
b1000 ,
0=
1#
0<
1E
b1000 %
b111 +
b111 3
b1000 1
b1001 D
b1111 K
#482500
0!
0.
#485000
1!
1.
b100 R
b111 P
0Q
06
b111 5
b101 A
b1110 K
b111 *
b111 ,
0-
b1000 +
b1000 3
b1111 K
#487500
0!
0.
#490000
1!
1.
b101 R
b1111 M
0H
b10 A
1G
19
b1111 (
1:
1'
b111 +
b111 3
b1110 K
#492500
0!
0.
#495000
1!
1.
07
b10 R
0J
16
b1000 5
1N
b11 A
0@
b1000 ,
1-
09
1=
0#
1<
0E
0N
0:
0'
#497500
0!
0.
#500000
1!
1.
b11 R
b1001 P
1J
1Q
b1001 5
b100 A
1@
b10000 K
b1001 *
b1001 ,
0=
1#
0<
1E
b1001 %
b1000 +
b1000 3
b1001 1
b1010 D
b10001 K
#502500
0!
0.
#505000
1!
1.
b100 R
b1000 P
0Q
06
b1000 5
b101 A
b10000 K
b1000 *
b1000 ,
0-
b1001 +
b1001 3
b10001 K
#507500
0!
0.
#510000
1!
1.
b101 R
b10001 M
1H
b10 A
0G
19
b10001 (
1:
1'
b1000 +
b1000 3
b10000 K
#512500
0!
0.
#515000
1!
1.
17
b10 R
0J
16
b1001 5
1N
b11 A
0@
b1001 ,
1-
09
1=
0#
1<
0E
0N
0:
0'
#517500
0!
0.
#520000
1!
1.
b11 R
b1010 P
1J
1Q
b1010 5
b100 A
1@
b10010 K
b1010 *
b1010 ,
0=
1#
0<
1E
b1010 %
b1001 +
b1001 3
b1010 1
b1011 D
b10011 K
#522500
0!
0.
#525000
1!
1.
b100 R
b1001 P
0Q
06
b1001 5
b101 A
b10010 K
b1001 *
b1001 ,
0-
b1010 +
b1010 3
b10011 K
#527500
0!
0.
#530000
1!
1.
b101 R
b10011 M
0H
b10 A
1G
19
b10011 (
1:
1'
b1001 +
b1001 3
b10010 K
#532500
0!
0.
#535000
1!
1.
07
b10 R
0J
16
b1010 5
1N
b11 A
0@
b1010 ,
1-
09
1=
0#
1<
0E
0N
0:
0'
#537500
0!
0.
#540000
1!
1.
b11 R
b1011 P
1J
1Q
b1011 5
b100 A
1@
b10100 K
b1011 *
b1011 ,
0=
1#
0<
1E
0$
b1010 +
b1010 3
00
b10101 K
#542500
0!
0.
#545000
1!
1.
b100 R
b1010 P
0Q
06
b1010 5
b101 A
b10100 K
b1010 *
b1010 ,
0-
b1011 +
b1011 3
b10101 K
#547500
0!
0.
#550000
1!
1.
b101 R
b10101 M
1H
b10 A
0G
19
b10101 (
1:
1'
b1010 +
b1010 3
b10100 K
#552500
0!
0.
#555000
1!
1.
17
b10 R
0J
16
1N
b11 A
0;
0@
1-
09
1=
0#
0:
0'
1&
12
