tutorial/stratus_examples/lab_array/bdw_work/sims/REG_V/verilog.vcd
$date
    Nov 17, 2020  14:06:35
$end
$version
    TOOL:	ncsim(64)	15.20-s016
$end
$timescale
    1 ps
$end

$scope module top $end

$scope module dut0 $end
$var reg       1 !    clk  $end
$var reg       1 "    rst  $end
$var wire      1 #    din_busy  $end
$var reg       1 $    din_vld  $end
$var reg       8 %    din_data [7:0] $end
$var reg       1 &    dout_busy  $end
$var wire      1 '    dout_vld  $end
$var wire     11 (    dout_data [10:0] $end

$scope module dut0 $end
$var wire      1 )    clk  $end
$var wire      1 *    rst  $end
$var wire      1 +    din_vld  $end
$var wire      8 ,    din_data [7:0] $end
$var wire      1 -    dout_busy  $end
$var wire      1 #    din_busy  $end
$var wire      1 '    dout_vld  $end
$var wire     11 (    dout_data [10:0] $end
$var reg       1 .    dout_m_req_m_prev_trig_req  $end
$var reg       1 /    dout_m_unacked_req  $end
$var wire      1 0    dut_Xor_1Ux1U_1U_4_9_out1  $end
$var wire      1 1    dut_Or_1U_0_4_10_out1  $end
$var reg       1 2    dut_N_Muxb_1_2_7_4_1_out1  $end
$var wire      1 3    dut_And_1U_3_4_5_out1  $end
$var wire      1 4    dut_Not_1U_1U_4_4_out1  $end
$var reg       1 5    din_m_unvalidated_req  $end
$var wire      1 6    dut_Or_1U_0_4_2_out1  $end
$var wire      1 7    dut_And_1U_3_4_3_out1  $end
$var reg       3 8    global_state_next [2:0] $end
$var reg       6 9    s_reg_5 [5:0] $end
$var wire      6 :    dut_Add_6Ux1U_6U_4_15_out1 [5:0] $end
$var reg       1 ;    gs_ctrl3  $end
$var reg       6 <    in1_raddr_wire [5:0] $end
$var reg       7 =    mem_inst_dut_mem_regbank_r0_slice [6:0] $end
$var reg       7 >    mem_inst_dut_mem_regbank_r1_slice [6:0] $end
$var reg       7 ?    mem_inst_dut_mem_regbank_r2_slice [6:0] $end
$var reg       7 @    mem_inst_dut_mem_regbank_r3_slice [6:0] $end
$var reg       7 A    mem_inst_dut_mem_regbank_r4_slice [6:0] $end
$var reg       7 B    mem_inst_dut_mem_regbank_r5_slice [6:0] $end
$var reg       7 C    mem_inst_dut_mem_regbank_r6_slice [6:0] $end
$var reg       7 D    mem_inst_dut_mem_regbank_r7_slice [6:0] $end
$var reg       7 E    mem_inst_dut_mem_regbank_r8_slice [6:0] $end
$var reg       7 F    mem_inst_dut_mem_regbank_r9_slice [6:0] $end
$var reg       7 G    mem_inst_dut_mem_regbank_r10_slice [6:0] $end
$var reg       7 H    mem_inst_dut_mem_regbank_r11_slice [6:0] $end
$var reg       7 I    mem_inst_dut_mem_regbank_r12_slice [6:0] $end
$var reg       7 J    mem_inst_dut_mem_regbank_r13_slice [6:0] $end
$var reg       7 K    mem_inst_dut_mem_regbank_r14_slice [6:0] $end
$var reg       7 L    mem_inst_dut_mem_regbank_r15_slice [6:0] $end
$var reg       7 M    mem_inst_dut_mem_regbank_r16_slice [6:0] $end
$var reg       7 N    mem_inst_dut_mem_regbank_r17_slice [6:0] $end
$var reg       7 O    mem_inst_dut_mem_regbank_r18_slice [6:0] $end
$var reg       7 P    mem_inst_dut_mem_regbank_r19_slice [6:0] $end
$var reg       7 Q    mem_inst_dut_mem_regbank_r20_slice [6:0] $end
$var reg       7 R    mem_inst_dut_mem_regbank_r21_slice [6:0] $end
$var reg       7 S    mem_inst_dut_mem_regbank_r22_slice [6:0] $end
$var reg       7 T    mem_inst_dut_mem_regbank_r23_slice [6:0] $end
$var reg       7 U    mem_inst_dut_mem_regbank_r24_slice [6:0] $end
$var reg       7 V    mem_inst_dut_mem_regbank_r25_slice [6:0] $end
$var reg       7 W    mem_inst_dut_mem_regbank_r26_slice [6:0] $end
$var reg       7 X    mem_inst_dut_mem_regbank_r27_slice [6:0] $end
$var reg       7 Y    mem_inst_dut_mem_regbank_r28_slice [6:0] $end
$var reg       7 Z    mem_inst_dut_mem_regbank_r29_slice [6:0] $end
$var reg       7 [    mem_inst_dut_mem_regbank_r30_slice [6:0] $end
$var reg       7 \    mem_inst_dut_mem_regbank_r31_slice [6:0] $end
$var reg       7 ]    mem_inst_dut_mem_regbank_r32_slice [6:0] $end
$var reg       7 ^    mem_inst_dut_mem_regbank_r33_slice [6:0] $end
$var reg       7 _    mem_inst_dut_mem_regbank_r34_slice [6:0] $end
$var reg       7 `    mem_inst_dut_mem_regbank_r35_slice [6:0] $end
$var reg       7 a    mem_inst_dut_mem_regbank_r36_slice [6:0] $end
$var reg       7 b    mem_inst_dut_mem_regbank_r37_slice [6:0] $end
$var reg       7 c    mem_inst_dut_mem_regbank_r38_slice [6:0] $end
$var reg       7 d    mem_inst_dut_mem_regbank_r39_slice [6:0] $end
$var reg       7 e    mem_inst_dut_mem_regbank_r40_slice [6:0] $end
$var reg       7 f    mem_inst_dut_mem_regbank_r41_slice [6:0] $end
$var reg       7 g    mem_inst_dut_mem_regbank_r42_slice [6:0] $end
$var reg       7 h    mem_inst_dut_mem_regbank_r43_slice [6:0] $end
$var reg       7 i    mem_inst_dut_mem_regbank_r44_slice [6:0] $end
$var reg       7 j    mem_inst_dut_mem_regbank_r45_slice [6:0] $end
$var reg       7 k    mem_inst_dut_mem_regbank_r46_slice [6:0] $end
$var reg       7 l    mem_inst_dut_mem_regbank_r47_slice [6:0] $end
$var reg       7 m    mem_inst_dut_mem_regbank_r48_slice [6:0] $end
$var reg       7 n    mem_inst_dut_mem_regbank_r49_slice [6:0] $end
$var reg       7 o    mem_inst_dut_mem_regbank_r50_slice [6:0] $end
$var reg       7 p    mem_inst_dut_mem_regbank_r51_slice [6:0] $end
$var reg       7 q    mem_inst_dut_mem_regbank_r52_slice [6:0] $end
$var reg       7 r    mem_inst_dut_mem_regbank_r53_slice [6:0] $end
$var reg       7 s    mem_inst_dut_mem_regbank_r54_slice [6:0] $end
$var reg       7 t    mem_inst_dut_mem_regbank_r55_slice [6:0] $end
$var reg       7 u    mem_inst_dut_mem_regbank_r56_slice [6:0] $end
$var reg       7 v    mem_inst_dut_mem_regbank_r57_slice [6:0] $end
$var reg       7 w    mem_inst_dut_mem_regbank_r58_slice [6:0] $end
$var reg       7 x    mem_inst_dut_mem_regbank_r59_slice [6:0] $end
$var reg       7 y    mem_inst_dut_mem_regbank_r60_slice [6:0] $end
$var reg       7 z    mem_inst_dut_mem_regbank_r61_slice [6:0] $end
$var reg       7 {    mem_inst_dut_mem_regbank_r62_slice [6:0] $end
$var reg       7 |    mem_inst_dut_mem_regbank_r63_slice [6:0] $end
$var reg       6 }    in2_waddr_wire [5:0] $end
$var reg       7 ~    in1_din_wire [6:0] $end
$var reg       1 !!   gs_ctrl1  $end
$var reg       1 "!   mem_if_1_wen0_wire  $end
$var reg       1 #!   gs_ctrl0  $end
$var wire      1 $!   dut_Not_1U_1U_4_6_out1  $end
$var wire      1 %!   dut_And_1U_3_4_11_out1  $end
$var wire      1 &!   dut_Not_1U_1U_4_12_out1  $end
$var reg       1 '!   dout_m_req_m_trig_req  $end
$var wire      1 (!   dut_LessThan_8Sx8S_1U_4_14_out1  $end
$var reg       1 )!   din_m_busy_req_0  $end
$var wire      9 *!   dut_Add_8Ux8U_9U_4_16_out1 [8:0] $end
$var reg       7 +!   mem_if_2_dout_wire_slice [6:0] $end
$var wire      8 ,!   dut_Add_7Sx2S_8S_4_13_out1 [7:0] $end
$var reg      10 -!   dout_data_slice [9:0] $end
$var reg       3 .!   global_state [2:0] $end
$var reg       1 /!   stall0  $end
$upscope $end

$upscope $end

$upscope $end

$enddefinitions $end
$dumpvars
1!
0"
1#
0$
b0 %
1&
0'
bx (
1)
0*
0+
b0 ,
1-
0.
0/
00
01
12
03
04
15
16
17
b1 8
b0 9
b1 :
0;
b1 <
b0 =
b0 >
b0 ?
b0 @
b0 A
b0 B
b0 C
b0 D
b0 E
b0 F
b0 G
b0 H
b0 I
b0 J
b0 K
b0 L
b0 M
b0 N
b0 O
b0 P
b0 Q
b0 R
b0 S
b0 T
b0 U
b0 V
b0 W
b0 X
b0 Y
b0 Z
b0 [
b0 \
b0 ]
b0 ^
b0 _
b0 `
b0 a
b0 b
b0 c
b0 d
b0 e
b0 f
b0 g
b0 h
b0 i
b0 j
b0 k
b0 l
b0 m
b0 n
b0 o
b0 p
b0 q
b0 r
b0 s
b0 t
b0 u
b0 v
b0 w
b0 x
b0 y
b0 z
b0 {
b0 |
b0 }
b0 ~
0!!
1"!
1#!
1$!
0%!
1&!
0'!
1(!
1)!
bx *!
b0 +!
b1 ,!
bx -!
b0 .!
0/!
$end
#2500
0!
0)
#5000
1!
1)
b1 -!
b1 (
b1 *!
0&
0-
#7500
0!
0)
#10000
1!
1)
1"
1*
#12500
0!
0)
#15000
1!
1)
b1 .!
1!!
b1 ~
b1 }
b10 ,!
1$
1+
#17500
0!
0)
#20000
1!
1)
b1 >
b10 -!
b1 +!
b10 ~
b10 }
b11 ,!
b10 (
b11 *!
#22500
0!
0)
#25000
1!
1)
b10 ?
b11 -!
b11 ~
b11 }
b100 ,!
b11 (
b100 *!
#27500
0!
0)
#30000
1!
1)
b11 @
b100 -!
b100 ~
b100 }
b101 ,!
b100 (
b101 *!
#32500
0!
0)
#35000
1!
1)
b100 A
b101 -!
b101 ~
b101 }
b110 ,!
b101 (
b110 *!
#37500
0!
0)
#40000
1!
1)
b101 B
b110 -!
b110 ~
b110 }
b111 ,!
b110 (
b111 *!
#42500
0!
0)
#45000
1!
1)
b110 C
b111 -!
b111 ~
b111 }
b1000 ,!
b111 (
b1000 *!
#47500
0!
0)
#50000
1!
1)
b111 D
b1000 -!
b1000 ~
b1000 }
b1001 ,!
b1000 (
b1001 *!
#52500
0!
0)
#55000
1!
1)
b1000 E
b1001 -!
b1001 ~
b1001 }
b1010 ,!
b1001 (
b1010 *!
#57500
0!
0)
#60000
1!
1)
b1001 F
b1010 -!
b1010 ~
b1010 }
b1011 ,!
b1010 (
b1011 *!
#62500
0!
0)
#65000
1!
1)
b1010 G
b1011 -!
b1011 ~
b1011 }
b1100 ,!
b1011 (
b1100 *!
#67500
0!
0)
#70000
1!
1)
b1011 H
b1100 -!
b1100 ~
b1100 }
b1101 ,!
b1100 (
b1101 *!
#72500
0!
0)
#75000
1!
1)
b1100 I
b1101 -!
b1101 ~
b1101 }
b1110 ,!
b1101 (
b1110 *!
#77500
0!
0)
#80000
1!
1)
b1101 J
b1110 -!
b1110 ~
b1110 }
b1111 ,!
b1110 (
b1111 *!
#82500
0!
0)
#85000
1!
1)
b1110 K
b1111 -!
b1111 ~
b1111 }
b10000 ,!
b1111 (
b10000 *!
#87500
0!
0)
#90000
1!
1)
b1111 L
b10000 -!
b10000 ~
b10000 }
b10001 ,!
b10000 (
b10001 *!
#92500
0!
0)
#95000
1!
1)
b10000 M
b10001 -!
b10001 ~
b10001 }
b10010 ,!
b10001 (
b10010 *!
#97500
0!
0)
#100000
1!
1)
b10001 N
b10010 -!
b10010 ~
b10010 }
b10011 ,!
b10010 (
b10011 *!
#102500
0!
0)
#105000
1!
1)
b10010 O
b10011 -!
b10011 ~
b10011 }
b10100 ,!
b10011 (
b10100 *!
#107500
0!
0)
#110000
1!
1)
b10011 P
b10100 -!
b10100 ~
b10100 }
b10101 ,!
b10100 (
b10101 *!
#112500
0!
0)
#115000
1!
1)
b10100 Q
b10101 -!
b10101 ~
b10101 }
b10110 ,!
b10101 (
b10110 *!
#117500
0!
0)
#120000
1!
1)
b10101 R
b10110 -!
b10110 ~
b10110 }
b10111 ,!
b10110 (
b10111 *!
#122500
0!
0)
#125000
1!
1)
b10110 S
b10111 -!
b10111 ~
b10111 }
b11000 ,!
b10111 (
b11000 *!
#127500
0!
0)
#130000
1!
1)
b10111 T
b11000 -!
b11000 ~
b11000 }
b11001 ,!
b11000 (
b11001 *!
#132500
0!
0)
#135000
1!
1)
b11000 U
b11001 -!
b11001 ~
b11001 }
b11010 ,!
b11001 (
b11010 *!
#137500
0!
0)
#140000
1!
1)
b11001 V
b11010 -!
b11010 ~
b11010 }
b11011 ,!
b11010 (
b11011 *!
#142500
0!
0)
#145000
1!
1)
b11010 W
b11011 -!
b11011 ~
b11011 }
b11100 ,!
b11011 (
b11100 *!
#147500
0!
0)
#150000
1!
1)
b11011 X
b11100 -!
b11100 ~
b11100 }
b11101 ,!
b11100 (
b11101 *!
#152500
0!
0)
#155000
1!
1)
b11100 Y
b11101 -!
b11101 ~
b11101 }
b11110 ,!
b11101 (
b11110 *!
#157500
0!
0)
#160000
1!
1)
b11101 Z
b11110 -!
b11110 ~
b11110 }
b11111 ,!
b11110 (
b11111 *!
#162500
0!
0)
#165000
1!
1)
b11110 [
b11111 -!
b11111 ~
b11111 }
b100000 ,!
b11111 (
b100000 *!
#167500
0!
0)
#170000
1!
1)
b11111 \
b100000 -!
b100000 ~
b100000 }
b100001 ,!
b100000 (
b100001 *!
#172500
0!
0)
#175000
1!
1)
b100000 ]
b100001 -!
b100001 ~
b100001 }
b100010 ,!
b100001 (
b100010 *!
#177500
0!
0)
#180000
1!
1)
b100001 ^
b100010 -!
b100010 ~
b100010 }
b100011 ,!
b100010 (
b100011 *!
#182500
0!
0)
#185000
1!
1)
b100010 _
b100011 -!
b100011 ~
b100011 }
b100100 ,!
b100011 (
b100100 *!
#187500
0!
0)
#190000
1!
1)
b100011 `
b100100 -!
b100100 ~
b100100 }
b100101 ,!
b100100 (
b100101 *!
#192500
0!
0)
#195000
1!
1)
b100100 a
b100101 -!
b100101 ~
b100101 }
b100110 ,!
b100101 (
b100110 *!
#197500
0!
0)
#200000
1!
1)
b100101 b
b100110 -!
b100110 ~
b100110 }
b100111 ,!
b100110 (
b100111 *!
#202500
0!
0)
#205000
1!
1)
b100110 c
b100111 -!
b100111 ~
b100111 }
b101000 ,!
b100111 (
b101000 *!
#207500
0!
0)
#210000
1!
1)
b100111 d
b101000 -!
b101000 ~
b101000 }
b101001 ,!
b101000 (
b101001 *!
#212500
0!
0)
#215000
1!
1)
b101000 e
b101001 -!
b101001 ~
b101001 }
b101010 ,!
b101001 (
b101010 *!
#217500
0!
0)
#220000
1!
1)
b101001 f
b101010 -!
b101010 ~
b101010 }
b101011 ,!
b101010 (
b101011 *!
#222500
0!
0)
#225000
1!
1)
b101010 g
b101011 -!
b101011 ~
b101011 }
b101100 ,!
b101011 (
b101100 *!
#227500
0!
0)
#230000
1!
1)
b101011 h
b101100 -!
b101100 ~
b101100 }
b101101 ,!
b101100 (
b101101 *!
#232500
0!
0)
#235000
1!
1)
b101100 i
b101101 -!
b101101 ~
b101101 }
b101110 ,!
b101101 (
b101110 *!
#237500
0!
0)
#240000
1!
1)
b101101 j
b101110 -!
b101110 ~
b101110 }
b101111 ,!
b101110 (
b101111 *!
#242500
0!
0)
#245000
1!
1)
b101110 k
b101111 -!
b101111 ~
b101111 }
b110000 ,!
b101111 (
b110000 *!
#247500
0!
0)
#250000
1!
1)
b101111 l
b110000 -!
b110000 ~
b110000 }
b110001 ,!
b110000 (
b110001 *!
#252500
0!
0)
#255000
1!
1)
b110000 m
b110001 -!
b110001 ~
b110001 }
b110010 ,!
b110001 (
b110010 *!
#257500
0!
0)
#260000
1!
1)
b110001 n
b110010 -!
b110010 ~
b110010 }
b110011 ,!
b110010 (
b110011 *!
#262500
0!
0)
#265000
1!
1)
b110010 o
b110011 -!
b110011 ~
b110011 }
b110100 ,!
b110011 (
b110100 *!
#267500
0!
0)
#270000
1!
1)
b110011 p
b110100 -!
b110100 ~
b110100 }
b110101 ,!
b110100 (
b110101 *!
#272500
0!
0)
#275000
1!
1)
b110100 q
b110101 -!
b110101 ~
b110101 }
b110110 ,!
b110101 (
b110110 *!
#277500
0!
0)
#280000
1!
1)
b110101 r
b110110 -!
b110110 ~
b110110 }
b110111 ,!
b110110 (
b110111 *!
#282500
0!
0)
#285000
1!
1)
b110110 s
b110111 -!
b110111 ~
b110111 }
b111000 ,!
b110111 (
b111000 *!
#287500
0!
0)
#290000
1!
1)
b110111 t
b111000 -!
b111000 ~
b111000 }
b111001 ,!
b111000 (
b111001 *!
#292500
0!
0)
#295000
1!
1)
b111000 u
b111001 -!
b111001 ~
b111001 }
b111010 ,!
b111001 (
b111010 *!
#297500
0!
0)
#300000
1!
1)
b111001 v
b111010 -!
b111010 ~
b111010 }
b111011 ,!
b111010 (
b111011 *!
#302500
0!
0)
#305000
1!
1)
b111010 w
b111011 -!
b111011 ~
b111011 }
b111100 ,!
b111011 (
b111100 *!
#307500
0!
0)
#310000
1!
1)
b111011 x
b111100 -!
b111100 ~
b111100 }
b111101 ,!
b111100 (
b111101 *!
#312500
0!
0)
#315000
1!
1)
b111100 y
b111101 -!
b111101 ~
b111101 }
b111110 ,!
b111101 (
b111110 *!
#317500
0!
0)
#320000
1!
1)
b111101 z
b111110 -!
b111110 ~
b111110 }
b111111 ,!
b111110 (
b111111 *!
#322500
0!
0)
#325000
1!
1)
b111110 {
b111111 -!
b111111 ~
b111111 }
b1000000 ,!
b111111 (
b1000000 *!
0(!
b10 8
#327500
0!
0)
#330000
1!
1)
b10 .!
0#!
0!!
b111111 |
0)!
b1000000 -!
1/!
b11 8
0"!
b0 ~
b0 }
b1 ,!
b1000000 (
b1000001 *!
07
14
0#
13
0$!
0/!
1(!
#332500
0!
0)
#335000
1!
1)
b11 .!
1;
1)!
b1 -!
b100 8
b0 <
b0 +!
b1 (
b1 *!
17
04
1#
03
1$!
b1 %
b1 ,
b10 :
#337500
0!
0)
#340000
1!
1)
b100 .!
0;
b1 9
1'!
b10 8
b10 <
b10 +!
b11 *!
0&!
10
11
1'
#342500
0!
0)
#345000
1!
1)
1.
b10 .!
0)!
1/!
b11 8
07
00
14
0#
13
0$!
0/!
01
0'
#347500
0!
0)
#350000
1!
1)
b11 .!
1;
1)!
b10 -!
b100 8
b1 <
b1 +!
b10 (
17
04
1#
03
1$!
b10 %
b10 ,
b11 :
#352500
0!
0)
#355000
1!
1)
b100 .!
0;
b10 9
0'!
b11 -!
b10 8
b11 <
b11 +!
b11 (
b110 *!
1&!
10
11
1'
#357500
0!
0)
#360000
1!
1)
0.
b10 .!
0)!
1/!
b11 8
07
00
14
0#
13
0$!
0/!
01
0'
#362500
0!
0)
#365000
1!
1)
b11 .!
1;
1)!
b100 8
b10 <
b10 +!
b101 *!
17
04
1#
03
1$!
b11 %
b11 ,
b100 :
#367500
0!
0)
#370000
1!
1)
b100 .!
0;
b11 9
1'!
b101 -!
b10 8
b100 <
b100 +!
b101 (
b1001 *!
0&!
10
11
1'
#372500
0!
0)
#375000
1!
1)
1.
b10 .!
0)!
1/!
b11 8
07
00
14
0#
13
0$!
0/!
01
0'
#377500
0!
0)
#380000
1!
1)
b11 .!
1;
1)!
b100 -!
b100 8
b11 <
b11 +!
b100 (
b111 *!
17
04
1#
03
1$!
b100 %
b100 ,
b101 :
#382500
0!
0)
#385000
1!
1)
b100 .!
0;
b100 9
0'!
b111 -!
b10 8
b101 <
b101 +!
b111 (
b1100 *!
1&!
10
11
1'
#387500
0!
0)
#390000
1!
1)
0.
b10 .!
0)!
1/!
b11 8
07
00
14
0#
13
0$!
0/!
01
0'
#392500
0!
0)
#395000
1!
1)
b11 .!
1;
1)!
b101 -!
b100 8
b100 <
b100 +!
b101 (
b1001 *!
17
04
1#
03
1$!
b101 %
b101 ,
b110 :
#397500
0!
0)
#400000
1!
1)
b100 .!
0;
b101 9
1'!
b1001 -!
b10 8
b110 <
b110 +!
b1001 (
b1111 *!
0&!
10
11
1'
#402500
0!
0)
#405000
1!
1)
1.
b10 .!
0)!
1/!
b11 8
07
00
14
0#
13
0$!
0/!
01
0'
#407500
0!
0)
#410000
1!
1)
b11 .!
1;
1)!
b110 -!
b100 8
b101 <
b101 +!
b110 (
b1011 *!
17
04
1#
03
1$!
b110 %
b110 ,
b111 :
#412500
0!
0)
#415000
1!
1)
b100 .!
0;
b110 9
0'!
b1011 -!
b10 8
b111 <
b111 +!
b1011 (
b10010 *!
1&!
10
11
1'
#417500
0!
0)
#420000
1!
1)
0.
b10 .!
0)!
1/!
b11 8
07
00
14
0#
13
0$!
0/!
01
0'
#422500
0!
0)
#425000
1!
1)
b11 .!
1;
1)!
b111 -!
b100 8
b110 <
b110 +!
b111 (
b1101 *!
17
04
1#
03
1$!
b111 %
b111 ,
b1000 :
#427500
0!
0)
#430000
1!
1)
b100 .!
0;
b111 9
1'!
b1101 -!
b10 8
b1000 <
b1000 +!
b1101 (
b10101 *!
0&!
10
11
1'
#432500
0!
0)
#435000
1!
1)
1.
b10 .!
0)!
1/!
b11 8
07
00
14
0#
13
0$!
0/!
01
0'
#437500
0!
0)
#440000
1!
1)
b11 .!
1;
1)!
b1000 -!
b100 8
b111 <
b111 +!
b1000 (
b1111 *!
17
04
1#
03
1$!
b1000 %
b1000 ,
b1001 :
#442500
0!
0)
#445000
1!
1)
b100 .!
0;
b1000 9
0'!
b1111 -!
b10 8
b1001 <
b1001 +!
b1111 (
b11000 *!
1&!
10
11
1'
#447500
0!
0)
#450000
1!
1)
0.
b10 .!
0)!
1/!
b11 8
07
00
14
0#
13
0$!
0/!
01
0'
#452500
0!
0)
#455000
1!
1)
b11 .!
1;
1)!
b1001 -!
b100 8
b1000 <
b1000 +!
b1001 (
b10001 *!
17
04
1#
03
1$!
b1001 %
b1001 ,
b1010 :
#457500
0!
0)
#460000
1!
1)
b100 .!
0;
b1001 9
1'!
b10001 -!
b10 8
b1010 <
b1010 +!
b10001 (
b11011 *!
0&!
10
11
1'
#462500
0!
0)
#465000
1!
1)
1.
b10 .!
0)!
1/!
b11 8
07
00
14
0#
13
0$!
0/!
01
0'
#467500
0!
0)
#470000
1!
1)
b11 .!
1;
1)!
b1010 -!
b100 8
b1001 <
b1001 +!
b1010 (
b10011 *!
17
04
1#
03
1$!
b1010 %
b1010 ,
b1011 :
#472500
0!
0)
#475000
1!
1)
b100 .!
0;
b1010 9
0'!
b10011 -!
b10 8
b1011 <
b1011 +!
b10011 (
b11110 *!
1&!
10
11
1'
#477500
0!
0)
#480000
1!
1)
0.
b10 .!
0)!
1/!
b11 8
07
00
14
0#
13
0$!
0/!
01
0'
#482500
0!
0)
#485000
1!
1)
b11 .!
1;
1)!
b1011 -!
b100 8
b1010 <
b1010 +!
b1011 (
b10101 *!
17
04
1#
03
1$!
0$
0+
#487500
0!
0)
#490000
1!
1)
b100 .!
0;
1'!
b10101 -!
b10 8
b1011 <
b1011 +!
b10101 (
b100000 *!
0&!
10
11
1'
#492500
0!
0)
#495000
1!
1)
1.
b10 .!
0)!
1/!
b11 8
02
07
00
14
0#
01
0'
1&
1-
